%TF.GenerationSoftware,KiCad,Pcbnew,(6.0.2-0)*%
%TF.CreationDate,2022-04-10T08:55:52+03:00*%
%TF.ProjectId,DCmotor_driver,44436d6f-746f-4725-9f64-72697665722e,rev?*%
%TF.SameCoordinates,Original*%
%TF.FileFunction,Plated,1,2,PTH,Drill*%
%TF.FilePolarity,Positive*%
%FSLAX46Y46*%
G04 Gerber Fmt 4.6, Leading zero omitted, Abs format (unit mm)*
G04 Created by KiCad (PCBNEW (6.0.2-0)) date 2022-04-10 08:55:52*
%MOMM*%
%LPD*%
G01*
G04 APERTURE LIST*
%TA.AperFunction,ViaDrill*%
%ADD10C,0.400000*%
%TD*%
%TA.AperFunction,ComponentDrill*%
%ADD11C,1.400000*%
%TD*%
G04 APERTURE END LIST*
D10*
X143100000Y-99550000D03*
X153050000Y-92100000D03*
D11*
%TO.C,J2*%
X144250000Y-95100000D03*
X146790000Y-95100000D03*
X149330000Y-95100000D03*
%TO.C,J6*%
X150850000Y-115450000D03*
X154350000Y-115450000D03*
M02*
