%TF.GenerationSoftware,KiCad,Pcbnew,(6.0.2-0)*%
%TF.CreationDate,2022-05-25T08:58:35+03:00*%
%TF.ProjectId,powerSupply,706f7765-7253-4757-9070-6c792e6b6963,rev?*%
%TF.SameCoordinates,Original*%
%TF.FileFunction,Copper,L1,Top*%
%TF.FilePolarity,Positive*%
%FSLAX46Y46*%
G04 Gerber Fmt 4.6, Leading zero omitted, Abs format (unit mm)*
G04 Created by KiCad (PCBNEW (6.0.2-0)) date 2022-05-25 08:58:35*
%MOMM*%
%LPD*%
G01*
G04 APERTURE LIST*
%ADD10C,0.300000*%
%TA.AperFunction,NonConductor*%
%ADD11C,0.300000*%
%TD*%
%TA.AperFunction,Profile*%
%ADD12C,0.100000*%
%TD*%
%TA.AperFunction,ComponentPad*%
%ADD13C,2.700000*%
%TD*%
%TA.AperFunction,ComponentPad*%
%ADD14R,3.000000X3.000000*%
%TD*%
%TA.AperFunction,ComponentPad*%
%ADD15C,3.000000*%
%TD*%
%TA.AperFunction,ComponentPad*%
%ADD16R,2.200000X2.200000*%
%TD*%
%TA.AperFunction,ComponentPad*%
%ADD17O,2.200000X2.200000*%
%TD*%
%TA.AperFunction,SMDPad,CuDef*%
%ADD18R,1.700000X2.000000*%
%TD*%
%TA.AperFunction,SMDPad,CuDef*%
%ADD19R,2.000000X1.700000*%
%TD*%
%TA.AperFunction,ComponentPad*%
%ADD20C,2.100000*%
%TD*%
%TA.AperFunction,SMDPad,CuDef*%
%ADD21R,3.000000X2.000000*%
%TD*%
%TA.AperFunction,SMDPad,CuDef*%
%ADD22R,4.000000X2.500000*%
%TD*%
%TA.AperFunction,SMDPad,CuDef*%
%ADD23R,2.000000X1.500000*%
%TD*%
%TA.AperFunction,SMDPad,CuDef*%
%ADD24R,2.000000X3.800000*%
%TD*%
%TA.AperFunction,Conductor*%
%ADD25C,0.400000*%
%TD*%
G04 APERTURE END LIST*
D10*
D11*
X159375000Y-86184523D02*
X159436904Y-86060714D01*
X159436904Y-85875000D01*
X159375000Y-85689285D01*
X159251190Y-85565476D01*
X159127380Y-85503571D01*
X158879761Y-85441666D01*
X158694047Y-85441666D01*
X158446428Y-85503571D01*
X158322619Y-85565476D01*
X158198809Y-85689285D01*
X158136904Y-85875000D01*
X158136904Y-85998809D01*
X158198809Y-86184523D01*
X158260714Y-86246428D01*
X158694047Y-86246428D01*
X158694047Y-85998809D01*
X158136904Y-86803571D02*
X159436904Y-86803571D01*
X158136904Y-87546428D01*
X159436904Y-87546428D01*
X158136904Y-88165476D02*
X159436904Y-88165476D01*
X159436904Y-88475000D01*
X159375000Y-88660714D01*
X159251190Y-88784523D01*
X159127380Y-88846428D01*
X158879761Y-88908333D01*
X158694047Y-88908333D01*
X158446428Y-88846428D01*
X158322619Y-88784523D01*
X158198809Y-88660714D01*
X158136904Y-88475000D01*
X158136904Y-88165476D01*
D10*
D11*
X149972619Y-95711904D02*
X150591666Y-95711904D01*
X150653571Y-95092857D01*
X150591666Y-95154761D01*
X150467857Y-95216666D01*
X150158333Y-95216666D01*
X150034523Y-95154761D01*
X149972619Y-95092857D01*
X149910714Y-94969047D01*
X149910714Y-94659523D01*
X149972619Y-94535714D01*
X150034523Y-94473809D01*
X150158333Y-94411904D01*
X150467857Y-94411904D01*
X150591666Y-94473809D01*
X150653571Y-94535714D01*
X149539285Y-95711904D02*
X149105952Y-94411904D01*
X148672619Y-95711904D01*
D10*
D11*
X109438095Y-114689285D02*
X108138095Y-114689285D01*
X108757142Y-114689285D02*
X108757142Y-113946428D01*
X109438095Y-113946428D02*
X108138095Y-113946428D01*
X109438095Y-113327380D02*
X108138095Y-113327380D01*
X108200000Y-112027380D02*
X108138095Y-112151190D01*
X108138095Y-112336904D01*
X108200000Y-112522619D01*
X108323809Y-112646428D01*
X108447619Y-112708333D01*
X108695238Y-112770238D01*
X108880952Y-112770238D01*
X109128571Y-112708333D01*
X109252380Y-112646428D01*
X109376190Y-112522619D01*
X109438095Y-112336904D01*
X109438095Y-112213095D01*
X109376190Y-112027380D01*
X109314285Y-111965476D01*
X108880952Y-111965476D01*
X108880952Y-112213095D01*
X109438095Y-111408333D02*
X108138095Y-111408333D01*
X108757142Y-111408333D02*
X108757142Y-110665476D01*
X109438095Y-110665476D02*
X108138095Y-110665476D01*
X109561904Y-110355952D02*
X109561904Y-109365476D01*
X108138095Y-109241666D02*
X109438095Y-108808333D01*
X108138095Y-108375000D01*
D10*
D11*
X147441666Y-117038095D02*
X147875000Y-118338095D01*
X148308333Y-117038095D01*
D10*
D11*
X152159523Y-117125000D02*
X152035714Y-117063095D01*
X151850000Y-117063095D01*
X151664285Y-117125000D01*
X151540476Y-117248809D01*
X151478571Y-117372619D01*
X151416666Y-117620238D01*
X151416666Y-117805952D01*
X151478571Y-118053571D01*
X151540476Y-118177380D01*
X151664285Y-118301190D01*
X151850000Y-118363095D01*
X151973809Y-118363095D01*
X152159523Y-118301190D01*
X152221428Y-118239285D01*
X152221428Y-117805952D01*
X151973809Y-117805952D01*
X152778571Y-118363095D02*
X152778571Y-117063095D01*
X153521428Y-118363095D01*
X153521428Y-117063095D01*
X154140476Y-118363095D02*
X154140476Y-117063095D01*
X154450000Y-117063095D01*
X154635714Y-117125000D01*
X154759523Y-117248809D01*
X154821428Y-117372619D01*
X154883333Y-117620238D01*
X154883333Y-117805952D01*
X154821428Y-118053571D01*
X154759523Y-118177380D01*
X154635714Y-118301190D01*
X154450000Y-118363095D01*
X154140476Y-118363095D01*
D10*
D11*
X135866666Y-117163095D02*
X136300000Y-118463095D01*
X136733333Y-117163095D01*
D10*
D11*
X140584523Y-117250000D02*
X140460714Y-117188095D01*
X140275000Y-117188095D01*
X140089285Y-117250000D01*
X139965476Y-117373809D01*
X139903571Y-117497619D01*
X139841666Y-117745238D01*
X139841666Y-117930952D01*
X139903571Y-118178571D01*
X139965476Y-118302380D01*
X140089285Y-118426190D01*
X140275000Y-118488095D01*
X140398809Y-118488095D01*
X140584523Y-118426190D01*
X140646428Y-118364285D01*
X140646428Y-117930952D01*
X140398809Y-117930952D01*
X141203571Y-118488095D02*
X141203571Y-117188095D01*
X141946428Y-118488095D01*
X141946428Y-117188095D01*
X142565476Y-118488095D02*
X142565476Y-117188095D01*
X142875000Y-117188095D01*
X143060714Y-117250000D01*
X143184523Y-117373809D01*
X143246428Y-117497619D01*
X143308333Y-117745238D01*
X143308333Y-117930952D01*
X143246428Y-118178571D01*
X143184523Y-118302380D01*
X143060714Y-118426190D01*
X142875000Y-118488095D01*
X142565476Y-118488095D01*
D10*
D11*
X124216666Y-117088095D02*
X124650000Y-118388095D01*
X125083333Y-117088095D01*
D10*
D11*
X128934523Y-117175000D02*
X128810714Y-117113095D01*
X128625000Y-117113095D01*
X128439285Y-117175000D01*
X128315476Y-117298809D01*
X128253571Y-117422619D01*
X128191666Y-117670238D01*
X128191666Y-117855952D01*
X128253571Y-118103571D01*
X128315476Y-118227380D01*
X128439285Y-118351190D01*
X128625000Y-118413095D01*
X128748809Y-118413095D01*
X128934523Y-118351190D01*
X128996428Y-118289285D01*
X128996428Y-117855952D01*
X128748809Y-117855952D01*
X129553571Y-118413095D02*
X129553571Y-117113095D01*
X130296428Y-118413095D01*
X130296428Y-117113095D01*
X130915476Y-118413095D02*
X130915476Y-117113095D01*
X131225000Y-117113095D01*
X131410714Y-117175000D01*
X131534523Y-117298809D01*
X131596428Y-117422619D01*
X131658333Y-117670238D01*
X131658333Y-117855952D01*
X131596428Y-118103571D01*
X131534523Y-118227380D01*
X131410714Y-118351190D01*
X131225000Y-118413095D01*
X130915476Y-118413095D01*
D10*
D11*
X117634523Y-117200000D02*
X117510714Y-117138095D01*
X117325000Y-117138095D01*
X117139285Y-117200000D01*
X117015476Y-117323809D01*
X116953571Y-117447619D01*
X116891666Y-117695238D01*
X116891666Y-117880952D01*
X116953571Y-118128571D01*
X117015476Y-118252380D01*
X117139285Y-118376190D01*
X117325000Y-118438095D01*
X117448809Y-118438095D01*
X117634523Y-118376190D01*
X117696428Y-118314285D01*
X117696428Y-117880952D01*
X117448809Y-117880952D01*
X118253571Y-118438095D02*
X118253571Y-117138095D01*
X118996428Y-118438095D01*
X118996428Y-117138095D01*
X119615476Y-118438095D02*
X119615476Y-117138095D01*
X119925000Y-117138095D01*
X120110714Y-117200000D01*
X120234523Y-117323809D01*
X120296428Y-117447619D01*
X120358333Y-117695238D01*
X120358333Y-117880952D01*
X120296428Y-118128571D01*
X120234523Y-118252380D01*
X120110714Y-118376190D01*
X119925000Y-118438095D01*
X119615476Y-118438095D01*
D10*
D11*
X112916666Y-117113095D02*
X113350000Y-118413095D01*
X113783333Y-117113095D01*
D12*
X158750000Y-118800000D02*
G75*
G03*
X161050000Y-116500000I1J2299999D01*
G01*
X161100000Y-86852692D02*
G75*
G03*
X158800000Y-84552692I-2299999J1D01*
G01*
X109425000Y-84601346D02*
G75*
G03*
X107125000Y-86901346I-1J-2299999D01*
G01*
X107101345Y-116650000D02*
G75*
G03*
X109401346Y-118898654I2300001J51933D01*
G01*
X107125000Y-86901346D02*
X107101346Y-116650000D01*
X158800000Y-84552692D02*
X109425000Y-84601346D01*
X161050000Y-116500000D02*
X161100000Y-86852692D01*
X109401346Y-118898654D02*
X158750000Y-118800000D01*
D13*
%TO.P,REF\u002A\u002A,*%
%TO.N,*%
X158875000Y-95825000D03*
%TD*%
%TO.P,REF\u002A\u002A,*%
%TO.N,*%
X158675000Y-116175000D03*
%TD*%
%TO.P,REF\u002A\u002A,*%
%TO.N,*%
X109950000Y-102875000D03*
%TD*%
D14*
%TO.P,J8,1,Pin_1*%
%TO.N,PWR_GND*%
X142650000Y-89850000D03*
D15*
%TO.P,J8,2,Pin_2*%
%TO.N,PWR_12V*%
X137650000Y-89850000D03*
%TD*%
D16*
%TO.P,D1,1,K*%
%TO.N,HIGH_V*%
X135225000Y-97725000D03*
D17*
%TO.P,D1,2,A*%
%TO.N,PWR_12V*%
X125065000Y-97725000D03*
%TD*%
D18*
%TO.P,C6,1*%
%TO.N,HIGH_V*%
X120525000Y-101825000D03*
%TO.P,C6,2*%
%TO.N,PWR_GND*%
X120525000Y-105825000D03*
%TD*%
%TO.P,C5,1*%
%TO.N,HIGH_V*%
X114800000Y-101825000D03*
%TO.P,C5,2*%
%TO.N,PWR_GND*%
X114800000Y-105825000D03*
%TD*%
%TO.P,C4,1*%
%TO.N,HIGH_V*%
X117675000Y-101875000D03*
%TO.P,C4,2*%
%TO.N,PWR_GND*%
X117675000Y-105875000D03*
%TD*%
D14*
%TO.P,J6,1,Pin_1*%
%TO.N,PWR_GND*%
X152950000Y-112700000D03*
D15*
%TO.P,J6,2,Pin_2*%
%TO.N,HIGH_V*%
X147950000Y-112700000D03*
%TD*%
D19*
%TO.P,R1,2*%
%TO.N,Net-(D2-Pad1)*%
X155400000Y-98175000D03*
%TO.P,R1,1*%
%TO.N,PWR_GND*%
X151400000Y-98175000D03*
%TD*%
D18*
%TO.P,C1,1*%
%TO.N,HIGH_V*%
X126375000Y-101825000D03*
%TO.P,C1,2*%
%TO.N,PWR_GND*%
X126375000Y-105825000D03*
%TD*%
%TO.P,C2,1*%
%TO.N,HIGH_V*%
X123400000Y-101825000D03*
%TO.P,C2,2*%
%TO.N,PWR_GND*%
X123400000Y-105825000D03*
%TD*%
D15*
%TO.P,J7,2,Pin_2*%
%TO.N,PWR_5V*%
X149175000Y-89850000D03*
D14*
%TO.P,J7,1,Pin_1*%
%TO.N,PWR_GND*%
X154175000Y-89850000D03*
%TD*%
%TO.P,J4,1,Pin_1*%
%TO.N,PWR_GND*%
X129900000Y-112750000D03*
D15*
%TO.P,J4,2,Pin_2*%
%TO.N,HIGH_V*%
X124900000Y-112750000D03*
%TD*%
D20*
%TO.P,J1,*%
%TO.N,*%
X115000000Y-94700000D03*
X115000000Y-90200000D03*
D21*
%TO.P,J1,1*%
%TO.N,PWR_12V*%
X120700000Y-90200000D03*
X120700000Y-96300000D03*
%TO.P,J1,2*%
%TO.N,PWR_GND*%
X109300000Y-96300000D03*
%TO.P,J1,3*%
X109300000Y-90200000D03*
%TD*%
D22*
%TO.P,C3,2*%
%TO.N,PWR_GND*%
X139850000Y-101625000D03*
%TO.P,C3,1*%
%TO.N,PWR_5V*%
X148850000Y-101625000D03*
%TD*%
D19*
%TO.P,D2,2,A*%
%TO.N,HIGH_V*%
X151375000Y-105900000D03*
%TO.P,D2,1,K*%
%TO.N,Net-(D2-Pad1)*%
X155375000Y-105900000D03*
%TD*%
D14*
%TO.P,J3,1,Pin_1*%
%TO.N,PWR_GND*%
X118325000Y-112750000D03*
D15*
%TO.P,J3,2,Pin_2*%
%TO.N,HIGH_V*%
X113325000Y-112750000D03*
%TD*%
D14*
%TO.P,J5,1,Pin_1*%
%TO.N,PWR_GND*%
X141400000Y-112750000D03*
D15*
%TO.P,J5,2,Pin_2*%
%TO.N,HIGH_V*%
X136400000Y-112750000D03*
%TD*%
D14*
%TO.P,J2,1,Pin_1*%
%TO.N,PWR_GND*%
X131250000Y-89850000D03*
D15*
%TO.P,J2,2,Pin_2*%
%TO.N,PWR_12V*%
X126250000Y-89850000D03*
%TD*%
D23*
%TO.P,U1,1,VI*%
%TO.N,HIGH_V*%
X129800000Y-101200000D03*
D24*
%TO.P,U1,2,GND*%
%TO.N,PWR_GND*%
X136100000Y-103500000D03*
D23*
X129800000Y-103500000D03*
%TO.P,U1,3,VO*%
%TO.N,PWR_5V*%
X129800000Y-105800000D03*
%TD*%
D25*
%TO.N,PWR_GND*%
X133349511Y-91949511D02*
X136450489Y-91949511D01*
X136450489Y-91949511D02*
X140550489Y-91949511D01*
X139850000Y-98950978D02*
X136450489Y-95551467D01*
X136450489Y-95551467D02*
X136450489Y-91949511D01*
X139850000Y-101625000D02*
X139850000Y-98950978D01*
%TO.N,PWR_5V*%
X147238386Y-91786614D02*
X149175000Y-89850000D01*
X147238386Y-100013386D02*
X147238386Y-91786614D01*
X148850000Y-101625000D02*
X147238386Y-100013386D01*
%TO.N,Net-(D2-Pad1)*%
X155400000Y-98175000D02*
X155375000Y-98200000D01*
X155375000Y-98200000D02*
X155375000Y-105900000D01*
%TO.N,PWR_GND*%
X152950000Y-112700000D02*
X153175000Y-112475000D01*
X153175000Y-112475000D02*
X153175000Y-99950000D01*
X153175000Y-99950000D02*
X151400000Y-98175000D01*
X154175000Y-89850000D02*
X154175000Y-95400000D01*
X154175000Y-95400000D02*
X151400000Y-98175000D01*
%TO.N,HIGH_V*%
X152350000Y-106875000D02*
X152350000Y-108300000D01*
X151375000Y-105900000D02*
X152350000Y-106875000D01*
X152350000Y-108300000D02*
X147950000Y-112700000D01*
%TO.N,PWR_5V*%
X148850000Y-101625000D02*
X148850000Y-102275000D01*
%TO.N,PWR_GND*%
X137975000Y-103500000D02*
X139850000Y-101625000D01*
X136100000Y-103500000D02*
X137975000Y-103500000D01*
%TO.N,PWR_5V*%
X148850000Y-102275000D02*
X145125489Y-105999511D01*
X145125489Y-105999511D02*
X129999511Y-105999511D01*
X129999511Y-105999511D02*
X129800000Y-105800000D01*
%TO.N,HIGH_V*%
X114800000Y-101825000D02*
X114800000Y-102650000D01*
X114800000Y-102650000D02*
X112850000Y-104600000D01*
X112850000Y-104600000D02*
X112850000Y-112275000D01*
X112850000Y-112275000D02*
X113325000Y-112750000D01*
X114800000Y-101825000D02*
X126375000Y-101825000D01*
%TO.N,PWR_GND*%
X114800000Y-105825000D02*
X126375000Y-105825000D01*
%TO.N,HIGH_V*%
X129800000Y-101200000D02*
X127000000Y-101200000D01*
X127000000Y-101200000D02*
X126375000Y-101825000D01*
%TO.N,PWR_GND*%
X126375000Y-105825000D02*
X126375000Y-104000000D01*
X126375000Y-104000000D02*
X126875000Y-103500000D01*
X126875000Y-103500000D02*
X129800000Y-103500000D01*
X109300000Y-90200000D02*
X110050000Y-90200000D01*
X118025000Y-98575000D02*
X119450000Y-100000000D01*
X119450000Y-100000000D02*
X126593473Y-100000000D01*
X118025000Y-88850000D02*
X118025000Y-98575000D01*
X110050000Y-90200000D02*
X112900000Y-87350000D01*
X112900000Y-87350000D02*
X116525000Y-87350000D01*
X116525000Y-87350000D02*
X118025000Y-88850000D01*
X131250000Y-95343473D02*
X131250000Y-89850000D01*
X126593473Y-100000000D02*
X131250000Y-95343473D01*
%TO.N,HIGH_V*%
X135225000Y-97725000D02*
X133275000Y-97725000D01*
%TO.N,PWR_12V*%
X125065000Y-97725000D02*
X124965000Y-97625000D01*
%TO.N,HIGH_V*%
X133275000Y-97725000D02*
X129800000Y-101200000D01*
%TO.N,PWR_12V*%
X124965000Y-97625000D02*
X124965000Y-91135000D01*
X124965000Y-91135000D02*
X126250000Y-89850000D01*
X120700000Y-96300000D02*
X120800000Y-96200000D01*
X120800000Y-96200000D02*
X123540000Y-96200000D01*
X123540000Y-96200000D02*
X125065000Y-97725000D01*
%TO.N,PWR_GND*%
X142650000Y-89850000D02*
X144749511Y-87750489D01*
X144749511Y-87750489D02*
X152075489Y-87750489D01*
X152075489Y-87750489D02*
X154175000Y-89850000D01*
X131250000Y-89850000D02*
X133349511Y-91949511D01*
X140550489Y-91949511D02*
X142650000Y-89850000D01*
%TO.N,PWR_12V*%
X126250000Y-87775000D02*
X127350000Y-86675000D01*
X127350000Y-86675000D02*
X134475000Y-86675000D01*
X126250000Y-89850000D02*
X126250000Y-87775000D01*
X134475000Y-86675000D02*
X137650000Y-89850000D01*
X120700000Y-90200000D02*
X120700000Y-96300000D01*
%TO.N,PWR_GND*%
X109300000Y-90200000D02*
X109300000Y-96300000D01*
X129900000Y-112750000D02*
X127800489Y-114849511D01*
X127800489Y-114849511D02*
X120424511Y-114849511D01*
X120424511Y-114849511D02*
X118325000Y-112750000D01*
X141400000Y-112750000D02*
X139300489Y-114849511D01*
X139300489Y-114849511D02*
X131999511Y-114849511D01*
X131999511Y-114849511D02*
X129900000Y-112750000D01*
X152950000Y-112700000D02*
X150850489Y-114799511D01*
X150850489Y-114799511D02*
X143449511Y-114799511D01*
X143449511Y-114799511D02*
X141400000Y-112750000D01*
%TO.N,HIGH_V*%
X147950000Y-112700000D02*
X145900489Y-110650489D01*
X145900489Y-110650489D02*
X138499511Y-110650489D01*
X138499511Y-110650489D02*
X136400000Y-112750000D01*
X124900000Y-112750000D02*
X126999511Y-110650489D01*
X126999511Y-110650489D02*
X134300489Y-110650489D01*
X134300489Y-110650489D02*
X136400000Y-112750000D01*
X113325000Y-112750000D02*
X115424511Y-110650489D01*
X122800489Y-110650489D02*
X124900000Y-112750000D01*
X115424511Y-110650489D02*
X122800489Y-110650489D01*
%TO.N,PWR_GND*%
X129800000Y-103500000D02*
X136100000Y-103500000D01*
%TD*%
M02*
