(kicad_pcb (version 20211014) (generator pcbnew)

  (general
    (thickness 1.6)
  )

  (paper "A4")
  (layers
    (0 "F.Cu" signal)
    (31 "B.Cu" signal)
    (32 "B.Adhes" user "B.Adhesive")
    (33 "F.Adhes" user "F.Adhesive")
    (34 "B.Paste" user)
    (35 "F.Paste" user)
    (36 "B.SilkS" user "B.Silkscreen")
    (37 "F.SilkS" user "F.Silkscreen")
    (38 "B.Mask" user)
    (39 "F.Mask" user)
    (40 "Dwgs.User" user "User.Drawings")
    (41 "Cmts.User" user "User.Comments")
    (42 "Eco1.User" user "User.Eco1")
    (43 "Eco2.User" user "User.Eco2")
    (44 "Edge.Cuts" user)
    (45 "Margin" user)
    (46 "B.CrtYd" user "B.Courtyard")
    (47 "F.CrtYd" user "F.Courtyard")
    (48 "B.Fab" user)
    (49 "F.Fab" user)
    (50 "User.1" user)
    (51 "User.2" user)
    (52 "User.3" user)
    (53 "User.4" user)
    (54 "User.5" user)
    (55 "User.6" user)
    (56 "User.7" user)
    (57 "User.8" user)
    (58 "User.9" user)
  )

  (setup
    (stackup
      (layer "F.SilkS" (type "Top Silk Screen"))
      (layer "F.Paste" (type "Top Solder Paste"))
      (layer "F.Mask" (type "Top Solder Mask") (thickness 0.01))
      (layer "F.Cu" (type "copper") (thickness 0.035))
      (layer "dielectric 1" (type "core") (thickness 1.51) (material "FR4") (epsilon_r 4.5) (loss_tangent 0.02))
      (layer "B.Cu" (type "copper") (thickness 0.035))
      (layer "B.Mask" (type "Bottom Solder Mask") (thickness 0.01))
      (layer "B.Paste" (type "Bottom Solder Paste"))
      (layer "B.SilkS" (type "Bottom Silk Screen"))
      (copper_finish "None")
      (dielectric_constraints no)
    )
    (pad_to_mask_clearance 0)
    (grid_origin 155.7 100)
    (pcbplotparams
      (layerselection 0x0001080_7fffffff)
      (disableapertmacros false)
      (usegerberextensions false)
      (usegerberattributes true)
      (usegerberadvancedattributes true)
      (creategerberjobfile false)
      (svguseinch false)
      (svgprecision 6)
      (excludeedgelayer false)
      (plotframeref false)
      (viasonmask false)
      (mode 1)
      (useauxorigin false)
      (hpglpennumber 1)
      (hpglpenspeed 20)
      (hpglpendiameter 15.000000)
      (dxfpolygonmode true)
      (dxfimperialunits true)
      (dxfusepcbnewfont true)
      (psnegative false)
      (psa4output false)
      (plotreference false)
      (plotvalue false)
      (plotinvisibletext false)
      (sketchpadsonfab false)
      (subtractmaskfromsilk false)
      (outputformat 1)
      (mirror false)
      (drillshape 0)
      (scaleselection 1)
      (outputdirectory "gerbers/")
    )
  )

  (net 0 "")
  (net 1 "GND")
  (net 2 "+5V")
  (net 3 "LED-2")
  (net 4 "LED-1")
  (net 5 "unconnected-(J1-Pad2)")
  (net 6 "TX_RX(c)")
  (net 7 "RX_TX(c)")
  (net 8 "unconnected-(J1-Pad6)")
  (net 9 "UPDI")
  (net 10 "button")
  (net 11 "Net-(D1-Pad2)")
  (net 12 "Net-(D2-Pad2)")

  (footprint "fab:SOIC-8_3.9x4.9mm_P1.27mm" (layer "F.Cu")
    (tedit 608D94DE) (tstamp 0d245b71-e79d-4a91-b4fa-102ff103c527)
    (at 147.435 92.3 -90)
    (tags "SOIC 1.27")
    (property "Sheetfile" "Hello-ATtiny.kicad_sch")
    (property "Sheetname" "")
    (path "/b742a1a0-cc51-4d24-85e4-632739b520d1")
    (attr smd)
    (fp_text reference "U1" (at 0 -3.5 90) (layer "F.SilkS")
      (effects (font (size 1 1) (thickness 0.15)))
      (tstamp 9d72ddaf-d37c-44f1-b2cb-b3c798045fcb)
    )
    (fp_text value "ATtiny412" (at 0 3.683 90) (layer "F.Fab")
      (effects (font (size 1 1) (thickness 0.15)))
      (tstamp c70cc59c-b8c6-4390-a2d3-cc2abdf3848e)
    )
    (fp_text user "${REFERENCE}" (at 0 0 90) (layer "F.Fab")
      (effects (font (size 0.9 0.9) (thickness 0.135)))
      (tstamp 0295d699-0dd3-436d-ac96-acc871b2e66d)
    )
    (fp_line (start -3.69 -2.575) (end 2.075 -2.575) (layer "F.SilkS") (width 0.15) (tstamp e6b080cd-4037-4469-84ac-5a8ec16bb91b))
    (fp_line (start -2.075 2.575) (end 2.075 2.575) (layer "F.SilkS") (width 0.15) (tstamp eb7a0666-f37e-42b6-bec4-22b5904199fa))
    (fp_circle (center -2.87 -3.23) (end -2.67 -3.23) (layer "F.SilkS") (width 0.12) (fill none) (tstamp bcd6e405-0bb1-44eb-adb9-068c36c8144d))
    (fp_line (start -4 -2.8) (end 4 -2.8) (layer "B.CrtYd") (width 0.05) (tstamp 3eef14bc-918d-49b2-b75c-b7b8ddb6b560))
    (fp_line (start -4 2.75) (end -4 -2.8) (layer "B.CrtYd") (width 0.05) (tstamp 4e82bce4-1cac-4b3a-87ea-e8dd29740ebc))
    (fp_line (start 4 2.75) (end -4 2.75) (layer "B.CrtYd") (width 0.05) (tstamp 560dfccf-c417-463d-b70f-581d43e3a8d3))
    (fp_line (start 4 -2.8) (end 4 2.75) (layer "B.CrtYd") (width 0.05) (tstamp eb617d3b-02f6-4a72-b952-d98fd5e3fae1))
    (fp_line (start -1.95 2.45) (end 1.95 2.45) (layer "F.Fab") (width 0.1) (tstamp 43968b13-86a1-43f9-a397-25296aa1c52a))
    (fp_line (start 1.95 -2.45) (end 1.95 2.45) (layer "F.Fab") (width 0.1) (tstamp 53b15f8d-2bd4-4e8b-a7f8-9bcd21dfe18c))
    (fp_line (start -1.95 -2.45) (end 1.95 -2.45) (layer "F.Fab") (width 0.1) (tstamp 5862e9ab-88f0-4e6d-84bd-4fa69c8b8087))
    (fp_line (start -1.95 -2.45) (end -1.95 2.45) (layer "F.Fab") (width 0.1) (tstamp 7f0a0f10-ee10-4f68-8ded-36542575b213))
    (pad "1" smd rect locked (at -2.8 -1.905 270) (size 2 0.8) (layers "F.Cu" "F.Paste" "F.Mask")
      (net 2 "+5V") (pinfunction "VCC") (pintype "power_in") (tstamp 32660e9c-769d-4116-b88d-46708f97bcb0))
    (pad "2" smd rect locked (at -2.8 -0.635 270) (size 2 0.8) (layers "F.Cu" "F.Paste" "F.Mask")
      (net 7 "RX_TX(c)") (pinfunction "TXD/PA6/DAC") (pintype "bidirectional") (tstamp eecceb5b-2424-4a36-b74c-ad75b4620fa7))
    (pad "3" smd rect locked (at -2.8 0.635 270) (size 2 0.8) (layers "F.Cu" "F.Paste" "F.Mask")
      (net 6 "TX_RX(c)") (pinfunction "RXD/PA7") (pintype "bidirectional") (tstamp 5f4d23c6-1258-4502-a972-f898c456587f))
    (pad "4" smd rect locked (at -2.8 1.905 270) (size 2 0.8) (layers "F.Cu" "F.Paste" "F.Mask")
      (net 4 "LED-1") (pinfunction "PA1/SDA") (pintype "bidirectional") (tstamp 6290b2ed-bc20-4a2b-a735-5725faf87e6b))
    (pad "5" smd rect locked (at 2.8 1.905 270) (size 2 0.8) (layers "F.Cu" "F.Paste" "F.Mask")
      (net 3 "LED-2") (pinfunction "PA2/SCL") (pintype "bidirectional") (tstamp d2ebce51-4dc1-49e3-a717-ed7feb98d62c))
    (pad "6" smd rect locked (at 2.8 0.635 270) (size 2 0.8) (layers "F.Cu" "F.Paste" "F.Mask")
      (net 9 "UPDI") (pinfunction "~{RESET}/UPDI/PA0") (pintype "bidirectional") (tstamp 9c84f79b-9e84-426d-abbc-aea8c7faadf8))
    (pad "7" smd rect locked (at 2.8 -0.635 270) (size 2 0.8) (layers "F.Cu" "F.Paste" "F.Mask")
      (net 10 "button") (pinfunction "PA3/SCK") (pintype "bidirectional") (tstamp 30b0d063-126a-4eed-ba47-4b83bffb5480))
    (pad "8" smd rect locked (at 2.8 -1.905 270) (size 2 0.8) (layers "F.Cu" "F.Paste" "F.Mask")
      (net 1 "GND") (pinfunction "GND") (pintype "power_in") (tstamp bec64395-4271-4c36-b3b9-787ac07c6b94))
    (model "${FAB}/fab.3dshapes/SOIC-8_3.9x4.9mm_P1.27mm.step"
      (offset (xyz 0 0 0))
      (scale (xyz 1 1 1))
      (rotate (xyz 0 0 0))
    )
  )

  (footprint "fab:LED_1206" (layer "F.Cu")
    (tedit 595FC724) (tstamp 2321fc06-8971-4c4e-bafe-8372f54e829b)
    (at 134.4 92.2 -90)
    (descr "LED SMD 1206, hand soldering")
    (tags "LED 1206")
    (property "Sheetfile" "Hello-ATtiny.kicad_sch")
    (property "Sheetname" "")
    (path "/2a6a8663-97d2-43fe-a8b8-d62582b59e9f")
    (attr smd)
    (fp_text reference "D2" (at 0 -1.85 90) (layer "F.SilkS")
      (effects (font (size 1 1) (thickness 0.15)))
      (tstamp 78b92e3a-8baf-4e19-aa30-d98ae1eba404)
    )
    (fp_text value "LED" (at 0 1.9 90) (layer "F.Fab")
      (effects (font (size 1 1) (thickness 0.15)))
      (tstamp 14dfb4a5-37d6-49fe-adbc-3331265d7cc6)
    )
    (fp_line (start -3.1 0.95) (end 1.6 0.95) (layer "F.SilkS") (width 0.12) (tstamp 42ffd60b-c29c-44aa-bbb1-54ba70b2ce02))
    (fp_line (start -3.1 -0.95) (end -3.1 0.95) (layer "F.SilkS") (width 0.12) (tstamp 961d3cf5-7007-472a-93c7-cf027d4daea8))
    (fp_line (start -3.1 -0.95) (end 1.6 -0.95) (layer "F.SilkS") (width 0.12) (tstamp d555ccf3-f69f-4d49-8846-68f3ade54336))
    (fp_line (start -3.25 -1.11) (end -3.25 1.1) (layer "F.CrtYd") (width 0.05) (tstamp 0f5e6191-105a-45bb-9762-b9d070635fa4))
    (fp_line (start 3.25 1.1) (end 3.25 -1.11) (layer "F.CrtYd") (width 0.05) (tstamp 607390a8-50a3-4f0e-9814-fedacecb2775))
    (fp_line (start 3.25 1.1) (end -3.25 1.1) (layer "F.CrtYd") (width 0.05) (tstamp 6f95e64f-f82a-4e23-8499-332095730cc9))
    (fp_line (start -3.25 -1.11) (end 3.25 -1.11) (layer "F.CrtYd") (width 0.05) (tstamp 89303a52-64bf-4888-9e14-5c8b27a5f300))
    (fp_line (start 0.2 0.4) (end -0.4 0) (layer "F.Fab") (width 0.1) (tstamp 3cabd79a-3fea-4b04-8965-22e61b5077f3))
    (fp_line (start 1.6 -0.8) (end 1.6 0.8) (layer "F.Fab") (width 0.1) (tstamp 4ad8dd9f-ba98-4c25-b357-166975e91893))
    (fp_line (start 0.2 -0.4) (end 0.2 0.4) (layer "F.Fab") (width 0.1) (tstamp 4ef1e2c7-4335-4f61-bd68-b5012c42992f))
    (fp_line (start 1.6 0.8) (end -1.6 0.8) (layer "F.Fab") (width 0.1) (tstamp 84c6da4f-5623-4a9c-a50d-ae757f720ada))
    (fp_line (start -1.6 0.8) (end -1.6 -0.8) (layer "F.Fab") (width 0.1) (tstamp 9ba86bbb-c9e9-4f68-9467-cad713ab86fe))
    (fp_line (start -0.45 -0.4) (end -0.45 0.4) (layer "F.Fab") (width 0.1) (tstamp 9cb0b927-8b32-48c5-89f4-3da08b99e68e))
    (fp_line (start -0.4 0) (end 0.2 -0.4) (layer "F.Fab") (width 0.1) (tstamp d24ef8ce-5ece-4952-ba1a-461691561456))
    (fp_line (start -1.6 -0.8) (end 1.6 -0.8) (layer "F.Fab") (width 0.1) (tstamp fc0faf42-7f34-4df2-bc6a-f8f0b265814d))
    (pad "1" smd rect locked (at -2 0 270) (size 2 1.7) (layers "F.Cu" "F.Paste" "F.Mask")
      (net 1 "GND") (pinfunction "K") (pintype "passive") (tstamp 04a100b1-ee58-469f-9e98-03268b21b536))
    (pad "2" smd rect locked (at 2 0 270) (size 2 1.7) (layers "F.Cu" "F.Paste" "F.Mask")
      (net 12 "Net-(D2-Pad2)") (pinfunction "A") (pintype "passive") (tstamp 5f27c1af-0a7d-4dc7-9d5e-f471b4a60b68))
    (model "${KISYS3DMOD}/LEDs.3dshapes/LED_1206.wrl"
      (offset (xyz 0 0 0))
      (scale (xyz 1 1 1))
      (rotate (xyz 0 0 180))
    )
  )

  (footprint "fab:PinHeader_FTDI_01x06_P2.54mm_Horizontal_SMD" (layer "F.Cu")
    (tedit 60851AE4) (tstamp 284eb3e0-4af8-40aa-99f9-89408b002f30)
    (at 141.1 85 90)
    (descr "https://s3.amazonaws.com/catalogspreads-pdf/PAGE112-113%20.100%20MALE%20HDR.pdf")
    (tags "horizontal pin header SMD 2.54mm")
    (property "Sheetfile" "Hello-ATtiny.kicad_sch")
    (property "Sheetname" "")
    (path "/15bb8d29-164c-4c3b-8040-b47eb8d31e88")
    (attr smd)
    (fp_text reference "J1" (at -1.524 -2.54 90) (layer "F.SilkS")
      (effects (font (size 1 1) (thickness 0.15)) (justify right))
      (tstamp a809bb13-1273-47e7-8005-d5b78402cd84)
    )
    (fp_text value "Conn_FTDI" (at 2.286 15.621 90) (layer "F.Fab")
      (effects (font (size 1 1) (thickness 0.15)))
      (tstamp 544e6d70-5de4-4fa9-90a3-caf0ea85a5cd)
    )
    (fp_text user "RX" (at -1.905 10.16 90) (layer "F.SilkS")
      (effects (font (size 1 1) (thickness 0.15)) (justify right))
      (tstamp 0e997929-7ebb-4e83-adc7-3dd0f7fdcdd0)
    )
    (fp_text user "VCC" (at -1.905 5.08 90) (layer "F.SilkS")
      (effects (font (size 1 1) (thickness 0.15)) (justify right))
      (tstamp 1b2d23d8-3181-413e-8ea9-67052f1a0ba1)
    )
    (fp_text user "GND" (at -1.905 0 90) (layer "F.SilkS")
      (effects (font (size 1 1) (thickness 0.15)) (justify right))
      (tstamp 3211b09c-6674-4ce8-849f-e07950267257)
    )
    (fp_text user "CTS" (at -1.905 2.54 90) (layer "F.SilkS")
      (effects (font (size 1 1) (thickness 0.15)) (justify right))
      (tstamp 6b106209-f296-4912-9059-db23538ad232)
    )
    (fp_text user "TX" (at -1.905 7.62 90) (layer "F.SilkS")
      (effects (font (size 1 1) (thickness 0.15)) (justify right))
      (tstamp 76a16b35-d931-4996-8938-9da762e9492c)
    )
    (fp_text user "RTS" (at -1.905 12.7 90) (layer "F.SilkS")
      (effects (font (size 1 1) (thickness 0.15)) (justify right))
      (tstamp f5e1ebc8-e3dd-4d10-871d-0f61e4c10e99)
    )
    (fp_text user "${REFERENCE}" (at 2.6 6.1) (layer "F.Fab")
      (effects (font (size 1 1) (thickness 0.15)))
      (tstamp 449fdbe1-24c9-4092-a82e-a5df0f19eb8e)
    )
    (fp_line (start 3.81 -0.254) (end 1.27 -0.254) (layer "F.SilkS") (width 0.12) (tstamp 00aaae37-6741-4e78-ba23-839bde6cd36c))
    (fp_line (start 3.81 12.446) (end 1.27 12.446) (layer "F.SilkS") (width 0.12) (tstamp 0a717b45-0e40-45ba-8eb5-237c1b88c2f9))
    (fp_line (start 3.81 7.874) (end 1.27 7.874) (layer "F.SilkS") (width 0.12) (tstamp 1640d46a-7b95-494a-a3c3-b0b261a19a47))
    (fp_line (start 3.81 9.906) (end 1.27 9.906) (layer "F.SilkS") (width 0.12) (tstamp 217ee515-e912-4ae6-8a42-d81c2acad6e9))
    (fp_line (start 3.81 13.97) (end 3.81 -1.27) (layer "F.SilkS") (width 0.12) (tstamp 2fb045bf-18db-49ea-b1e6-b2c67e776cd6))
    (fp_line (start 3.81 2.794) (end 1.27 2.794) (layer "F.SilkS") (width 0.12) (tstamp 4b463a08-e787-4b7c-bdef-13b7b5a6299a))
    (fp_line (start 3.81 12.954) (end 1.27 12.954) (layer "F.SilkS") (width 0.12) (tstamp 573467c2-71d0-4d51-9c81-8c5ecd95a013))
    (fp_line (start 3.81 -1.27) (end 6.35 -1.27) (layer "F.SilkS") (width 0.12) (tstamp 6ce3d4c4-29c5-47cb-bddc-00a2ea8c7f3d))
    (fp_line (start 3.81 0.254) (end 1.27 0.254) (layer "F.SilkS") (width 0.12) (tstamp 6f4d19c7-2bf8-466f-aea3-817c0c6defa6))
    (fp_line (start -1.27 -1.27) (end 0 -1.27) (layer "F.SilkS") (width 0.12) (tstamp 7d86b980-6926-41e6-8f81-ee76401c2b22))
    (fp_line (start 3.81 5.334) (end 1.27 5.334) (layer "F.SilkS") (width 0.12) (tstamp 7f5bfe30-bd58-4f38-9ffd-bde746cbad1f))
    (fp_line (start 3.81 2.286) (end 1.27 2.286) (layer "F.SilkS") (width 0.12) (tstamp 9ae3a0f1-ff5a-4683-a74e-f792bb59e8af))
    (fp_line (start 3.81 10.414) (end 1.27 10.414) (layer "F.SilkS") (width 0.12) (tstamp a2e99dd8-974c-4aa4-bb86-49627c1cb630))
    (fp_line (start 6.35 13.97) (end 3.81 13.97) (layer "F.SilkS") (width 0.12) (tstamp aac0ddad-b98c-47f0-ae77-c37e73b396f7))
    (fp_line (start 3.81 4.826) (end 1.27 4.826) (layer "F.SilkS") (width 0.12) (tstamp bdeff0b0-d3c0-4f4c-adfd-f5e15cc7775b))
    (fp_line (start 3.81 7.366) (end 1.27 7.366) (layer "F.SilkS") (width 0.12) (tstamp d3555311-f089-4336-bfb7-2413a4df2f08))
    (fp_line (start 6.35 -1.27) (end 6.35 13.97) (layer "F.SilkS") (width 0.12) (tstamp d661c0c1-9a29-454d-abcd-0bb868d39fe5))
    (fp_line (start 6.4 14.5) (end 6.4 -1.8) (layer "F.CrtYd") (width 0.05) (tstamp 0560d9e6-7a86-479d-84fc-0ec915d62cea))
    (fp_line (start 6.4 -1.8) (end -1.8 -1.8) (layer "F.CrtYd") (width 0.05) (tstamp 899eba56-f64c-46a0-b678-d1180a1ff3aa))
    (fp_line (start -1.8 14.5) (end 6.4 14.5) (layer "F.CrtYd") (width 0.05) (tstamp aaddabfe-0500-4818-ab54-2eefcb12aaab))
    (fp_line (start -1.8 -1.8) (end -1.8 14.5) (layer "F.CrtYd") (width 0.05) (tstamp fe58da8d-70f0-4c3c-ba33-1942b951f5f5))
    (fp_line (start 3.81 10.16) (end -0.635 10.16) (layer "F.Fab") (width 0.1) (tstamp 09a9096a-4f3e-4a77-8f4f-7c94f154ea2a))
    (fp_line (start -0.635 7.366) (end -0.635 7.874) (layer "F.Fab") (width 0.1) (tstamp 0ca17e6c-1029-4889-9a83-6f0769cf8362))
    (fp_line (start 6.34 -1.27) (end 6.35 13.97) (layer "F.Fab") (width 0.1) (tstamp 170d8656-8d88-4f68-ae50-d715d5713f68))
    (fp_line (start 3.8 13.97) (end 6.35 13.97) (layer "F.Fab") (width 0.1) (tstamp 18aa728f-b3a7-4593-924a-b6e09b1b3941))
    (fp_line (start 3.81 7.62) (end -0.635 7.62) (layer "F.Fab") (width 0.1) (tstamp 3bf6c4cb-12d1-495d-b55d-7f1619679ba0))
    (fp_line (start 3.81 5.08) (end -0.635 5.08) (layer "F.Fab") (width 0.1) (tstamp 506b942c-fbeb-4847-8520-f8720b149d93))
    (fp_line (start -0.635 -0.254) (end -0.635 0.254) (layer "F.Fab") (width 0.1) (tstamp 56f4308e-ff30-42bb-9f09-b81ac503cb70))
    (fp_line (start -0.635 4.826) (end -0.635 5.334) (layer "F.Fab") (width 0.1) (tstamp 79547c10-11c6-48a7-9e24-a6fcd8f65742))
    (fp_line (start 3.81 12.7) (end -0.635 12.7) (layer "F.Fab") (width 0.1) (tstamp 798b47e8-b14a-4f4f-84da-a002440dd70e))
    (fp_line (start 3.81 2.54) (end -0.635 2.54) (layer "F.Fab") (width 0.1) (tstamp 8e1de856-3650-44fc-bdbc-9b70d85e955a))
    (fp_line (start -0.635 2.286) (end -0.635 2.794) (layer "F.Fab") (width 0.1) (tstamp a5ca5cfb-2cb6-45b1-a7fd-6fc0023a2c7e))
    (fp_line (start -0.635 9.906) (end -0.635 10.414) (layer "F.Fab") (width 0.1) (tstamp a735bf18-82ea-45cf-aa2a-6954bc33fa78))
    (fp_line (start 3.8 13.97) (end 3.8 -1.27) (layer "F.Fab") (width 0.1) (tstamp b7521029-4125-4ad1-beeb-31e5725fd477))
    (fp_line (start 3.81 0) (end -0.635 0) (layer "F.Fab") (width 0.1) (tstamp c87281bb-6df9-4d8c-afed-43018d761098))
    (fp_line (start -0.635 12.446) (end -0.635 12.954) (layer "F.Fab") (width 0.1) (tstamp e1e0beab-bd0b-4772-a29d-35e5941c8c5b))
    (fp_line (start 3.8 -1.27) (end 6.34 -1.27) (layer "F.Fab") (width 0.1) (tstamp e9fd5c3d-bba3-4119-8361-4bafa8b6c5bc))
    (pad "1" smd rect locked (at 0 0 90) (size 2.5 1.7) (layers "F.Cu" "F.Paste" "F.Mask")
      (net 1 "GND") (pinfunction "GND") (pintype "passive") (tstamp 01edb7fb-2cab-4825-8960-f0a64c6e8bf5))
    (pad "2" smd rect locked (at 0 2.54 90) (size 2.5 1.7) (layers "F.Cu" "F.Paste" "F.Mask")
      (net 5 "unconnected-(J1-Pad2)") (pinfunction "CTS") (pintype "passive+no_connect") (tstamp f3ef3f37-f50d-40bb-9544-5337976dad80))
    (pad "3" smd rect locked (at 0 5.08 90) (size 2.5 1.7) (layers "F.Cu" "F.Paste" "F.Mask")
      (net 2 "+5V") (pinfunction "VCC") (pintype "passive") (tstamp 3aac4a1e-4236-4436-ad93-122a385cdc24))
    (pad "4" smd rect locked (at 0 7.62 90) (size 2.5 1.7) (layers "F.Cu" "F.Paste" "F.Mask")
      (net 6 "TX_RX(c)") (pinfunction "TX") (pintype "passive") (tstamp 1115195e-3f3a-4320-8af9-d2005daccad9))
    (pad "5" smd rect locked (at 0 10.16 90) (size 2.5 1.7) (layers "F.Cu" "F.Paste" "F.Mask")
      (net 7 "RX_TX(c)") (pinfunction "RX") (pintype "passive") (tstamp 105c56d1-30e6-4a56-976f-42759cb1f7f2))
    (pad "6" smd rect locked (at 0 12.7 90) (size 2.5 1.7) (layers "F.Cu" "F.Paste" "F.Mask")
      (net 8 "unconnected-(J1-Pad6)") (pinfunction "RTS") (pintype "passive+no_connect") (tstamp 5d17a631-f4e2-44ee-b503-8fcb323a2075))
    (model "${FAB}/fab.3dshapes/Header_SMD_01x06_P2.54mm_Horizontal_Male.step"
      (offset (xyz 0 0 0))
      (scale (xyz 1 1 1))
      (rotate (xyz 0 0 0))
    )
  )

  (footprint "fab:C_1206" (layer "F.Cu")
    (tedit 6002C54C) (tstamp 77e50a6c-d4e9-4852-87bd-2e3c7c1565bc)
    (at 152.1 92.3 -90)
    (descr "Capacitor SMD 1206, hand soldering")
    (tags "capacitor 1206")
    (property "Sheetfile" "Hello-ATtiny.kicad_sch")
    (property "Sheetname" "")
    (path "/f01ddc9d-fca9-4016-9c86-9c13952d5414")
    (attr smd)
    (fp_text reference "C1" (at 0 -1.85 90) (layer "F.SilkS")
      (effects (font (size 1 1) (thickness 0.15)))
      (tstamp f0b25512-22b5-4a91-87af-b5c076c89f21)
    )
    (fp_text value "C" (at 0 1.9 90) (layer "F.Fab")
      (effects (font (size 1 1) (thickness 0.15)))
      (tstamp 82e21688-a477-4e27-866e-fc4e26af363d)
    )
    (fp_text user "${REFERENCE}" (at 0 0 90) (layer "F.Fab")
      (effects (font (size 0.7 0.7) (thickness 0.105)))
      (tstamp 343c284e-7d4a-4aac-88d7-394c941c34f2)
    )
    (fp_line (start -1 -1.07) (end 1 -1.07) (layer "F.SilkS") (width 0.12) (tstamp 83ca15a9-ea9a-4866-9fcc-d86303607169))
    (fp_line (start 1 1.07) (end -1 1.07) (layer "F.SilkS") (width 0.12) (tstamp 97af4f75-a667-42ab-a6d9-ae3268153439))
    (fp_line (start -3.25 -1.11) (end -3.25 1.1) (layer "F.CrtYd") (width 0.05) (tstamp a5b9269e-0ffc-47b2-b670-872d9a5ce123))
    (fp_line (start 3.25 1.1) (end -3.25 1.1) (layer "F.CrtYd") (width 0.05) (tstamp b670c6f1-946a-44e4-93c7-4dada6843506))
    (fp_line (start 3.25 1.1) (end 3.25 -1.11) (layer "F.CrtYd") (width 0.05) (tstamp e9e2f053-e9f1-46de-9ac2-2c060c8cb4c6))
    (fp_line (start -3.25 -1.11) (end 3.25 -1.11) (layer "F.CrtYd") (width 0.05) (tstamp fdab2790-327e-4fad-9e7b-ed896e262470))
    (fp_line (start -1.6 -0.8) (end 1.6 -0.8) (layer "F.Fab") (width 0.1) (tstamp 451fb810-fed0-4887-b67e-643536757a3b))
    (fp_line (start 1.6 -0.8) (end 1.6 0.8) (layer "F.Fab") (width 0.1) (tstamp 499222ac-c96f-415d-bfb3-7be006e69540))
    (fp_line (start 1.6 0.8) (end -1.6 0.8) (layer "F.Fab") (width 0.1) (tstamp 8aa80796-6311-4abc-8304-859889d32265))
    (fp_line (start -1.6 0.8) (end -1.6 -0.8) (layer "F.Fab") (width 0.1) (tstamp ba050c6f-1fb9-45d8-b229-0cdaa205b1e3))
    (pad "1" smd rect locked (at -2 0 270) (size 2 1.7) (layers "F.Cu" "F.Paste" "F.Mask")
      (net 2 "+5V") (pintype "passive") (tstamp 5263f325-389b-42ab-a32b-940369603a19))
    (pad "2" smd rect locked (at 2 0 270) (size 2 1.7) (layers "F.Cu" "F.Paste" "F.Mask")
      (net 1 "GND") (pintype "passive") (tstamp 4cfbd9a6-3bc9-49cf-be35-1612dbd74676))
    (model "${FAB}/fab.3dshapes/C_1206.step"
      (offset (xyz 0 0 0))
      (scale (xyz 1 1 1))
      (rotate (xyz 0 0 0))
    )
  )

  (footprint "fab:PinHeader_2x03_P2.54mm_Vertical_SMD" (layer "F.Cu")
    (tedit 608517EB) (tstamp 96fa03f9-875a-44d9-a39f-15a38baff47c)
    (at 141.6 103 180)
    (descr "surface-mounted straight pin header, 2x03, 2.54mm pitch, double rows")
    (tags "Surface mounted pin header SMD 2x03 2.54mm double row")
    (property "Sheetfile" "Hello-ATtiny.kicad_sch")
    (property "Sheetname" "")
    (path "/0870d398-c7c1-4a3e-8e9c-f925ff3cac57")
    (attr smd)
    (fp_text reference "J2" (at 0 -4.87) (layer "F.SilkS")
      (effects (font (size 1 1) (thickness 0.15)))
      (tstamp 121cdf63-7af4-4071-8737-f59816d95dce)
    )
    (fp_text value "Conn_UPDI_2x03" (at 0 4.87) (layer "F.Fab")
      (effects (font (size 1 1) (thickness 0.15)))
      (tstamp ac467f4d-4189-45b7-9b8c-4aebac5c6300)
    )
    (fp_text user "${REFERENCE}" (at 0 0 90) (layer "F.Fab")
      (effects (font (size 1 1) (thickness 0.15)))
      (tstamp faa791e3-1fc3-4bb3-a8ec-f4ec8941d5af)
    )
    (fp_line (start 2.6 -3.87) (end 2.6 -3.3) (layer "F.SilkS") (width 0.12) (tstamp 0a04226b-5f4a-49a4-ac9e-e9af005a177a))
    (fp_line (start -2.6 3.87) (end 2.6 3.87) (layer "F.SilkS") (width 0.12) (tstamp 1931139f-63f3-440c-b77f-567c0f0fa3e3))
    (fp_line (start -2.6 -3.87) (end -2.6 -3.3) (layer "F.SilkS") (width 0.12) (tstamp 1c95cacd-6936-48ec-a7c6-aab78eb2eb32))
    (fp_line (start -4.04 -3.3) (end -2.6 -3.3) (layer "F.SilkS") (width 0.12) (tstamp 3101855a-8e6e-40f9-8e57-378c777e272a))
    (fp_line (start -2.6 3.3) (end -2.6 3.87) (layer "F.SilkS") (width 0.12) (tstamp 89c66475-1517-4b96-b25d-f49798bd815e))
    (fp_line (start -2.6 -3.87) (end 2.6 -3.87) (layer "F.SilkS") (width 0.12) (tstamp 921026b9-1e6a-4723-94a7-2f44d503e337))
    (fp_line (start 2.6 3.3) (end 2.6 3.87) (layer "F.SilkS") (width 0.12) (tstamp b4f83647-0ff2-4d2a-aad1-ebdfdc5a64f4))
    (fp_line (start -2.6 0.76) (end -2.6 1.78) (layer "F.SilkS") (width 0.12) (tstamp d62953c5-1d66-462f-823d-0607149064ee))
    (fp_line (start 2.6 0.76) (end 2.6 1.78) (layer "F.SilkS") (width 0.12) (tstamp df143334-cefb-45f7-95b8-783d715fb488))
    (fp_line (start 2.6 -1.78) (end 2.6 -0.76) (layer "F.SilkS") (width 0.12) (tstamp f3873f52-00b0-4dd1-8a3c-1a2bd1f0ac84))
    (fp_line (start -2.6 -1.78) (end -2.6 -0.76) (layer "F.SilkS") (width 0.12) (tstamp f96c74db-59e7-4a68-bbbf-aa990bec1db1))
    (fp_line (start -5.9 4.35) (end 5.9 4.35) (layer "F.CrtYd") (width 0.05) (tstamp 0188136b-2f03-4cd4-8f7b-5a33656f5641))
    (fp_line (start 5.9 -4.35) (end -5.9 -4.35) (layer "F.CrtYd") (width 0.05) (tstamp 1d3668c6-40f9-4f0c-a9f2-a4b5e26d6725))
    (fp_line (start -5.9 -4.35) (end -5.9 4.35) (layer "F.CrtYd") (width 0.05) (tstamp 5b060b70-955c-45b6-8b83-be2320706ce6))
    (fp_line (start 5.9 4.35) (end 5.9 -4.35) (layer "F.CrtYd") (width 0.05) (tstamp d8de39c9-eca9-4bb9-afb9-e171440bcc96))
    (fp_line (start 3.6 -2.86) (end 3.6 -2.22) (layer "F.Fab") (width 0.1) (tstamp 02aa2afc-723e-4d6c-b7f3-b198814e99d8))
    (fp_line (start -3.6 -2.22) (end -2.54 -2.22) (layer "F.Fab") (width 0.1) (tstamp 203a8cc8-7541-4933-98b7-f37c7fa5d163))
    (fp_line (start 2.54 -2.86) (end 3.6 -2.86) (layer "F.Fab") (width 0.1) (tstamp 27843a3d-5764-4e79-b42e-5f978e65e046))
    (fp_line (start 2.54 -3.81) (end 2.54 3.81) (layer "F.Fab") (width 0.1) (tstamp 28b61970-be32-4027-a006-7ee2adc035c1))
    (fp_line (start 3.6 2.22) (end 3.6 2.86) (layer "F.Fab") (width 0.1) (tstamp 2ac01e62-6352-4a00-a9da-a93228c8aaff))
    (fp_line (start -2.54 -0.32) (end -3.6 -0.32) (layer "F.Fab") (width 0.1) (tstamp 4f26bff4-9961-41ac-a2ff-b91e334bf656))
    (fp_line (start 3.6 -2.22) (end 2.54 -2.22) (layer "F.Fab") (width 0.1) (tstamp 5d285365-8b41-4fa9-8bff-d7a5b38878c7))
    (fp_line (start -3.6 -2.86) (end -3.6 -2.22) (layer "F.Fab") (width 0.1) (tstamp 6791df4a-e5fd-44fc-8069-1df8ab313ee3))
    (fp_line (start 3.6 -0.32) (end 3.6 0.32) (layer "F.Fab") (width 0.1) (tstamp 7f552bbd-80d0-4b1c-acc2-0cad2452735e))
    (fp_line (start -3.6 2.22) (end -3.6 2.86) (layer "F.Fab") (width 0.1) (tstamp 896728ce-ec00-4188-ad34-5edf3ea11ac2))
    (fp_line (start 2.54 -0.32) (end 3.6 -0.32) (layer "F.Fab") (width 0.1) (tstamp 98ff5e0a-facf-4168-8403-df0c14948bd8))
    (fp_line (start -3.6 -0.32) (end -3.6 0.32) (layer "F.Fab") (width 0.1) (tstamp 9b800fe7-d67d-4e3e-9554-e8909129d520))
    (fp_line (start -2.54 2.22) (end -3.6 2.22) (layer "F.Fab") (width 0.1) (tstamp 9c874b6e-83d7-4931-abe0-335408880256))
    (fp_line (start -2.54 -2.86) (end -1.59 -3.81) (layer "F.Fab") (width 0.1) (tstamp a2809418-519f-466b-bb95-1ebd7f89570d))
    (fp_line (start 2.54 3.81) (end -2.54 3.81) (layer "F.Fab") (width 0.1) (tstamp aa02193f-82e3-4dd8-b376-ed8ef21540aa))
    (fp_line (start -3.6 2.86) (end -2.54 2.86) (layer "F.Fab") (width 0.1) (tstamp be4ffdc9-1bb7-4c84-a6ce-f0ec2045dae8))
    (fp_line (start 2.54 2.22) (end 3.6 2.22) (layer "F.Fab") (width 0.1) (tstamp c41f55d6-2259-4376-b402-bc71a7666e0a))
    (fp_line (start -3.6 0.32) (end -2.54 0.32) (layer "F.Fab") (width 0.1) (tstamp c995b93e-573e-41d8-a09c-9468e240752d))
    (fp_line (start 3.6 2.86) (end 2.54 2.86) (layer "F.Fab") (width 0.1) (tstamp ca525f82-ac2e-4e10-a87e-bb0d9e50779b))
    (fp_line (start -2.54 3.81) (end -2.54 -2.86) (layer "F.Fab") (width 0.1) (tstamp dae275a9-9f7f-48b7-ac25-fdfb9f372461))
    (fp_line (start 3.6 0.32) (end 2.54 0.32) (layer "F.Fab") (width 0.1) (tstamp eae5b1b2-4a82-4c2c-b657-499d40021952))
    (fp_line (start -1.59 -3.81) (end 2.54 -3.81) (layer "F.Fab") (width 0.1) (tstamp fb3a2119-2899-46b9-baae-28226f86ca0a))
    (fp_line (start -2.54 -2.86) (end -3.6 -2.86) (layer "F.Fab") (width 0.1) (tstamp fba9985a-ba26-4baf-80ec-357f064d3e09))
    (pad "1" smd rect locked (at -2.525 -2.54 180) (size 3.15 1) (layers "F.Cu" "F.Paste" "F.Mask")
      (net 9 "UPDI") (pinfunction "UPDI") (pintype "passive") (tstamp 59b9a946-26c9-4be5-a1d8-fd4235d24e12))
    (pad "2" smd rect locked (at 2.525 -2.54 180) (size 3.15 1) (layers "F.Cu" "F.Paste" "F.Mask")
      (net 2 "+5V") (pinfunction "VCC") (pintype "passive") (tstamp 3ad69d81-761b-4001-bfc1-8b9142b4fc20))
    (pad "3" smd rect locked (at -2.525 0 180) (size 3.15 1) (layers "F.Cu" "F.Paste" "F.Mask")
      (net 1 "GND") (pinfunction "GND") (pintype "passive") (tstamp b75341b9-bd1f-4096-a783-af3f263220b2))
    (pad "4" smd rect locked (at 2.525 0 180) (size 3.15 1) (layers "F.Cu" "F.Paste" "F.Mask")
      (net 1 "GND") (pinfunction "GND") (pintype "passive") (tstamp 895026f6-22fd-440c-9d43-ed2dffa694c6))
    (pad "5" smd rect locked (at -2.525 2.54 180) (size 3.15 1) (layers "F.Cu" "F.Paste" "F.Mask")
      (net 2 "+5V") (pinfunction "VCC") (pintype "passive") (tstamp ea1e34af-c5a0-403d-acd8-e2bfb0aa4a62))
    (pad "6" smd rect locked (at 2.525 2.54 180) (size 3.15 1) (layers "F.Cu" "F.Paste" "F.Mask")
      (net 9 "UPDI") (pinfunction "UPDI") (pintype "passive") (tstamp 20238a2b-4a63-4707-a233-3de9db88ec81))
    (model "${KISYS3DMOD}/Connector_PinHeader_2.54mm.3dshapes/PinHeader_2x03_P2.54mm_Vertical_SMD.wrl"
      (offset (xyz 0 0 0))
      (scale (xyz 1 1 1))
      (rotate (xyz 0 0 0))
    )
  )

  (footprint "fab:R_1206" (layer "F.Cu")
    (tedit 60020482) (tstamp a2ec0b1e-bc00-400d-8118-f456cb5ef2ae)
    (at 157.3 92.1 90)
    (descr "Resistor SMD 1206, hand soldering")
    (tags "resistor 1206")
    (property "Sheetfile" "Hello-ATtiny.kicad_sch")
    (property "Sheetname" "")
    (path "/14913e6b-e40a-45c1-a44e-9eac9cec7ac2")
    (attr smd)
    (fp_text reference "R1" (at 0 -1.85 90) (layer "F.SilkS")
      (effects (font (size 1 1) (thickness 0.15)))
      (tstamp 0333dac8-c743-412b-8e8c-89d8a46bf13d)
    )
    (fp_text value "R" (at 0 1.9 90) (layer "F.Fab")
      (effects (font (size 1 1) (thickness 0.15)))
      (tstamp 552b4a47-796e-4d4e-b39e-1581ed135e39)
    )
    (fp_text user "${REFERENCE}" (at 0 0 90) (layer "F.Fab")
      (effects (font (size 0.7 0.7) (thickness 0.105)))
      (tstamp 7c681c98-7e55-4d94-987e-c931e92488e3)
    )
    (fp_line (start 1 1.07) (end -1 1.07) (layer "F.SilkS") (width 0.12) (tstamp 135e8ee7-ee76-466f-8e9f-46beee7e5b29))
    (fp_line (start -1 -1.07) (end 1 -1.07) (layer "F.SilkS") (width 0.12) (tstamp 8fd1d2dd-6a35-4070-8362-7ec8898c9ae5))
    (fp_line (start 3.25 1.1) (end 3.25 -1.11) (layer "F.CrtYd") (width 0.05) (tstamp 00a638be-2f6f-427b-88d5-ac57bad0525d))
    (fp_line (start -3.25 -1.11) (end -3.25 1.1) (layer "F.CrtYd") (width 0.05) (tstamp 1def42ff-405e-4401-917b-3918ab6675e6))
    (fp_line (start 3.25 1.1) (end -3.25 1.1) (layer "F.CrtYd") (width 0.05) (tstamp 8f6b970f-4d08-42ad-b516-623de01a19b5))
    (fp_line (start -3.25 -1.11) (end 3.25 -1.11) (layer "F.CrtYd") (width 0.05) (tstamp ef34c09e-65f0-4b13-841b-8f0b0585a46d))
    (fp_line (start 1.6 -0.8) (end 1.6 0.8) (layer "F.Fab") (width 0.1) (tstamp 59e24ae1-58fe-4e8f-b253-14c834801d38))
    (fp_line (start -1.6 -0.8) (end 1.6 -0.8) (layer "F.Fab") (width 0.1) (tstamp a788976a-2431-489e-85c7-3c5af2f1911f))
    (fp_line (start 1.6 0.8) (end -1.6 0.8) (layer "F.Fab") (width 0.1) (tstamp a8f9173b-ddbd-408a-a1bd-b054691d67d8))
    (fp_line (start -1.6 0.8) (end -1.6 -0.8) (layer "F.Fab") (width 0.1) (tstamp ef196175-2a53-433c-9128-c88de3d518fc))
    (pad "1" smd rect locked (at -2 0 90) (size 2 1.7) (layers "F.Cu" "F.Paste" "F.Mask")
      (net 11 "Net-(D1-Pad2)") (pintype "passive") (tstamp 82a1c252-54b2-4497-940f-fba7e2e6075f))
    (pad "2" smd rect locked (at 2 0 90) (size 2 1.7) (layers "F.Cu" "F.Paste" "F.Mask")
      (net 3 "LED-2") (pintype "passive") (tstamp 3f2c48a8-3d17-4781-929d-db20ff9b4483))
    (model "${FAB}/fab.3dshapes/R_1206.step"
      (offset (xyz 0 0 0))
      (scale (xyz 1 1 1))
      (rotate (xyz 0 0 0))
    )
  )

  (footprint "fab:Button_Omron_B3SN_6x6mm" (layer "F.Cu")
    (tedit 5EC65B05) (tstamp af5599c7-f149-438e-80d2-caacf45931ee)
    (at 154.4 102.7 -90)
    (descr "Surface Mount Tactile Switch for High-Density Packaging")
    (tags "Tactile Switch")
    (property "Sheetfile" "Hello-ATtiny.kicad_sch")
    (property "Sheetname" "")
    (path "/414a394a-c675-47dd-8815-5d1f10bcae27")
    (attr smd)
    (fp_text reference "SW1" (at 0 -4.5 90) (layer "F.SilkS")
      (effects (font (size 1 1) (thickness 0.15)))
      (tstamp 14165272-a234-4d99-8aea-2b785917d5c8)
    )
    (fp_text value "BUTTON_B3SN" (at 0 4.5 90) (layer "F.Fab")
      (effects (font (size 1 1) (thickness 0.15)))
      (tstamp d9ab214c-1521-4805-b231-e96924b752cc)
    )
    (fp_text user "${REFERENCE}" (at 0 -4.5 90) (layer "F.Fab")
      (effects (font (size 1 1) (thickness 0.15)))
      (tstamp 71b6b33c-9cf0-4784-a81d-28b806557f02)
    )
    (fp_line (start 3.15 3.15) (end -3.15 3.15) (layer "F.SilkS") (width 0.12) (tstamp 03131cd5-2112-4e62-8138-0174e81279e9))
    (fp_line (start -3.15 1) (end -3.15 -1) (layer "F.SilkS") (width 0.12) (tstamp 3cc7cf26-2a77-40b1-ac30-d9b53397658b))
    (fp_line (start 3.15 -1) (end 3.15 1) (layer "F.SilkS") (width 0.12) (tstamp 470771f4-703a-4b63-ae1b-31101b135a67))
    (fp_line (start -3.15 -3.15) (end 3.15 -3.15) (layer "F.SilkS") (width 0.12) (tstamp c0247fc4-e139-49f3-b731-32f887d22258))
    (fp_line (start -5 3.7) (end 5 3.7) (layer "F.CrtYd") (width 0.05) (tstamp 04b0e23b-41e7-407e-809f-f67e5848ab6a))
    (fp_line (start 5 -3.7) (end -5 -3.7) (layer "F.CrtYd") (width 0.05) (tstamp 250549c0-f328-461b-9ee5-f5302342bbe0))
    (fp_line (start -5 -3.7) (end -5 3.7) (layer "F.CrtYd") (width 0.05) (tstamp 51b468f9-14fa-444d-85e1-be01ba5c1c27))
    (fp_line (start 5 3.7) (end 5 -3.7) (layer "F.CrtYd") (width 0.05) (tstamp f3ee7a52-e61f-443b-bdc9-52960a316aff))
    (fp_line (start -3 3) (end -3 -3) (layer "F.Fab") (width 0.1) (tstamp 2b00fae0-97b3-445d-bf35-c9e0935afe1b))
    (fp_line (start 3 -3) (end 3 3) (layer "F.Fab") (width 0.1) (tstamp 6b3454d6-2fb2-4aa3-a2b2-1dc1d44633f2))
    (fp_line (start -3 -3) (end 3 -3) (layer "F.Fab") (width 0.1) (tstamp 9765b86a-9551-414a-a938-7933895550f6))
    (fp_line (start 3 3) (end -3 3) (layer "F.Fab") (width 0.1) (tstamp af5d320d-bcca-4713-a3ac-a0c50fca21b1))
    (fp_circle (center 0 0) (end 1.65 0) (layer "F.Fab") (width 0.1) (fill none) (tstamp 6af1585d-d55f-40b9-b88a-455699c2d754))
    (pad "1" smd rect locked (at 3.5 -2 270) (size 2.5 1.5) (layers "F.Cu" "F.Paste" "F.Mask")
      (net 1 "GND") (pinfunction "1") (pintype "passive") (tstamp 56e6ab88-a25b-4a51-bbf4-bb1dd4bebc8f))
    (pad "1" smd rect locked (at -3.5 -2 270) (size 2.5 1.5) (layers "F.Cu" "F.Paste" "F.Mask")
      (net 1 "GND") (pinfunction "1") (pintype "passive") (tstamp 95087703-81e3-4794-8b18-bc7264b9936f))
    (pad "2" smd rect locked (at 3.5 2 270) (size 2.5 1.5) (layers "F.Cu" "F.Paste" "F.Mask")
      (net 10 "button") (pinfunction "2") (pintype "passive") (tstamp 4c57e868-00bc-40df-9b42-c77933d270d4))
    (pad "2" smd rect locked (at -3.5 2 270) (size 2.5 1.5) (layers "F.Cu" "F.Paste" "F.Mask")
      (net 10 "button") (pinfunction "2") (pintype "passive") (tstamp e2908e98-1461-4fcd-a463-a9e36108db99))
    (model "${KISYS3DMOD}/Buttons_Switches_SMD.3dshapes/SW_SPST_B3S-1000.wrl"
      (offset (xyz 0 0 0))
      (scale (xyz 1 1 1))
      (rotate (xyz 0 0 0))
    )
  )

  (footprint "fab:R_1206" (layer "F.Cu")
    (tedit 60020482) (tstamp cf740ee0-5417-46e0-9260-b08ce255aaec)
    (at 137.9 92.2 90)
    (descr "Resistor SMD 1206, hand soldering")
    (tags "resistor 1206")
    (property "Sheetfile" "Hello-ATtiny.kicad_sch")
    (property "Sheetname" "")
    (path "/c437eb44-5b2f-4812-9cfe-fa4f1d8c7d1c")
    (attr smd)
    (fp_text reference "R2" (at 0 -1.85 90) (layer "F.SilkS")
      (effects (font (size 1 1) (thickness 0.15)))
      (tstamp 637b1bfb-73b1-4275-aa04-7112aaceac48)
    )
    (fp_text value "R" (at 0 1.9 90) (layer "F.Fab")
      (effects (font (size 1 1) (thickness 0.15)))
      (tstamp 33b28bfb-826d-46c2-a396-281ec57f842a)
    )
    (fp_text user "${REFERENCE}" (at 0 0 90) (layer "F.Fab")
      (effects (font (size 0.7 0.7) (thickness 0.105)))
      (tstamp 36953e23-714f-4cea-aeae-74152b583257)
    )
    (fp_line (start -1 -1.07) (end 1 -1.07) (layer "F.SilkS") (width 0.12) (tstamp 0b2380ec-a4b2-4432-954e-ce4c6caba5c8))
    (fp_line (start 1 1.07) (end -1 1.07) (layer "F.SilkS") (width 0.12) (tstamp 8a754b57-a470-4762-8e1d-4631ba61afb8))
    (fp_line (start -3.25 -1.11) (end -3.25 1.1) (layer "F.CrtYd") (width 0.05) (tstamp 30cde441-a4b4-4a86-92b5-1140e5d06e66))
    (fp_line (start 3.25 1.1) (end -3.25 1.1) (layer "F.CrtYd") (width 0.05) (tstamp 355c41d9-6bcd-42d5-a7d7-d551aa3ec13a))
    (fp_line (start -3.25 -1.11) (end 3.25 -1.11) (layer "F.CrtYd") (width 0.05) (tstamp a72411f1-ccd6-429b-b675-c33c4b37b435))
    (fp_line (start 3.25 1.1) (end 3.25 -1.11) (layer "F.CrtYd") (width 0.05) (tstamp cc88c52a-1f39-4e4c-b6cf-9f0f37cac162))
    (fp_line (start -1.6 -0.8) (end 1.6 -0.8) (layer "F.Fab") (width 0.1) (tstamp 07e85b93-5279-493c-b59b-e59a427d3975))
    (fp_line (start 1.6 0.8) (end -1.6 0.8) (layer "F.Fab") (width 0.1) (tstamp 4f9fdeff-02c1-41f0-9d31-f5f8315f0ae5))
    (fp_line (start 1.6 -0.8) (end 1.6 0.8) (layer "F.Fab") (width 0.1) (tstamp 8d2d06c3-f3f9-4ba0-a25d-ef3f4dad3b9c))
    (fp_line (start -1.6 0.8) (end -1.6 -0.8) (layer "F.Fab") (width 0.1) (tstamp d874509b-916d-493d-a53f-e23881e808fc))
    (pad "1" smd rect locked (at -2 0 90) (size 2 1.7) (layers "F.Cu" "F.Paste" "F.Mask")
      (net 12 "Net-(D2-Pad2)") (pintype "passive") (tstamp 637f1746-ccf7-4685-9fb0-aabb7aea428b))
    (pad "2" smd rect locked (at 2 0 90) (size 2 1.7) (layers "F.Cu" "F.Paste" "F.Mask")
      (net 4 "LED-1") (pintype "passive") (tstamp bf5a9fbf-12cd-4d61-8238-ad14bd29fe28))
    (model "${FAB}/fab.3dshapes/R_1206.step"
      (offset (xyz 0 0 0))
      (scale (xyz 1 1 1))
      (rotate (xyz 0 0 0))
    )
  )

  (footprint "fab:LED_1206" (layer "F.Cu")
    (tedit 595FC724) (tstamp ddda1dca-ce37-4d7c-9e45-bce24c2810e2)
    (at 160.5 92.1 -90)
    (descr "LED SMD 1206, hand soldering")
    (tags "LED 1206")
    (property "Sheetfile" "Hello-ATtiny.kicad_sch")
    (property "Sheetname" "")
    (path "/98950401-2860-444b-9d3a-d62418544015")
    (attr smd)
    (fp_text reference "D1" (at 0 -1.85 90) (layer "F.SilkS")
      (effects (font (size 1 1) (thickness 0.15)))
      (tstamp 501985fd-73cc-464d-b22c-d708f3928b57)
    )
    (fp_text value "LED" (at 0 1.9 90) (layer "F.Fab")
      (effects (font (size 1 1) (thickness 0.15)))
      (tstamp 3bee896b-0328-4b1e-9495-b260591a464f)
    )
    (fp_line (start -3.1 0.95) (end 1.6 0.95) (layer "F.SilkS") (width 0.12) (tstamp 4446d97b-f3a0-4d5f-91b4-0a0525cfc7cb))
    (fp_line (start -3.1 -0.95) (end 1.6 -0.95) (layer "F.SilkS") (width 0.12) (tstamp 6b001a73-d513-4c67-b247-b48d114dab61))
    (fp_line (start -3.1 -0.95) (end -3.1 0.95) (layer "F.SilkS") (width 0.12) (tstamp acce9e8d-1af5-4185-9b26-f4e12168abf6))
    (fp_line (start -3.25 -1.11) (end -3.25 1.1) (layer "F.CrtYd") (width 0.05) (tstamp 3b9a0a1b-03bf-4367-a7ed-8b58ff0762f2))
    (fp_line (start -3.25 -1.11) (end 3.25 -1.11) (layer "F.CrtYd") (width 0.05) (tstamp 5117759a-e1d2-478e-996d-15ac1ccfd2ad))
    (fp_line (start 3.25 1.1) (end -3.25 1.1) (layer "F.CrtYd") (width 0.05) (tstamp 9837123c-c1f7-447d-9239-898e87b72171))
    (fp_line (start 3.25 1.1) (end 3.25 -1.11) (layer "F.CrtYd") (width 0.05) (tstamp e225555c-44b4-4429-963b-ba81227f3430))
    (fp_line (start 1.6 -0.8) (end 1.6 0.8) (layer "F.Fab") (width 0.1) (tstamp 1090f6eb-b3a1-4ace-a576-8046eb29eeda))
    (fp_line (start -0.45 -0.4) (end -0.45 0.4) (layer "F.Fab") (width 0.1) (tstamp 4e955b08-8e11-4f92-9786-5b9639884b45))
    (fp_line (start -1.6 0.8) (end -1.6 -0.8) (layer "F.Fab") (width 0.1) (tstamp 7b9d337a-e989-470b-9d9f-9d56f346e8b1))
    (fp_line (start 0.2 -0.4) (end 0.2 0.4) (layer "F.Fab") (width 0.1) (tstamp 997b4d7d-c891-4d0e-a3e2-bacdbeedf157))
    (fp_line (start -0.4 0) (end 0.2 -0.4) (layer "F.Fab") (width 0.1) (tstamp ae9ffb1e-c266-4515-9638-2da19c387176))
    (fp_line (start 0.2 0.4) (end -0.4 0) (layer "F.Fab") (width 0.1) (tstamp d8bc030e-3ca1-4358-b3d5-633b4d8af8f8))
    (fp_line (start 1.6 0.8) (end -1.6 0.8) (layer "F.Fab") (width 0.1) (tstamp f77776c0-93a9-4cf1-a05c-cca9cf6088c4))
    (fp_line (start -1.6 -0.8) (end 1.6 -0.8) (layer "F.Fab") (width 0.1) (tstamp fb63cb42-a20b-43be-b9bd-c84f6b613764))
    (pad "1" smd rect locked (at -2 0 270) (size 2 1.7) (layers "F.Cu" "F.Paste" "F.Mask")
      (net 1 "GND") (pinfunction "K") (pintype "passive") (tstamp 00f765b7-370a-40df-8592-7d1b9ce8c805))
    (pad "2" smd rect locked (at 2 0 270) (size 2 1.7) (layers "F.Cu" "F.Paste" "F.Mask")
      (net 11 "Net-(D1-Pad2)") (pinfunction "A") (pintype "passive") (tstamp f3e33c09-f4de-4d86-aeb1-ccb3d366293c))
    (model "${KISYS3DMOD}/LEDs.3dshapes/LED_1206.wrl"
      (offset (xyz 0 0 0))
      (scale (xyz 1 1 1))
      (rotate (xyz 0 0 180))
    )
  )

  (gr_curve (pts (xy 147.7695 110.994792) (xy 150.188664 110.994792) (xy 152.512788 110.674614) (xy 154.678721 110.086336)) (layer "Edge.Cuts") (width 0.07442) (tstamp 081b64ef-4cec-45e0-8106-c7acde9f5981))
  (gr_curve (pts (xy 164.712411 74.81235) (xy 164.712411 74.81235) (xy 160.280516 75.770895) (xy 156.358942 78.6)) (layer "Edge.Cuts") (width 0.07442) (tstamp 0e051b19-c3f8-43c7-9911-d04697e9a7ef))
  (gr_curve (pts (xy 126.5553 93.573538) (xy 126.5553 93.573538) (xy 126.11527 96.142947) (xy 126.950607 99.59147)) (layer "Edge.Cuts") (width 0.07442) (tstamp 126a352f-c32e-49d2-be7c-c24e19ed9ebd))
  (gr_curve (pts (xy 164.956751 105.347501) (xy 167.527382 102.944623) (xy 168.472587 99.59147) (xy 168.472587 99.59147)) (layer "Edge.Cuts") (width 0.07442) (tstamp 18cd99af-3de3-49fa-8443-6c92703d3c6b))
  (gr_curve (pts (xy 127.908133 88.371071) (xy 127.131862 89.999057) (xy 126.668361 91.747551) (xy 126.574634 93.57145)) (layer "Edge.Cuts") (width 0.07442) (tstamp 2a0cb7e0-5c3e-48d4-9ee0-74149bc046e4))
  (gr_curve (pts (xy 145.773277 110.920504) (xy 146.430577 110.968904) (xy 147.096164 110.994792) (xy 147.7695 110.994792)) (layer "Edge.Cuts") (width 0.07442) (tstamp 2ae12eab-2469-4284-97ab-003124dc9672))
  (gr_curve (pts (xy 130.466443 105.347501) (xy 130.466443 105.347501) (xy 133.89906 108.672652) (xy 141.664225 110.290143)) (layer "Edge.Cuts") (width 0.07442) (tstamp 3dfe90da-c09c-4716-b309-5d8e60083e8d))
  (gr_curve (pts (xy 131.00569 74.81235) (xy 128.184021 74.140931) (xy 128.069476 78.126428) (xy 128.069476 78.126428)) (layer "Edge.Cuts") (width 0.07442) (tstamp 3e377346-b250-43e8-9486-90d30a23d40b))
  (gr_curve (pts (xy 156.358942 78.6) (xy 156.358942 78.6) (xy 139.307279 78.556137) (xy 139.307279 78.556137)) (layer "Edge.Cuts") (width 0.07442) (tstamp 503a75b9-769b-47f7-9108-9106d6c7085f))
  (gr_curve (pts (xy 168.972497 94.781722) (xy 168.979209 94.608649) (xy 168.983714 94.435157) (xy 168.983714 94.260797)) (layer "Edge.Cuts") (width 0.07442) (tstamp 6619763d-6c11-4b66-aa7d-4bb6c418f8aa))
  (gr_curve (pts (xy 139.307279 78.556137) (xy 135.374995 75.754915) (xy 131.00569 74.81235) (xy 131.00569 74.81235)) (layer "Edge.Cuts") (width 0.07442) (tstamp 6dedc432-de6c-44dd-98a0-84f5aa6288d6))
  (gr_curve (pts (xy 141.664225 110.290143) (xy 142.978495 110.601193) (xy 144.346156 110.81447) (xy 145.754101 110.919151)) (layer "Edge.Cuts") (width 0.07442) (tstamp 805f88e4-41e0-4159-93f4-942ab598d0b8))
  (gr_curve (pts (xy 154.678721 110.086336) (xy 161.795544 108.409569) (xy 164.956751 105.347501) (xy 164.956751 105.347501)) (layer "Edge.Cuts") (width 0.07442) (tstamp 83e954ba-5d10-474f-828b-d44f69a5d632))
  (gr_curve (pts (xy 168.472587 99.59147) (xy 168.961201 97.574298) (xy 169.013305 95.859007) (xy 168.972497 94.781722)) (layer "Edge.Cuts") (width 0.07442) (tstamp 8b3a6235-4eff-41d6-ad3c-1024751a6c7c))
  (gr_curve (pts (xy 145.772503 110.921239) (xy 145.772503 110.921239) (xy 145.773277 110.920504) (xy 145.773277 110.920504)) (layer "Edge.Cuts") (width 0.07442) (tstamp a3902e09-ddf1-419e-9559-d953972a13d4))
  (gr_curve (pts (xy 167.648625 78.126428) (xy 167.648625 78.126428) (xy 167.53408 74.140931) (xy 164.712411 74.81235)) (layer "Edge.Cuts") (width 0.07442) (tstamp ad8ca98b-c869-4161-b055-d2768203c619))
  (gr_curve (pts (xy 167.8 88.739045) (xy 167.844788 87.19592) (xy 167.940945 82.561806) (xy 167.648625 78.126428)) (layer "Edge.Cuts") (width 0.07442) (tstamp b3604b28-4458-45e8-865c-eb345acdbd58))
  (gr_curve (pts (xy 168.983714 94.260797) (xy 168.983714 92.325755) (xy 168.565934 90.467956) (xy 167.8 88.739045)) (layer "Edge.Cuts") (width 0.07442) (tstamp becc8270-94c4-47b6-ac86-9947ace3f0ca))
  (gr_curve (pts (xy 126.950607 99.59147) (xy 126.950607 99.59147) (xy 127.895812 102.944623) (xy 130.466443 105.347501)) (layer "Edge.Cuts") (width 0.07442) (tstamp d4a8931e-4da3-4735-b8e5-adb43c6f3454))
  (gr_curve (pts (xy 126.574634 93.57145) (xy 126.574634 93.57145) (xy 126.5553 93.573538) (xy 126.5553 93.573538)) (layer "Edge.Cuts") (width 0.07442) (tstamp ef806e0d-bdd4-4411-b199-d79798251ac6))
  (gr_curve (pts (xy 145.754101 110.919151) (xy 145.76034 110.919781) (xy 145.766251 110.920609) (xy 145.772503 110.921239)) (layer "Edge.Cuts") (width 0.07442) (tstamp f14e1c97-7b84-4546-b422-2aa5e57050c4))
  (gr_curve (pts (xy 128.069476 78.126428) (xy 127.797554 82.252359) (xy 127.861781 86.549063) (xy 127.908133 88.371071)) (layer "Edge.Cuts") (width 0.07442) (tstamp f3776ebb-5bb3-4107-acdd-13dd4f8bf31e))
  (gr_text "T412" (at 133.7 81.3) (layer "F.Cu") (tstamp c14d402a-6084-4c4d-8794-d7a232b52640)
    (effects (font (size 2.3 2.3) (thickness 0.4)))
  )

  (segment (start 156.830969 82.330969) (end 160.5 86) (width 0.4) (layer "F.Cu") (net 1) (tstamp 062d09e6-ee8e-44a2-8def-a200f49fb22c))
  (segment (start 156.4 99.2) (end 156 99.2) (width 0.4) (layer "F.Cu") (net 1) (tstamp 0b364410-c8d6-4fdd-858f-b4a7269a8f06))
  (segment (start 156 99.2) (end 153.1 102.1) (width 0.4) (layer "F.Cu") (net 1) (tstamp 1a8f15d1-2bfd-4a85-90c7-266ee22ecf16))
  (segment (start 160.5 86) (end 160.5 90.1) (width 0.4) (layer "F.Cu") (net 1) (tstamp 29fc716f-44a1-4edb-9c7f-b86e30527c37))
  (segment (start 141.1 83.35) (end 142.119031 82.330969) (width 0.4) (layer "F.Cu") (net 1) (tstamp 2e39018a-027c-4c55-ba64-bc1001fcacf3))
  (segment (start 136.3 85) (end 134.4 86.9) (width 0.4) (layer "F.Cu") (net 1) (tstamp 43008749-0fbc-4a25-ac4a-25d4e3e3936f))
  (segment (start 153.3 94.3) (end 156.4 97.4) (width 0.4) (layer "F.Cu") (net 1) (tstamp 46ac721c-d056-4d2b-93a1-2b6fd257794d))
  (segment (start 142.3 99.3) (end 141.5 100.1) (width 0.4) (layer "F.Cu") (net 1) (tstamp 48835d04-ea26-43dd-895d-54fdc181bad6))
  (segment (start 141.5 100.1) (end 141.5 102.9) (width 0.4) (layer "F.Cu") (net 1) (tstamp 537c1d19-434f-4178-ae5c-99967b5e6620))
  (segment (start 162.6 95.069022) (end 158.469022 99.2) (width 0.4) (layer "F.Cu") (net 1) (tstamp 5566279c-c94d-4eb7-a44a-112089311695))
  (segment (start 152.1 94.3) (end 153.3 94.3) (width 0.4) (layer "F.Cu") (net 1) (tstamp 577556e7-f4c5-4049-9868-ee657297c8c4))
  (segment (start 141.1 85) (end 136.3 85) (width 0.4) (layer "F.Cu") (net 1) (tstamp 60503b7b-3be5-4af4-9fb4-370cc395ec83))
  (segment (start 146.4 99.3) (end 142.3 99.3) (width 0.4) (layer "F.Cu") (net 1) (tstamp 60d9b62e-8ab1-4a22-99f6-d95cc6a32656))
  (segment (start 141.6 103) (end 144.125 103) (width 0.4) (layer "F.Cu") (net 1) (tstamp 68d426e5-01b7-4477-8c44-aed95c328c24))
  (segment (start 162 90.1) (end 162.6 90.7) (width 0.4) (layer "F.Cu") (net 1) (tstamp 71d43060-b49a-4d70-acaf-93b3d86095c2))
  (segment (start 160.5 90.1) (end 162 90.1) (width 0.4) (layer "F.Cu") (net 1) (tstamp 735d8061-7a9c-41fb-ac89-752e85bc1209))
  (segment (start 139.075 103) (end 141.6 103) (width 0.4) (layer "F.Cu") (net 1) (tstamp 7a63b45c-cd79-49b3-afcc-72941108b527))
  (segment (start 158.469022 99.2) (end 156.4 99.2) (width 0.4) (layer "F.Cu") (net 1) (tstamp 9054b956-a23c-42cf-b7bd-1c9b0c789b48))
  (segment (start 153.1 102.1) (end 149.2 102.1) (width 0.4) (layer "F.Cu") (net 1) (tstamp 928ed2ea-4884-41a7-98c5-f01329b3b837))
  (segment (start 134.4 86.9) (end 134.4 90.2) (width 0.4) (layer "F.Cu") (net 1) (tstamp cc7b1613-1929-42d4-b418-4bd868b9f0a3))
  (segment (start 141.1 85) (end 141.1 83.35) (width 0.4) (layer "F.Cu") (net 1) (tstamp d9307023-5183-4096-b5e3-58a219a81f61))
  (segment (start 151.3 95.1) (end 152.1 94.3) (width 0.4) (layer "F.Cu") (net 1) (tstamp db2d1f2a-1dd4-452c-987e-ecc80237c3c7))
  (segment (start 149.34 95.1) (end 151.3 95.1) (width 0.4) (layer "F.Cu") (net 1) (tstamp e60508b6-bd7c-4797-a9d5-4c80a7ef1dc4))
  (segment (start 149.2 102.1) (end 146.4 99.3) (width 0.4) (layer "F.Cu") (net 1) (tstamp e97d5ab8-a211-4b59-896a-16971d336630))
  (segment (start 156.4 97.4) (end 156.4 99.2) (width 0.4) (layer "F.Cu") (net 1) (tstamp f025ae62-1a33-4477-92ef-f3e94ed0ed88))
  (segment (start 162.6 90.7) (end 162.6 95.069022) (width 0.4) (layer "F.Cu") (net 1) (tstamp f5827de4-889d-40cb-af81-8d1b0822de9a))
  (segment (start 141.5 102.9) (end 141.6 103) (width 0.4) (layer "F.Cu") (net 1) (tstamp f77d31ba-418c-4eb2-9e28-82d3bcc250cc))
  (segment (start 142.119031 82.330969) (end 156.830969 82.330969) (width 0.4) (layer "F.Cu") (net 1) (tstamp faca3a8c-83ad-4fb0-a950-920fcc114f37))
  (segment (start 139.075 105.54) (end 139.075 106.01) (width 0.4) (layer "F.Cu") (net 2) (tstamp 01667c5f-00ea-4e9e-ac00-4b883f4786ee))
  (segment (start 146.389511 83.140489) (end 155.040489 83.140489) (width 0.4) (layer "F.Cu") (net 2) (tstamp 02c9b4e0-e732-4be8-80fe-c39af2a21515))
  (segment (start 146.18 83.35) (end 146.389511 83.140489) (width 0.4) (layer "F.Cu") (net 2) (tstamp 0526ed40-f0be-4531-8136-1bc8fc13cb78))
  (segment (start 136.04 105.54) (end 139.075 105.54) (width 0.4) (layer "F.Cu") (net 2) (tstamp 07c4a860-f06a-4e8d-8e7f-92b97901a2f6))
  (segment (start 150.9 90.3) (end 150.1 89.5) (width 0.4) (layer "F.Cu") (net 2) (tstamp 1166f9ba-8156-42b8-8032-307f875b02cb))
  (segment (start 146.18 86.52) (end 144.109511 88.590489) (width 0.4) (layer "F.Cu") (net 2) (tstamp 14515e42-d778-4c92-8130-ab9ef6be19b4))
  (segment (start 155.040489 83.140489) (end 155.259511 83.359511) (width 0.4) (layer "F.Cu") (net 2) (tstamp 14aaea70-e974-49c6-aa70-2fd96691e8e4))
  (segment (start 146.18 85) (end 146.18 83.35) (width 0.4) (layer "F.Cu") (net 2) (tstamp 2002a46c-8e1b-4e13-82b5-b15e6bcc6a23))
  (segment (start 139.925 106.86) (end 145.925 106.86) (width 0.4) (layer "F.Cu") (net 2) (tstamp 20f50b14-e355-4d65-8262-fcd8a171e33d))
  (segment (start 146.16 100.46) (end 144.125 100.46) (width 0.4) (layer "F.Cu") (net 2) (tstamp 2ca3e84f-6683-418e-be53-5119b6e7b3ce))
  (segment (start 136.669022 88.590489) (end 136.2 89.059511) (width 0.4) (layer "F.Cu") (net 2) (tstamp 308623ba-4fa9-4ca4-a948-3d1ce68d8082))
  (segment (start 132.6 102.1) (end 136.04 105.54) (width 0.4) (layer "F.Cu") (net 2) (tstamp 32541261-a383-4ca9-b922-f1717f085d9a))
  (segment (start 139.075 106.01) (end 139.925 106.86) (width 0.4) (layer "F.Cu") (net 2) (tstamp 3309c423-80dc-43c0-a133-7702b20e1a0c))
  (segment (start 146.8 101.1) (end 146.16 100.46) (width 0.4) (layer "F.Cu") (net 2) (tstamp 3434854e-e399-4e0c-8bac-765971c04f0e))
  (segment (start 155.259511 87.140489) (end 152.1 90.3) (width 0.4) (layer "F.Cu") (net 2) (tstamp 4c335dc8-2b93-4dc9-8496-9578c8728a49))
  (segment (start 146.8 105.985) (end 146.8 101.1) (width 0.4) (layer "F.Cu") (net 2) (tstamp 513bba2e-7324-42a6-a9f4-9b58cdbaf2f4))
  (segment (start 132.6 92.930978) (end 132.6 102.1) (width 0.4) (layer "F.Cu") (net 2) (tstamp 589b3d36-8399-4dad-921b-3b23165554ac))
  (segment (start 144.109511 88.590489) (end 136.669022 88.590489) (width 0.4) (layer "F.Cu") (net 2) (tstamp 6603f5f3-5949-479e-948c-dd8a3015994d))
  (segment (start 152.1 90.3) (end 150.9 90.3) (width 0.4) (layer "F.Cu") (net 2) (tstamp 6735af5c-1205-4357-af11-8ced248d4e62))
  (segment (start 150.1 89.5) (end 149.34 89.5) (width 0.4) (layer "F.Cu") (net 2) (tstamp 7188650e-0d12-4681-a794-a88570a27ea5))
  (segment (start 133.530978 92) (end 132.6 92.930978) (width 0.4) (layer "F.Cu") (net 2) (tstamp 8d361258-b918-4d3a-b8ef-df728eb5daec))
  (segment (start 155.259511 83.359511) (end 155.259511 87.140489) (width 0.4) (layer "F.Cu") (net 2) (tstamp d9f4ad26-b8e1-4f06-aefc-cf7f6395e6f6))
  (segment (start 146.18 85) (end 146.18 86.52) (width 0.4) (layer "F.Cu") (net 2) (tstamp eee9c670-90b8-4762-9a30-7de865e7ad0f))
  (segment (start 136.2 89.059511) (end 136.2 92) (width 0.4) (layer "F.Cu") (net 2) (tstamp efe4af39-4d63-414d-be4c-16ec46982a9c))
  (segment (start 145.925 106.86) (end 146.8 105.985) (width 0.4) (layer "F.Cu") (net 2) (tstamp fbf6f4d8-c953-43d0-9f38-054b29b1c0ca))
  (segment (start 136.2 92) (end 133.530978 92) (width 0.4) (layer "F.Cu") (net 2) (tstamp fcdea1e9-5ba4-4528-a327-e656026e9d95))
  (segment (start 145.53 95.1) (end 145.53 93.750978) (width 0.4) (layer "F.Cu") (net 3) (tstamp 123cad03-a1aa-46aa-9c85-1066fdd768c6))
  (segment (start 147.280978 92) (end 155.4 92) (width 0.4) (layer "F.Cu") (net 3) (tstamp 348f57f7-ba9d-484e-82ac-3e5cf93d95c4))
  (segment (start 145.53 93.750978) (end 147.280978 92) (width 0.4) (layer "F.Cu") (net 3) (tstamp 5711444a-a266-40aa-a29d-63730fd6adde))
  (segment (start 155.4 92) (end 157.3 90.1) (width 0.4) (layer "F.Cu") (net 3) (tstamp 843d609c-ec92-4208-b55e-a7aaadb40a92))
  (segment (start 145.53 89.5) (end 138.6 89.5) (width 0.4) (layer "F.Cu") (net 4) (tstamp 97ca35f7-b8a8-4f9d-a0b3-17ae66420510))
  (segment (start 138.6 89.5) (end 137.9 90.2) (width 0.4) (layer "F.Cu") (net 4) (tstamp d35d9171-cefa-4960-a3a3-fe0608e13180))
  (segment (start 146.8 88.225166) (end 148.72 86.305166) (width 0.4) (layer "F.Cu") (net 6) (tstamp 04a99363-beb8-4f54-991f-df9e6000fbfd))
  (segment (start 148.72 86.305166) (end 148.72 85) (width 0.4) (layer "F.Cu") (net 6) (tstamp 07ef9efa-7756-4146-b9fa-0587438dd305))
  (segment (start 146.8 89.5) (end 146.8 88.225166) (width 0.4) (layer "F.Cu") (net 6) (tstamp 8a466b04-98ce-43f9-8458-1c0ae7ad8c6e))
  (segment (start 148.07 88.1) (end 148.07 89.5) (width 0.4) (layer "F.Cu") (net 7) (tstamp 0c8d40ca-bcfa-43bd-9659-d363ca0a134d))
  (segment (start 148.07 88.1) (end 148.87 87.3) (width 0.4) (layer "F.Cu") (net 7) (tstamp 3b8bac95-b9c1-45fe-82b7-6c8255adf7ab))
  (segment (start 148.87 87.3) (end 150.5 87.3) (width 0.4) (layer "F.Cu") (net 7) (tstamp 9a37a2d9-4f11-4d98-8d4d-a0d603387707))
  (segment (start 151.26 86.54) (end 151.26 85) (width 0.4) (layer "F.Cu") (net 7) (tstamp b02f6678-af44-47a0-86f1-ebf096775429))
  (segment (start 150.5 87.3) (end 151.26 86.54) (width 0.4) (layer "F.Cu") (net 7) (tstamp eaf7947f-ef47-4e70-ab38-cfcbb392d9ca))
  (segment (start 136.5 104.325489) (end 143.790489 104.325489) (width 0.4) (layer "F.Cu") (net 9) (tstamp 13af366f-6d88-47e2-9398-c95d0d7c2ed3))
  (segment (start 139.075 100.46) (end 139.39 100.46) (width 0.4) (layer "F.Cu") (net 9) (tstamp 2a6accc9-c1de-46a7-a946-f3e56d7a137f))
  (segment (start 146.590489 96.709511) (end 146.8 96.5) (width 0.4) (layer "F.Cu") (net 9) (tstamp 33cfd6d5-fc7a-4a6d-b0dc-85d77460bb1e))
  (segment (start 139.075 100.46) (end 137.025 100.46) (width 0.4) (layer "F.Cu") (net 9) (tstamp 8ac1020f-a8c0-4121-b2eb-79d91058f985))
  (segment (start 144.125 104.66) (end 144.125 105.54) (width 0.4) (layer "F.Cu") (net 9) (tstamp 9ded956f-32f6-4896-9677-cb1c70731a0a))
  (segment (start 139.39 100.46) (end 143.140489 96.709511) (width 0.4) (layer "F.Cu") (net 9) (tstamp babbaa5f-25a3-48d7-bc58-c73dc8177ec5))
  (segment (start 143.790489 104.325489) (end 144.125 104.66) (width 0.4) (layer "F.Cu") (net 9) (tstamp bea4f8f6-6c5a-4985-8624-408e99df7b1c))
  (segment (start 137.025 100.46) (end 136.5 100.985) (width 0.4) (layer "F.Cu") (net 9) (tstamp bed8ec40-d9b1-46f4-97e4-caf7686bbfcd))
  (segment (start 143.140489 96.709511) (end 146.590489 96.709511) (width 0.4) (layer "F.Cu") (net 9) (tstamp e87fb76c-c591-4dbe-8d99-0588d1e5bde0))
  (segment (start 136.5 100.985) (end 136.5 104.325489) (width 0.4) (layer "F.Cu") (net 9) (tstamp ee618890-b685-4986-8f2e-11c9e5dcb25b))
  (segment (start 146.8 96.5) (end 146.8 95.1) (width 0.4) (layer "F.Cu") (net 9) (tstamp fc93fdaf-0c53-4926-ad01-a4e2e3b0cb46))
  (segment (start 150.77 99.2) (end 152.4 99.2) (width 0.4) (layer "F.Cu") (net 10) (tstamp 127200a5-32a9-48b1-95db-148873c57d82))
  (segment (start 148.07 96.5) (end 150.77 99.2) (width 0.4) (layer "F.Cu") (net 10) (tstamp 286c1b2f-2223-4da8-8091-9348db81bf1e))
  (segment (start 148.07 95.1) (end 148.07 96.5) (width 0.4) (layer "F.Cu") (net 10) (tstamp 7f190c85-c6ed-4112-b688-db4d80611892))
  (segment (start 157.3 94.1) (end 160.5 94.1) (width 0.4) (layer "F.Cu") (net 11) (tstamp 2aaa7337-134c-4e50-8c7c-b8c785dfda82))
  (segment (start 137.9 94.2) (end 134.4 94.2) (width 0.4) (layer "F.Cu") (net 12) (tstamp 2510a96e-3d98-4496-a0d2-77160da19414))

  (group "" (id b8c21824-bf09-47b9-a73d-5a72b6a74c90)
    (members
      081b64ef-4cec-45e0-8106-c7acde9f5981
      0e051b19-c3f8-43c7-9911-d04697e9a7ef
      126a352f-c32e-49d2-be7c-c24e19ed9ebd
      18cd99af-3de3-49fa-8443-6c92703d3c6b
      2a0cb7e0-5c3e-48d4-9ee0-74149bc046e4
      2ae12eab-2469-4284-97ab-003124dc9672
      3dfe90da-c09c-4716-b309-5d8e60083e8d
      3e377346-b250-43e8-9486-90d30a23d40b
      503a75b9-769b-47f7-9108-9106d6c7085f
      6619763d-6c11-4b66-aa7d-4bb6c418f8aa
      6dedc432-de6c-44dd-98a0-84f5aa6288d6
      805f88e4-41e0-4159-93f4-942ab598d0b8
      83e954ba-5d10-474f-828b-d44f69a5d632
      8b3a6235-4eff-41d6-ad3c-1024751a6c7c
      a3902e09-ddf1-419e-9559-d953972a13d4
      ad8ca98b-c869-4161-b055-d2768203c619
      b3604b28-4458-45e8-865c-eb345acdbd58
      becc8270-94c4-47b6-ac86-9947ace3f0ca
      d4a8931e-4da3-4735-b8e5-adb43c6f3454
      ef806e0d-bdd4-4411-b199-d79798251ac6
      f14e1c97-7b84-4546-b422-2aa5e57050c4
      f3776ebb-5bb3-4107-acdd-13dd4f8bf31e
    )
  )
)
