ISO-10303-21;
HEADER;
/* Generated by software containing ST-Developer
 * from STEP Tools, Inc. (www.steptools.com) 
 */

FILE_DESCRIPTION(
/* description */ (''),
/* implementation_level */ '2;1');

FILE_NAME(
/* name */ 
'/Volumes/Transcend/DF_finalproject/EDM_0516/0516_stick.step',
/* time_stamp */ '2022-05-16T08:33:44+03:00',
/* author */ (''),
/* organization */ (''),
/* preprocessor_version */ 'ST-DEVELOPER v18.1',
/* originating_system */ 'Autodesk Translation Framework v10.14.0.1471',

/* authorisation */ '');

FILE_SCHEMA (('AUTOMOTIVE_DESIGN { 1 0 10303 214 3 1 1 }'));
ENDSEC;

DATA;
#10=MECHANICAL_DESIGN_GEOMETRIC_PRESENTATION_REPRESENTATION('',(#13),#638);
#11=SHAPE_REPRESENTATION_RELATIONSHIP('SRR','None',#645,#12);
#12=ADVANCED_BREP_SHAPE_REPRESENTATION('',(#14),#637);
#13=STYLED_ITEM('',(#654),#14);
#14=MANIFOLD_SOLID_BREP('Body1',#378);
#15=FACE_BOUND('',#79,.T.);
#16=FACE_BOUND('',#80,.T.);
#17=FACE_BOUND('',#81,.T.);
#18=FACE_BOUND('',#83,.T.);
#19=FACE_BOUND('',#84,.T.);
#20=FACE_BOUND('',#85,.T.);
#21=CIRCLE('',#394,1.5);
#22=CIRCLE('',#395,1.5);
#23=CIRCLE('',#398,1.5);
#24=CIRCLE('',#399,1.5);
#25=CIRCLE('',#401,1.1);
#26=CIRCLE('',#402,1.1);
#27=CIRCLE('',#404,1.5);
#28=CIRCLE('',#405,1.5);
#29=CIRCLE('',#412,4.);
#30=CIRCLE('',#413,4.);
#31=CIRCLE('',#417,4.);
#32=CIRCLE('',#418,4.);
#33=CIRCLE('',#421,4.);
#34=CIRCLE('',#422,4.);
#35=CYLINDRICAL_SURFACE('',#393,1.5);
#36=CYLINDRICAL_SURFACE('',#397,1.5);
#37=CYLINDRICAL_SURFACE('',#400,1.1);
#38=CYLINDRICAL_SURFACE('',#403,1.5);
#39=CYLINDRICAL_SURFACE('',#411,4.);
#40=CYLINDRICAL_SURFACE('',#416,4.);
#41=CYLINDRICAL_SURFACE('',#420,4.);
#42=FACE_OUTER_BOUND('',#61,.T.);
#43=FACE_OUTER_BOUND('',#62,.T.);
#44=FACE_OUTER_BOUND('',#63,.T.);
#45=FACE_OUTER_BOUND('',#64,.T.);
#46=FACE_OUTER_BOUND('',#65,.T.);
#47=FACE_OUTER_BOUND('',#66,.T.);
#48=FACE_OUTER_BOUND('',#67,.T.);
#49=FACE_OUTER_BOUND('',#68,.T.);
#50=FACE_OUTER_BOUND('',#69,.T.);
#51=FACE_OUTER_BOUND('',#70,.T.);
#52=FACE_OUTER_BOUND('',#71,.T.);
#53=FACE_OUTER_BOUND('',#72,.T.);
#54=FACE_OUTER_BOUND('',#73,.T.);
#55=FACE_OUTER_BOUND('',#74,.T.);
#56=FACE_OUTER_BOUND('',#75,.T.);
#57=FACE_OUTER_BOUND('',#76,.T.);
#58=FACE_OUTER_BOUND('',#77,.T.);
#59=FACE_OUTER_BOUND('',#78,.T.);
#60=FACE_OUTER_BOUND('',#82,.T.);
#61=EDGE_LOOP('',(#245,#246,#247,#248));
#62=EDGE_LOOP('',(#249,#250,#251,#252));
#63=EDGE_LOOP('',(#253,#254,#255,#256));
#64=EDGE_LOOP('',(#257,#258,#259,#260));
#65=EDGE_LOOP('',(#261,#262,#263,#264));
#66=EDGE_LOOP('',(#265,#266,#267,#268));
#67=EDGE_LOOP('',(#269,#270,#271,#272));
#68=EDGE_LOOP('',(#273,#274,#275,#276));
#69=EDGE_LOOP('',(#277,#278,#279,#280));
#70=EDGE_LOOP('',(#281,#282,#283,#284));
#71=EDGE_LOOP('',(#285,#286,#287,#288));
#72=EDGE_LOOP('',(#289,#290,#291,#292));
#73=EDGE_LOOP('',(#293,#294,#295,#296));
#74=EDGE_LOOP('',(#297,#298,#299,#300));
#75=EDGE_LOOP('',(#301,#302,#303,#304));
#76=EDGE_LOOP('',(#305,#306,#307,#308));
#77=EDGE_LOOP('',(#309,#310,#311,#312));
#78=EDGE_LOOP('',(#313,#314,#315,#316,#317,#318,#319,#320));
#79=EDGE_LOOP('',(#321,#322,#323,#324));
#80=EDGE_LOOP('',(#325));
#81=EDGE_LOOP('',(#326,#327,#328,#329));
#82=EDGE_LOOP('',(#330,#331,#332,#333,#334,#335,#336,#337));
#83=EDGE_LOOP('',(#338,#339,#340,#341));
#84=EDGE_LOOP('',(#342));
#85=EDGE_LOOP('',(#343,#344,#345,#346));
#86=LINE('',#534,#123);
#87=LINE('',#536,#124);
#88=LINE('',#538,#125);
#89=LINE('',#539,#126);
#90=LINE('',#545,#127);
#91=LINE('',#548,#128);
#92=LINE('',#550,#129);
#93=LINE('',#551,#130);
#94=LINE('',#559,#131);
#95=LINE('',#566,#132);
#96=LINE('',#569,#133);
#97=LINE('',#572,#134);
#98=LINE('',#574,#135);
#99=LINE('',#575,#136);
#100=LINE('',#578,#137);
#101=LINE('',#580,#138);
#102=LINE('',#581,#139);
#103=LINE('',#583,#140);
#104=LINE('',#584,#141);
#105=LINE('',#588,#142);
#106=LINE('',#590,#143);
#107=LINE('',#592,#144);
#108=LINE('',#593,#145);
#109=LINE('',#596,#146);
#110=LINE('',#598,#147);
#111=LINE('',#599,#148);
#112=LINE('',#605,#149);
#113=LINE('',#608,#150);
#114=LINE('',#610,#151);
#115=LINE('',#611,#152);
#116=LINE('',#614,#153);
#117=LINE('',#616,#154);
#118=LINE('',#617,#155);
#119=LINE('',#623,#156);
#120=LINE('',#626,#157);
#121=LINE('',#628,#158);
#122=LINE('',#629,#159);
#123=VECTOR('',#429,10.);
#124=VECTOR('',#430,10.);
#125=VECTOR('',#431,10.);
#126=VECTOR('',#432,10.);
#127=VECTOR('',#439,10.);
#128=VECTOR('',#442,10.);
#129=VECTOR('',#443,10.);
#130=VECTOR('',#444,10.);
#131=VECTOR('',#455,0.999999999999999);
#132=VECTOR('',#462,10.);
#133=VECTOR('',#465,10.);
#134=VECTOR('',#468,10.);
#135=VECTOR('',#469,10.);
#136=VECTOR('',#470,10.);
#137=VECTOR('',#473,10.);
#138=VECTOR('',#474,10.);
#139=VECTOR('',#475,10.);
#140=VECTOR('',#478,10.);
#141=VECTOR('',#479,10.);
#142=VECTOR('',#482,10.);
#143=VECTOR('',#483,10.);
#144=VECTOR('',#484,10.);
#145=VECTOR('',#485,10.);
#146=VECTOR('',#488,10.);
#147=VECTOR('',#489,10.);
#148=VECTOR('',#490,10.);
#149=VECTOR('',#497,10.);
#150=VECTOR('',#500,10.);
#151=VECTOR('',#501,10.);
#152=VECTOR('',#502,10.);
#153=VECTOR('',#505,10.);
#154=VECTOR('',#506,10.);
#155=VECTOR('',#507,10.);
#156=VECTOR('',#514,10.);
#157=VECTOR('',#517,10.);
#158=VECTOR('',#518,10.);
#159=VECTOR('',#519,10.);
#160=VERTEX_POINT('',#532);
#161=VERTEX_POINT('',#533);
#162=VERTEX_POINT('',#535);
#163=VERTEX_POINT('',#537);
#164=VERTEX_POINT('',#541);
#165=VERTEX_POINT('',#543);
#166=VERTEX_POINT('',#547);
#167=VERTEX_POINT('',#549);
#168=VERTEX_POINT('',#556);
#169=VERTEX_POINT('',#558);
#170=VERTEX_POINT('',#562);
#171=VERTEX_POINT('',#563);
#172=VERTEX_POINT('',#565);
#173=VERTEX_POINT('',#567);
#174=VERTEX_POINT('',#571);
#175=VERTEX_POINT('',#573);
#176=VERTEX_POINT('',#577);
#177=VERTEX_POINT('',#579);
#178=VERTEX_POINT('',#586);
#179=VERTEX_POINT('',#587);
#180=VERTEX_POINT('',#589);
#181=VERTEX_POINT('',#591);
#182=VERTEX_POINT('',#595);
#183=VERTEX_POINT('',#597);
#184=VERTEX_POINT('',#601);
#185=VERTEX_POINT('',#603);
#186=VERTEX_POINT('',#607);
#187=VERTEX_POINT('',#609);
#188=VERTEX_POINT('',#613);
#189=VERTEX_POINT('',#615);
#190=VERTEX_POINT('',#619);
#191=VERTEX_POINT('',#621);
#192=VERTEX_POINT('',#625);
#193=VERTEX_POINT('',#627);
#194=EDGE_CURVE('',#160,#161,#86,.T.);
#195=EDGE_CURVE('',#161,#162,#87,.T.);
#196=EDGE_CURVE('',#163,#162,#88,.T.);
#197=EDGE_CURVE('',#160,#163,#89,.T.);
#198=EDGE_CURVE('',#164,#160,#21,.T.);
#199=EDGE_CURVE('',#165,#163,#22,.T.);
#200=EDGE_CURVE('',#164,#165,#90,.T.);
#201=EDGE_CURVE('',#166,#164,#91,.T.);
#202=EDGE_CURVE('',#167,#165,#92,.T.);
#203=EDGE_CURVE('',#166,#167,#93,.T.);
#204=EDGE_CURVE('',#161,#166,#23,.T.);
#205=EDGE_CURVE('',#162,#167,#24,.T.);
#206=EDGE_CURVE('',#168,#168,#25,.F.);
#207=EDGE_CURVE('',#168,#169,#94,.T.);
#208=EDGE_CURVE('',#169,#169,#26,.F.);
#209=EDGE_CURVE('',#170,#171,#27,.T.);
#210=EDGE_CURVE('',#171,#172,#95,.T.);
#211=EDGE_CURVE('',#173,#172,#28,.T.);
#212=EDGE_CURVE('',#170,#173,#96,.T.);
#213=EDGE_CURVE('',#174,#170,#97,.T.);
#214=EDGE_CURVE('',#175,#173,#98,.T.);
#215=EDGE_CURVE('',#174,#175,#99,.T.);
#216=EDGE_CURVE('',#176,#174,#100,.T.);
#217=EDGE_CURVE('',#177,#175,#101,.T.);
#218=EDGE_CURVE('',#176,#177,#102,.T.);
#219=EDGE_CURVE('',#171,#176,#103,.T.);
#220=EDGE_CURVE('',#172,#177,#104,.T.);
#221=EDGE_CURVE('',#178,#179,#105,.T.);
#222=EDGE_CURVE('',#178,#180,#106,.T.);
#223=EDGE_CURVE('',#181,#180,#107,.F.);
#224=EDGE_CURVE('',#179,#181,#108,.F.);
#225=EDGE_CURVE('',#179,#182,#109,.T.);
#226=EDGE_CURVE('',#183,#181,#110,.F.);
#227=EDGE_CURVE('',#182,#183,#111,.T.);
#228=EDGE_CURVE('',#184,#182,#29,.F.);
#229=EDGE_CURVE('',#185,#183,#30,.F.);
#230=EDGE_CURVE('',#184,#185,#112,.T.);
#231=EDGE_CURVE('',#184,#186,#113,.T.);
#232=EDGE_CURVE('',#187,#185,#114,.F.);
#233=EDGE_CURVE('',#186,#187,#115,.T.);
#234=EDGE_CURVE('',#186,#188,#116,.T.);
#235=EDGE_CURVE('',#189,#187,#117,.F.);
#236=EDGE_CURVE('',#188,#189,#118,.T.);
#237=EDGE_CURVE('',#190,#188,#31,.F.);
#238=EDGE_CURVE('',#191,#189,#32,.F.);
#239=EDGE_CURVE('',#190,#191,#119,.T.);
#240=EDGE_CURVE('',#192,#190,#120,.F.);
#241=EDGE_CURVE('',#193,#191,#121,.F.);
#242=EDGE_CURVE('',#192,#193,#122,.T.);
#243=EDGE_CURVE('',#178,#192,#33,.F.);
#244=EDGE_CURVE('',#180,#193,#34,.F.);
#245=ORIENTED_EDGE('',*,*,#194,.T.);
#246=ORIENTED_EDGE('',*,*,#195,.T.);
#247=ORIENTED_EDGE('',*,*,#196,.F.);
#248=ORIENTED_EDGE('',*,*,#197,.F.);
#249=ORIENTED_EDGE('',*,*,#198,.T.);
#250=ORIENTED_EDGE('',*,*,#197,.T.);
#251=ORIENTED_EDGE('',*,*,#199,.F.);
#252=ORIENTED_EDGE('',*,*,#200,.F.);
#253=ORIENTED_EDGE('',*,*,#201,.T.);
#254=ORIENTED_EDGE('',*,*,#200,.T.);
#255=ORIENTED_EDGE('',*,*,#202,.F.);
#256=ORIENTED_EDGE('',*,*,#203,.F.);
#257=ORIENTED_EDGE('',*,*,#204,.T.);
#258=ORIENTED_EDGE('',*,*,#203,.T.);
#259=ORIENTED_EDGE('',*,*,#205,.F.);
#260=ORIENTED_EDGE('',*,*,#195,.F.);
#261=ORIENTED_EDGE('',*,*,#206,.F.);
#262=ORIENTED_EDGE('',*,*,#207,.T.);
#263=ORIENTED_EDGE('',*,*,#208,.T.);
#264=ORIENTED_EDGE('',*,*,#207,.F.);
#265=ORIENTED_EDGE('',*,*,#209,.T.);
#266=ORIENTED_EDGE('',*,*,#210,.T.);
#267=ORIENTED_EDGE('',*,*,#211,.F.);
#268=ORIENTED_EDGE('',*,*,#212,.F.);
#269=ORIENTED_EDGE('',*,*,#213,.T.);
#270=ORIENTED_EDGE('',*,*,#212,.T.);
#271=ORIENTED_EDGE('',*,*,#214,.F.);
#272=ORIENTED_EDGE('',*,*,#215,.F.);
#273=ORIENTED_EDGE('',*,*,#216,.T.);
#274=ORIENTED_EDGE('',*,*,#215,.T.);
#275=ORIENTED_EDGE('',*,*,#217,.F.);
#276=ORIENTED_EDGE('',*,*,#218,.F.);
#277=ORIENTED_EDGE('',*,*,#219,.T.);
#278=ORIENTED_EDGE('',*,*,#218,.T.);
#279=ORIENTED_EDGE('',*,*,#220,.F.);
#280=ORIENTED_EDGE('',*,*,#210,.F.);
#281=ORIENTED_EDGE('',*,*,#221,.F.);
#282=ORIENTED_EDGE('',*,*,#222,.T.);
#283=ORIENTED_EDGE('',*,*,#223,.F.);
#284=ORIENTED_EDGE('',*,*,#224,.F.);
#285=ORIENTED_EDGE('',*,*,#225,.F.);
#286=ORIENTED_EDGE('',*,*,#224,.T.);
#287=ORIENTED_EDGE('',*,*,#226,.F.);
#288=ORIENTED_EDGE('',*,*,#227,.F.);
#289=ORIENTED_EDGE('',*,*,#228,.T.);
#290=ORIENTED_EDGE('',*,*,#227,.T.);
#291=ORIENTED_EDGE('',*,*,#229,.F.);
#292=ORIENTED_EDGE('',*,*,#230,.F.);
#293=ORIENTED_EDGE('',*,*,#231,.F.);
#294=ORIENTED_EDGE('',*,*,#230,.T.);
#295=ORIENTED_EDGE('',*,*,#232,.F.);
#296=ORIENTED_EDGE('',*,*,#233,.F.);
#297=ORIENTED_EDGE('',*,*,#234,.F.);
#298=ORIENTED_EDGE('',*,*,#233,.T.);
#299=ORIENTED_EDGE('',*,*,#235,.F.);
#300=ORIENTED_EDGE('',*,*,#236,.F.);
#301=ORIENTED_EDGE('',*,*,#237,.T.);
#302=ORIENTED_EDGE('',*,*,#236,.T.);
#303=ORIENTED_EDGE('',*,*,#238,.F.);
#304=ORIENTED_EDGE('',*,*,#239,.F.);
#305=ORIENTED_EDGE('',*,*,#240,.T.);
#306=ORIENTED_EDGE('',*,*,#239,.T.);
#307=ORIENTED_EDGE('',*,*,#241,.F.);
#308=ORIENTED_EDGE('',*,*,#242,.F.);
#309=ORIENTED_EDGE('',*,*,#243,.T.);
#310=ORIENTED_EDGE('',*,*,#242,.T.);
#311=ORIENTED_EDGE('',*,*,#244,.F.);
#312=ORIENTED_EDGE('',*,*,#222,.F.);
#313=ORIENTED_EDGE('',*,*,#244,.T.);
#314=ORIENTED_EDGE('',*,*,#241,.T.);
#315=ORIENTED_EDGE('',*,*,#238,.T.);
#316=ORIENTED_EDGE('',*,*,#235,.T.);
#317=ORIENTED_EDGE('',*,*,#232,.T.);
#318=ORIENTED_EDGE('',*,*,#229,.T.);
#319=ORIENTED_EDGE('',*,*,#226,.T.);
#320=ORIENTED_EDGE('',*,*,#223,.T.);
#321=ORIENTED_EDGE('',*,*,#220,.T.);
#322=ORIENTED_EDGE('',*,*,#217,.T.);
#323=ORIENTED_EDGE('',*,*,#214,.T.);
#324=ORIENTED_EDGE('',*,*,#211,.T.);
#325=ORIENTED_EDGE('',*,*,#206,.T.);
#326=ORIENTED_EDGE('',*,*,#205,.T.);
#327=ORIENTED_EDGE('',*,*,#202,.T.);
#328=ORIENTED_EDGE('',*,*,#199,.T.);
#329=ORIENTED_EDGE('',*,*,#196,.T.);
#330=ORIENTED_EDGE('',*,*,#243,.F.);
#331=ORIENTED_EDGE('',*,*,#221,.T.);
#332=ORIENTED_EDGE('',*,*,#225,.T.);
#333=ORIENTED_EDGE('',*,*,#228,.F.);
#334=ORIENTED_EDGE('',*,*,#231,.T.);
#335=ORIENTED_EDGE('',*,*,#234,.T.);
#336=ORIENTED_EDGE('',*,*,#237,.F.);
#337=ORIENTED_EDGE('',*,*,#240,.F.);
#338=ORIENTED_EDGE('',*,*,#219,.F.);
#339=ORIENTED_EDGE('',*,*,#209,.F.);
#340=ORIENTED_EDGE('',*,*,#213,.F.);
#341=ORIENTED_EDGE('',*,*,#216,.F.);
#342=ORIENTED_EDGE('',*,*,#208,.F.);
#343=ORIENTED_EDGE('',*,*,#204,.F.);
#344=ORIENTED_EDGE('',*,*,#194,.F.);
#345=ORIENTED_EDGE('',*,*,#198,.F.);
#346=ORIENTED_EDGE('',*,*,#201,.F.);
#347=PLANE('',#392);
#348=PLANE('',#396);
#349=PLANE('',#406);
#350=PLANE('',#407);
#351=PLANE('',#408);
#352=PLANE('',#409);
#353=PLANE('',#410);
#354=PLANE('',#414);
#355=PLANE('',#415);
#356=PLANE('',#419);
#357=PLANE('',#423);
#358=PLANE('',#424);
#359=ADVANCED_FACE('',(#42),#347,.T.);
#360=ADVANCED_FACE('',(#43),#35,.F.);
#361=ADVANCED_FACE('',(#44),#348,.T.);
#362=ADVANCED_FACE('',(#45),#36,.F.);
#363=ADVANCED_FACE('',(#46),#37,.F.);
#364=ADVANCED_FACE('',(#47),#38,.F.);
#365=ADVANCED_FACE('',(#48),#349,.T.);
#366=ADVANCED_FACE('',(#49),#350,.T.);
#367=ADVANCED_FACE('',(#50),#351,.T.);
#368=ADVANCED_FACE('',(#51),#352,.T.);
#369=ADVANCED_FACE('',(#52),#353,.T.);
#370=ADVANCED_FACE('',(#53),#39,.T.);
#371=ADVANCED_FACE('',(#54),#354,.T.);
#372=ADVANCED_FACE('',(#55),#355,.T.);
#373=ADVANCED_FACE('',(#56),#40,.T.);
#374=ADVANCED_FACE('',(#57),#356,.T.);
#375=ADVANCED_FACE('',(#58),#41,.T.);
#376=ADVANCED_FACE('',(#59,#15,#16,#17),#357,.T.);
#377=ADVANCED_FACE('',(#60,#18,#19,#20),#358,.F.);
#378=CLOSED_SHELL('',(#359,#360,#361,#362,#363,#364,#365,#366,#367,#368,
#369,#370,#371,#372,#373,#374,#375,#376,#377));
#379=DERIVED_UNIT_ELEMENT(#381,1.);
#380=DERIVED_UNIT_ELEMENT(#640,-3.);
#381=(
MASS_UNIT()
NAMED_UNIT(*)
SI_UNIT(.KILO.,.GRAM.)
);
#382=DERIVED_UNIT((#379,#380));
#383=MEASURE_REPRESENTATION_ITEM('density measure',
POSITIVE_RATIO_MEASURE(7850.),#382);
#384=PROPERTY_DEFINITION_REPRESENTATION(#389,#386);
#385=PROPERTY_DEFINITION_REPRESENTATION(#390,#387);
#386=REPRESENTATION('material name',(#388),#637);
#387=REPRESENTATION('density',(#383),#637);
#388=DESCRIPTIVE_REPRESENTATION_ITEM('Steel','Steel');
#389=PROPERTY_DEFINITION('material property','material name',#647);
#390=PROPERTY_DEFINITION('material property','density of part',#647);
#391=AXIS2_PLACEMENT_3D('placement',#530,#425,#426);
#392=AXIS2_PLACEMENT_3D('',#531,#427,#428);
#393=AXIS2_PLACEMENT_3D('',#540,#433,#434);
#394=AXIS2_PLACEMENT_3D('',#542,#435,#436);
#395=AXIS2_PLACEMENT_3D('',#544,#437,#438);
#396=AXIS2_PLACEMENT_3D('',#546,#440,#441);
#397=AXIS2_PLACEMENT_3D('',#552,#445,#446);
#398=AXIS2_PLACEMENT_3D('',#553,#447,#448);
#399=AXIS2_PLACEMENT_3D('',#554,#449,#450);
#400=AXIS2_PLACEMENT_3D('',#555,#451,#452);
#401=AXIS2_PLACEMENT_3D('',#557,#453,#454);
#402=AXIS2_PLACEMENT_3D('',#560,#456,#457);
#403=AXIS2_PLACEMENT_3D('',#561,#458,#459);
#404=AXIS2_PLACEMENT_3D('',#564,#460,#461);
#405=AXIS2_PLACEMENT_3D('',#568,#463,#464);
#406=AXIS2_PLACEMENT_3D('',#570,#466,#467);
#407=AXIS2_PLACEMENT_3D('',#576,#471,#472);
#408=AXIS2_PLACEMENT_3D('',#582,#476,#477);
#409=AXIS2_PLACEMENT_3D('',#585,#480,#481);
#410=AXIS2_PLACEMENT_3D('',#594,#486,#487);
#411=AXIS2_PLACEMENT_3D('',#600,#491,#492);
#412=AXIS2_PLACEMENT_3D('',#602,#493,#494);
#413=AXIS2_PLACEMENT_3D('',#604,#495,#496);
#414=AXIS2_PLACEMENT_3D('',#606,#498,#499);
#415=AXIS2_PLACEMENT_3D('',#612,#503,#504);
#416=AXIS2_PLACEMENT_3D('',#618,#508,#509);
#417=AXIS2_PLACEMENT_3D('',#620,#510,#511);
#418=AXIS2_PLACEMENT_3D('',#622,#512,#513);
#419=AXIS2_PLACEMENT_3D('',#624,#515,#516);
#420=AXIS2_PLACEMENT_3D('',#630,#520,#521);
#421=AXIS2_PLACEMENT_3D('',#631,#522,#523);
#422=AXIS2_PLACEMENT_3D('',#632,#524,#525);
#423=AXIS2_PLACEMENT_3D('',#633,#526,#527);
#424=AXIS2_PLACEMENT_3D('',#634,#528,#529);
#425=DIRECTION('axis',(0.,0.,1.));
#426=DIRECTION('refdir',(1.,0.,0.));
#427=DIRECTION('center_axis',(-6.05865043549252E-14,1.,0.));
#428=DIRECTION('ref_axis',(-1.,-6.05865043549252E-14,0.));
#429=DIRECTION('',(-1.,-6.05865043549252E-14,0.));
#430=DIRECTION('',(0.,0.,1.));
#431=DIRECTION('',(-1.,-6.05865043549252E-14,0.));
#432=DIRECTION('',(0.,0.,1.));
#433=DIRECTION('center_axis',(0.,0.,1.));
#434=DIRECTION('ref_axis',(1.,0.,0.));
#435=DIRECTION('center_axis',(0.,0.,-1.));
#436=DIRECTION('ref_axis',(1.,0.,0.));
#437=DIRECTION('center_axis',(0.,0.,-1.));
#438=DIRECTION('ref_axis',(1.,0.,0.));
#439=DIRECTION('',(0.,0.,1.));
#440=DIRECTION('center_axis',(8.53285014401435E-14,-1.,0.));
#441=DIRECTION('ref_axis',(1.,8.53285014401435E-14,0.));
#442=DIRECTION('',(1.,8.53285014401435E-14,0.));
#443=DIRECTION('',(1.,8.53285014401435E-14,0.));
#444=DIRECTION('',(0.,0.,1.));
#445=DIRECTION('center_axis',(0.,0.,1.));
#446=DIRECTION('ref_axis',(-0.999999999999701,-7.72657999680986E-7,0.));
#447=DIRECTION('center_axis',(0.,0.,-1.));
#448=DIRECTION('ref_axis',(1.,0.,0.));
#449=DIRECTION('center_axis',(0.,0.,-1.));
#450=DIRECTION('ref_axis',(1.,0.,0.));
#451=DIRECTION('center_axis',(0.,0.,1.));
#452=DIRECTION('ref_axis',(1.,0.,0.));
#453=DIRECTION('center_axis',(0.,0.,1.));
#454=DIRECTION('ref_axis',(1.,0.,0.));
#455=DIRECTION('',(0.,0.,-1.));
#456=DIRECTION('center_axis',(0.,0.,1.));
#457=DIRECTION('ref_axis',(1.,0.,0.));
#458=DIRECTION('center_axis',(0.,0.,1.));
#459=DIRECTION('ref_axis',(1.,0.,0.));
#460=DIRECTION('center_axis',(0.,0.,-1.));
#461=DIRECTION('ref_axis',(1.,0.,0.));
#462=DIRECTION('',(0.,0.,1.));
#463=DIRECTION('center_axis',(0.,0.,-1.));
#464=DIRECTION('ref_axis',(1.,0.,0.));
#465=DIRECTION('',(0.,0.,1.));
#466=DIRECTION('center_axis',(1.,-7.29577509515701E-12,0.));
#467=DIRECTION('ref_axis',(7.29577509515701E-12,1.,0.));
#468=DIRECTION('',(7.29577509515701E-12,1.,0.));
#469=DIRECTION('',(7.29577509515701E-12,1.,0.));
#470=DIRECTION('',(0.,0.,1.));
#471=DIRECTION('center_axis',(-8.53285014401435E-14,1.,0.));
#472=DIRECTION('ref_axis',(-1.,-8.53285014401435E-14,0.));
#473=DIRECTION('',(-1.,-8.53285014401435E-14,0.));
#474=DIRECTION('',(-1.,-8.53285014401435E-14,0.));
#475=DIRECTION('',(0.,0.,1.));
#476=DIRECTION('center_axis',(-1.,8.71107169091214E-12,0.));
#477=DIRECTION('ref_axis',(-8.71107169091214E-12,-1.,0.));
#478=DIRECTION('',(-8.71107169091214E-12,-1.,0.));
#479=DIRECTION('',(-8.71107169091214E-12,-1.,0.));
#480=DIRECTION('center_axis',(-8.53285014401435E-14,1.,0.));
#481=DIRECTION('ref_axis',(-1.,-8.53285014401435E-14,0.));
#482=DIRECTION('',(1.,8.53285014401435E-14,0.));
#483=DIRECTION('',(0.,0.,1.));
#484=DIRECTION('',(1.,8.53285014401435E-14,0.));
#485=DIRECTION('',(0.,0.,-1.));
#486=DIRECTION('center_axis',(-1.,-1.89741070964242E-14,0.));
#487=DIRECTION('ref_axis',(1.89741070964242E-14,-1.,0.));
#488=DIRECTION('',(-1.89741070964242E-14,1.,0.));
#489=DIRECTION('',(-1.89741070964242E-14,1.,0.));
#490=DIRECTION('',(0.,0.,1.));
#491=DIRECTION('center_axis',(0.,0.,1.));
#492=DIRECTION('ref_axis',(1.,0.,0.));
#493=DIRECTION('center_axis',(0.,0.,-1.));
#494=DIRECTION('ref_axis',(1.,0.,0.));
#495=DIRECTION('center_axis',(0.,0.,-1.));
#496=DIRECTION('ref_axis',(1.,0.,0.));
#497=DIRECTION('',(0.,0.,1.));
#498=DIRECTION('center_axis',(1.,1.46222215622255E-12,0.));
#499=DIRECTION('ref_axis',(-1.46222215622255E-12,1.,0.));
#500=DIRECTION('',(1.46222215622255E-12,-1.,0.));
#501=DIRECTION('',(1.46222215622255E-12,-1.,0.));
#502=DIRECTION('',(0.,0.,1.));
#503=DIRECTION('center_axis',(-8.53285014401435E-14,1.,0.));
#504=DIRECTION('ref_axis',(-1.,-8.53285014401435E-14,0.));
#505=DIRECTION('',(1.,8.53285014401435E-14,0.));
#506=DIRECTION('',(1.,8.53285014401435E-14,0.));
#507=DIRECTION('',(0.,0.,1.));
#508=DIRECTION('center_axis',(0.,0.,1.));
#509=DIRECTION('ref_axis',(1.,0.,0.));
#510=DIRECTION('center_axis',(0.,0.,-1.));
#511=DIRECTION('ref_axis',(1.,0.,0.));
#512=DIRECTION('center_axis',(0.,0.,-1.));
#513=DIRECTION('ref_axis',(1.,0.,0.));
#514=DIRECTION('',(0.,0.,1.));
#515=DIRECTION('center_axis',(6.05865043549252E-14,-1.,0.));
#516=DIRECTION('ref_axis',(1.,6.05865043549252E-14,0.));
#517=DIRECTION('',(-1.,-6.05865043549252E-14,0.));
#518=DIRECTION('',(-1.,-6.05865043549252E-14,0.));
#519=DIRECTION('',(0.,0.,1.));
#520=DIRECTION('center_axis',(0.,0.,1.));
#521=DIRECTION('ref_axis',(-0.999999999999902,-4.42568205072026E-7,0.));
#522=DIRECTION('center_axis',(0.,0.,-1.));
#523=DIRECTION('ref_axis',(1.,0.,0.));
#524=DIRECTION('center_axis',(0.,0.,-1.));
#525=DIRECTION('ref_axis',(1.,0.,0.));
#526=DIRECTION('center_axis',(0.,0.,1.));
#527=DIRECTION('ref_axis',(1.,0.,0.));
#528=DIRECTION('center_axis',(0.,0.,1.));
#529=DIRECTION('ref_axis',(1.,0.,0.));
#530=CARTESIAN_POINT('',(0.,0.,0.));
#531=CARTESIAN_POINT('Origin',(20.249956241318,-23.7930963206118,14.7));
#532=CARTESIAN_POINT('',(20.249956241318,-23.7930963206087,14.7));
#533=CARTESIAN_POINT('',(-20.2499562413195,-23.7930963206074,14.7));
#534=CARTESIAN_POINT('',(-20.9999230579246,-23.7930963206143,14.7));
#535=CARTESIAN_POINT('',(-20.2499562413195,-23.7930963206074,16.7));
#536=CARTESIAN_POINT('',(-20.2499562413195,-23.7930963206074,14.7));
#537=CARTESIAN_POINT('',(20.249956241318,-23.7930963206087,16.7));
#538=CARTESIAN_POINT('',(-20.9999230579246,-23.7930963206143,16.7));
#539=CARTESIAN_POINT('',(20.249956241318,-23.7930963206087,14.7));
#540=CARTESIAN_POINT('Origin',(20.249956241318,-22.2930963206087,14.7));
#541=CARTESIAN_POINT('',(20.2499554888963,-20.7930963206089,14.7));
#542=CARTESIAN_POINT('Origin',(20.249956241318,-22.2930963206087,14.7));
#543=CARTESIAN_POINT('',(20.2499554888963,-20.7930963206089,16.7));
#544=CARTESIAN_POINT('Origin',(20.249956241318,-22.2930963206087,16.7));
#545=CARTESIAN_POINT('',(20.2499554888963,-20.7930963206089,14.7));
#546=CARTESIAN_POINT('Origin',(-20.2499585592935,-20.7930963206128,14.7));
#547=CARTESIAN_POINT('',(-20.2499585592935,-20.7930963206092,14.7));
#548=CARTESIAN_POINT('',(-20.9999897940539,-20.7930963206128,14.7));
#549=CARTESIAN_POINT('',(-20.2499585592935,-20.7930963206092,16.7));
#550=CARTESIAN_POINT('',(-20.9999897940539,-20.7930963206128,16.7));
#551=CARTESIAN_POINT('',(-20.2499585592935,-20.7930963206092,14.7));
#552=CARTESIAN_POINT('Origin',(-20.2499562413195,-22.2930963206074,14.7));
#553=CARTESIAN_POINT('Origin',(-20.2499562413195,-22.2930963206074,14.7));
#554=CARTESIAN_POINT('Origin',(-20.2499562413195,-22.2930963206074,16.7));
#555=CARTESIAN_POINT('Origin',(4.38721791746819E-13,51.5,14.7));
#556=CARTESIAN_POINT('',(-1.09999999999956,51.5,16.7));
#557=CARTESIAN_POINT('Origin',(4.38721791746819E-13,51.5,16.7));
#558=CARTESIAN_POINT('',(-1.09999999999956,51.5,14.7));
#559=CARTESIAN_POINT('',(-1.09999999999956,51.5,14.7));
#560=CARTESIAN_POINT('Origin',(4.38721791746819E-13,51.5,14.7));
#561=CARTESIAN_POINT('Origin',(2.86085523376637E-12,45.4999999999978,14.7));
#562=CARTESIAN_POINT('',(-1.49999999999714,45.5000000000087,14.7));
#563=CARTESIAN_POINT('',(1.50000000000286,45.4999999999868,14.7));
#564=CARTESIAN_POINT('Origin',(2.86085523376637E-12,45.4999999999978,14.7));
#565=CARTESIAN_POINT('',(1.50000000000286,45.4999999999868,16.7));
#566=CARTESIAN_POINT('',(1.50000000000286,45.4999999999868,14.7));
#567=CARTESIAN_POINT('',(-1.49999999999714,45.5000000000087,16.7));
#568=CARTESIAN_POINT('Origin',(2.86085523376637E-12,45.4999999999978,16.7));
#569=CARTESIAN_POINT('',(-1.49999999999714,45.5000000000087,14.7));
#570=CARTESIAN_POINT('Origin',(-1.50000000046621,-18.7930963206112,14.7));
#571=CARTESIAN_POINT('',(-1.50000000000585,-18.7930963206112,14.7));
#572=CARTESIAN_POINT('',(-1.50000000003362,40.4999999999978,14.7));
#573=CARTESIAN_POINT('',(-1.50000000000585,-18.7930963206112,16.7));
#574=CARTESIAN_POINT('',(-1.50000000003362,40.4999999999978,16.7));
#575=CARTESIAN_POINT('',(-1.50000000000585,-18.7930963206112,14.7));
#576=CARTESIAN_POINT('Origin',(1.49999999999414,-18.7930963206109,14.7));
#577=CARTESIAN_POINT('',(1.49999999999414,-18.7930963206109,14.7));
#578=CARTESIAN_POINT('',(-20.9999897940541,-18.7930963206128,14.7));
#579=CARTESIAN_POINT('',(1.49999999999414,-18.7930963206109,16.7));
#580=CARTESIAN_POINT('',(-20.9999897940541,-18.7930963206128,16.7));
#581=CARTESIAN_POINT('',(1.49999999999414,-18.7930963206109,14.7));
#582=CARTESIAN_POINT('Origin',(1.50000000000993,45.4999999999868,14.7));
#583=CARTESIAN_POINT('',(1.49999999996638,40.4999999999988,14.7));
#584=CARTESIAN_POINT('',(1.49999999996638,40.4999999999988,16.7));
#585=CARTESIAN_POINT('Origin',(-3.50000000000589,-18.2930963206113,14.7));
#586=CARTESIAN_POINT('',(-20.2499597818651,-18.2930963206092,14.7));
#587=CARTESIAN_POINT('',(-4.00000000008278,-18.2930963206114,14.7));
#588=CARTESIAN_POINT('',(-1.75000000000191,-18.2930963206112,14.7));
#589=CARTESIAN_POINT('',(-20.2499597818651,-18.2930963206092,16.7));
#590=CARTESIAN_POINT('',(-20.2499597818651,-18.2930963206092,14.7));
#591=CARTESIAN_POINT('',(-4.00000000008278,-18.2930963206114,16.7));
#592=CARTESIAN_POINT('',(-1.75000000000191,-18.2930963206112,16.7));
#593=CARTESIAN_POINT('',(-4.00000000008278,-18.2930963206114,14.7));
#594=CARTESIAN_POINT('Origin',(-4.0000000000841,51.4999999999983,14.7));
#595=CARTESIAN_POINT('',(-4.0000000000841,51.4999999999983,14.7));
#596=CARTESIAN_POINT('',(-4.00000000008375,33.0517259198451,14.7));
#597=CARTESIAN_POINT('',(-4.0000000000841,51.4999999999983,16.7));
#598=CARTESIAN_POINT('',(-4.00000000008375,33.0517259198451,16.7));
#599=CARTESIAN_POINT('',(-4.0000000000841,51.4999999999983,14.7));
#600=CARTESIAN_POINT('Origin',(-8.41029292656767E-11,51.4999999999983,14.7));
#601=CARTESIAN_POINT('',(3.9999999999159,51.499999999999,14.7));
#602=CARTESIAN_POINT('Origin',(-8.41029292656767E-11,51.4999999999983,14.7));
#603=CARTESIAN_POINT('',(3.9999999999159,51.499999999999,16.7));
#604=CARTESIAN_POINT('Origin',(-8.41029292656767E-11,51.4999999999983,16.7));
#605=CARTESIAN_POINT('',(3.9999999999159,51.499999999999,14.7));
#606=CARTESIAN_POINT('Origin',(3.99999999999414,-18.79309632061,14.7));
#607=CARTESIAN_POINT('',(3.99999999999341,-18.2930963206107,14.7));
#608=CARTESIAN_POINT('',(3.99999999996972,-2.09482224045607,14.7));
#609=CARTESIAN_POINT('',(3.99999999999341,-18.2930963206107,16.7));
#610=CARTESIAN_POINT('',(3.99999999996972,-2.09482224045607,16.7));
#611=CARTESIAN_POINT('',(3.99999999999341,-18.2930963206107,14.7));
#612=CARTESIAN_POINT('Origin',(20.2499550886626,-18.2930963206093,14.7));
#613=CARTESIAN_POINT('',(20.2499550886626,-18.2930963206089,14.7));
#614=CARTESIAN_POINT('',(10.1249775443323,-18.2930963206102,14.7));
#615=CARTESIAN_POINT('',(20.2499550886626,-18.2930963206089,16.7));
#616=CARTESIAN_POINT('',(10.1249775443323,-18.2930963206102,16.7));
#617=CARTESIAN_POINT('',(20.2499550886626,-18.2930963206089,14.7));
#618=CARTESIAN_POINT('Origin',(20.249956241318,-22.2930963206087,14.7));
#619=CARTESIAN_POINT('',(20.2499562413181,-26.2930963206087,14.7));
#620=CARTESIAN_POINT('Origin',(20.249956241318,-22.2930963206087,14.7));
#621=CARTESIAN_POINT('',(20.2499562413181,-26.2930963206087,16.7));
#622=CARTESIAN_POINT('Origin',(20.249956241318,-22.2930963206087,16.7));
#623=CARTESIAN_POINT('',(20.2499562413181,-26.2930963206087,14.7));
#624=CARTESIAN_POINT('Origin',(-20.2499562413195,-26.2930963206143,14.7));
#625=CARTESIAN_POINT('',(-20.2499562413195,-26.2930963206074,14.7));
#626=CARTESIAN_POINT('',(-10.1249781206589,-26.2930963206136,14.7));
#627=CARTESIAN_POINT('',(-20.2499562413195,-26.2930963206074,16.7));
#628=CARTESIAN_POINT('',(-10.1249781206589,-26.2930963206136,16.7));
#629=CARTESIAN_POINT('',(-20.2499562413195,-26.2930963206074,14.7));
#630=CARTESIAN_POINT('Origin',(-20.2499562413195,-22.2930963206074,14.7));
#631=CARTESIAN_POINT('Origin',(-20.2499562413195,-22.2930963206074,14.7));
#632=CARTESIAN_POINT('Origin',(-20.2499562413195,-22.2930963206074,16.7));
#633=CARTESIAN_POINT('Origin',(-7.41628980449605E-13,14.603451839692,16.7));
#634=CARTESIAN_POINT('Origin',(-7.41628980449605E-13,14.603451839692,14.7));
#635=UNCERTAINTY_MEASURE_WITH_UNIT(LENGTH_MEASURE(0.01),#639,
'DISTANCE_ACCURACY_VALUE',
'Maximum model space distance between geometric entities at asserted c
onnectivities');
#636=UNCERTAINTY_MEASURE_WITH_UNIT(LENGTH_MEASURE(0.01),#639,
'DISTANCE_ACCURACY_VALUE',
'Maximum model space distance between geometric entities at asserted c
onnectivities');
#637=(
GEOMETRIC_REPRESENTATION_CONTEXT(3)
GLOBAL_UNCERTAINTY_ASSIGNED_CONTEXT((#635))
GLOBAL_UNIT_ASSIGNED_CONTEXT((#639,#641,#642))
REPRESENTATION_CONTEXT('','3D')
);
#638=(
GEOMETRIC_REPRESENTATION_CONTEXT(3)
GLOBAL_UNCERTAINTY_ASSIGNED_CONTEXT((#636))
GLOBAL_UNIT_ASSIGNED_CONTEXT((#639,#641,#642))
REPRESENTATION_CONTEXT('','3D')
);
#639=(
LENGTH_UNIT()
NAMED_UNIT(*)
SI_UNIT(.MILLI.,.METRE.)
);
#640=(
LENGTH_UNIT()
NAMED_UNIT(*)
SI_UNIT($,.METRE.)
);
#641=(
NAMED_UNIT(*)
PLANE_ANGLE_UNIT()
SI_UNIT($,.RADIAN.)
);
#642=(
NAMED_UNIT(*)
SI_UNIT($,.STERADIAN.)
SOLID_ANGLE_UNIT()
);
#643=SHAPE_DEFINITION_REPRESENTATION(#644,#645);
#644=PRODUCT_DEFINITION_SHAPE('',$,#647);
#645=SHAPE_REPRESENTATION('',(#391),#637);
#646=PRODUCT_DEFINITION_CONTEXT('part definition',#651,'design');
#647=PRODUCT_DEFINITION('up_down_stucture0516_stick3',
'up_down_stucture0516_stick3 v1',#648,#646);
#648=PRODUCT_DEFINITION_FORMATION('',$,#653);
#649=PRODUCT_RELATED_PRODUCT_CATEGORY('up_down_stucture0516_stick3 v1',
'up_down_stucture0516_stick3 v1',(#653));
#650=APPLICATION_PROTOCOL_DEFINITION('international standard',
'automotive_design',2009,#651);
#651=APPLICATION_CONTEXT(
'Core Data for Automotive Mechanical Design Process');
#652=PRODUCT_CONTEXT('part definition',#651,'mechanical');
#653=PRODUCT('up_down_stucture0516_stick3',
'up_down_stucture0516_stick3 v1',$,(#652));
#654=PRESENTATION_STYLE_ASSIGNMENT((#655));
#655=SURFACE_STYLE_USAGE(.BOTH.,#656);
#656=SURFACE_SIDE_STYLE('',(#657));
#657=SURFACE_STYLE_FILL_AREA(#658);
#658=FILL_AREA_STYLE('Steel - Satin',(#659));
#659=FILL_AREA_STYLE_COLOUR('Steel - Satin',#660);
#660=COLOUR_RGB('Steel - Satin',0.627450980392157,0.627450980392157,0.627450980392157);
ENDSEC;
END-ISO-10303-21;
