%TF.GenerationSoftware,KiCad,Pcbnew,(6.0.2-0)*%
%TF.CreationDate,2022-04-10T04:09:01+03:00*%
%TF.ProjectId,ATtiny1614_flexible4,41547469-6e79-4313-9631-345f666c6578,rev?*%
%TF.SameCoordinates,Original*%
%TF.FileFunction,Soldermask,Bot*%
%TF.FilePolarity,Negative*%
%FSLAX46Y46*%
G04 Gerber Fmt 4.6, Leading zero omitted, Abs format (unit mm)*
G04 Created by KiCad (PCBNEW (6.0.2-0)) date 2022-04-10 04:09:01*
%MOMM*%
%LPD*%
G01*
G04 APERTURE LIST*
%ADD10C,0.097999*%
%ADD11R,2.200000X2.200000*%
%ADD12O,2.200000X2.200000*%
%ADD13C,2.100000*%
G04 APERTURE END LIST*
D10*
X165483901Y-90169360D02*
X165523208Y-89903850D01*
X165555198Y-89639695D01*
X165579908Y-89377020D01*
X165597376Y-89115947D01*
X165607638Y-88856599D01*
X165610732Y-88599101D01*
X165606696Y-88343576D01*
X165595568Y-88090146D01*
X165577383Y-87838935D01*
X165552180Y-87590068D01*
X165519997Y-87343666D01*
X165480870Y-87099854D01*
X165434837Y-86858755D01*
X165381935Y-86620493D01*
X165322203Y-86385190D01*
X165255676Y-86152970D01*
X165182393Y-85923956D01*
X165102391Y-85698273D01*
X165015708Y-85476043D01*
X164922380Y-85257389D01*
X164822446Y-85042436D01*
X164715942Y-84831306D01*
X164602906Y-84624123D01*
X164483376Y-84421011D01*
X164357388Y-84222092D01*
X164224981Y-84027490D01*
X164086191Y-83837328D01*
X163941056Y-83651731D01*
X163789614Y-83470821D01*
X163631901Y-83294721D01*
X163467956Y-83123556D01*
X163297816Y-82957448D01*
X162053689Y-96832398D02*
X162223595Y-96649288D01*
X162389867Y-96463760D01*
X162552461Y-96275894D01*
X162711337Y-96085769D01*
X162866455Y-95893465D01*
X163017773Y-95699062D01*
X163165250Y-95502640D01*
X163308845Y-95304278D01*
X163448517Y-95104057D01*
X163584225Y-94902056D01*
X163715928Y-94698355D01*
X163843586Y-94493034D01*
X163967156Y-94286173D01*
X164086598Y-94077852D01*
X164201871Y-93868150D01*
X164312935Y-93657148D01*
X164419747Y-93444924D01*
X164522266Y-93231560D01*
X164620453Y-93017134D01*
X164714266Y-92801727D01*
X164803663Y-92585419D01*
X164888604Y-92368289D01*
X164969048Y-92150417D01*
X165044954Y-91931883D01*
X165116281Y-91712767D01*
X165182987Y-91493148D01*
X165245032Y-91273107D01*
X165302374Y-91052724D01*
X165354973Y-90832077D01*
X165402788Y-90611248D01*
X165445778Y-90390315D01*
X165483901Y-90169360D01*
X156244483Y-100477474D02*
X156440157Y-100419701D01*
X156635418Y-100358081D01*
X156830216Y-100292636D01*
X157024500Y-100223389D01*
X157218221Y-100150363D01*
X157411329Y-100073579D01*
X157603774Y-99993061D01*
X157795506Y-99908830D01*
X157986476Y-99820911D01*
X158176634Y-99729324D01*
X158365929Y-99634093D01*
X158554312Y-99535241D01*
X158741733Y-99432789D01*
X158928143Y-99326761D01*
X159113491Y-99217179D01*
X159297728Y-99104066D01*
X159480803Y-98987443D01*
X159662667Y-98867335D01*
X159843270Y-98743762D01*
X160022563Y-98616749D01*
X160200495Y-98486317D01*
X160377016Y-98352489D01*
X160552077Y-98215288D01*
X160725628Y-98074736D01*
X160897619Y-97930855D01*
X161068000Y-97783669D01*
X161236721Y-97633200D01*
X161403733Y-97479470D01*
X161568986Y-97322503D01*
X161732429Y-97162320D01*
X161894013Y-96998944D01*
X162053689Y-96832398D01*
X155827836Y-101430672D02*
X155786600Y-101322280D01*
X155764329Y-101211782D01*
X155760209Y-101101268D01*
X155773426Y-100992832D01*
X155803165Y-100888565D01*
X155848612Y-100790559D01*
X155908954Y-100700908D01*
X155983376Y-100621703D01*
X156071065Y-100555037D01*
X156171206Y-100503002D01*
X156244483Y-100477474D01*
X157104178Y-104686881D02*
X157077753Y-104592335D01*
X157050255Y-104497096D01*
X157021707Y-104401188D01*
X156992126Y-104304632D01*
X156961535Y-104207451D01*
X156929954Y-104109668D01*
X156897401Y-104011307D01*
X156863899Y-103912389D01*
X156829468Y-103812938D01*
X156794127Y-103712975D01*
X156757898Y-103612525D01*
X156720800Y-103511610D01*
X156682854Y-103410252D01*
X156644080Y-103308475D01*
X156604499Y-103206300D01*
X156564131Y-103103752D01*
X156522997Y-103000852D01*
X156481116Y-102897623D01*
X156438509Y-102794089D01*
X156395197Y-102690271D01*
X156351200Y-102586194D01*
X156306538Y-102481878D01*
X156261231Y-102377348D01*
X156215301Y-102272626D01*
X156168766Y-102167735D01*
X156121649Y-102062698D01*
X156073969Y-101957536D01*
X156025746Y-101852274D01*
X155977000Y-101746934D01*
X155927754Y-101641538D01*
X155878025Y-101536110D01*
X155827836Y-101430672D01*
X157161264Y-104927225D02*
X157139715Y-104829073D01*
X157116151Y-104731873D01*
X157104178Y-104686881D01*
X157185700Y-105035102D02*
X157163242Y-104936451D01*
X157161264Y-104927225D01*
X155187717Y-113719154D02*
X155467079Y-113360438D01*
X155724226Y-113003201D01*
X155959978Y-112647858D01*
X156175159Y-112294824D01*
X156370591Y-111944516D01*
X156547094Y-111597348D01*
X156705492Y-111253737D01*
X156846607Y-110914098D01*
X156971260Y-110578847D01*
X157080274Y-110248399D01*
X157174470Y-109923171D01*
X157254672Y-109603577D01*
X157321700Y-109290033D01*
X157376377Y-108982956D01*
X157419525Y-108682760D01*
X157451967Y-108389862D01*
X157474523Y-108104677D01*
X157488017Y-107827620D01*
X157493270Y-107559108D01*
X157491104Y-107299555D01*
X157482342Y-107049379D01*
X157467805Y-106808993D01*
X157448316Y-106578815D01*
X157424697Y-106359259D01*
X157397769Y-106150741D01*
X157368356Y-105953677D01*
X157337278Y-105768483D01*
X157305358Y-105595573D01*
X157273418Y-105435365D01*
X157242280Y-105288273D01*
X157212767Y-105154713D01*
X157185700Y-105035102D01*
X155100177Y-113823334D02*
X155166103Y-113745470D01*
X155187717Y-113719154D01*
X150901398Y-116816570D02*
X151106776Y-116738860D01*
X151308895Y-116655525D01*
X151507601Y-116567024D01*
X151702743Y-116473819D01*
X151894168Y-116376370D01*
X152081722Y-116275137D01*
X152265254Y-116170581D01*
X152444612Y-116063162D01*
X152619642Y-115953340D01*
X152790192Y-115841577D01*
X152956109Y-115728331D01*
X153117242Y-115614065D01*
X153273437Y-115499237D01*
X153424542Y-115384310D01*
X153570405Y-115269742D01*
X153710873Y-115155995D01*
X153845793Y-115043528D01*
X153975013Y-114932804D01*
X154098380Y-114824280D01*
X154215743Y-114718419D01*
X154326948Y-114615681D01*
X154431842Y-114516526D01*
X154530274Y-114421414D01*
X154622091Y-114330806D01*
X154707140Y-114245162D01*
X154785269Y-114164943D01*
X154856325Y-114090610D01*
X154976609Y-113961439D01*
X155066772Y-113861335D01*
X155100177Y-113823334D01*
X150810241Y-116848162D02*
X150901398Y-116816570D01*
X146597716Y-117526294D02*
X146794753Y-117524545D01*
X146990266Y-117519441D01*
X147183983Y-117511190D01*
X147375636Y-117500004D01*
X147564956Y-117486091D01*
X147751672Y-117469664D01*
X147935516Y-117450931D01*
X148116219Y-117430102D01*
X148293510Y-117407389D01*
X148467121Y-117383001D01*
X148636783Y-117357148D01*
X148802225Y-117330041D01*
X148963178Y-117301890D01*
X149119374Y-117272904D01*
X149270543Y-117243295D01*
X149416415Y-117213272D01*
X149556721Y-117183046D01*
X149691192Y-117152826D01*
X149819558Y-117122824D01*
X149941551Y-117093248D01*
X150056900Y-117064310D01*
X150165336Y-117036219D01*
X150266590Y-117009186D01*
X150446475Y-116959133D01*
X150594399Y-116915833D01*
X150708208Y-116880967D01*
X150810241Y-116848162D01*
X146597475Y-117526294D02*
X146597716Y-117526294D01*
X143572630Y-117036621D02*
X143743479Y-117095681D01*
X143916906Y-117150972D01*
X144092879Y-117202488D01*
X144271365Y-117250223D01*
X144452333Y-117294172D01*
X144635749Y-117334331D01*
X144821581Y-117370694D01*
X145009797Y-117403256D01*
X145200365Y-117432011D01*
X145393253Y-117456956D01*
X145588428Y-117478083D01*
X145686862Y-117487214D01*
X145785857Y-117495389D01*
X145885407Y-117502608D01*
X145985508Y-117508869D01*
X146086158Y-117514172D01*
X146187350Y-117518516D01*
X146289082Y-117521901D01*
X146391350Y-117524326D01*
X146494148Y-117525790D01*
X146597475Y-117526294D01*
X143524812Y-117021850D02*
X143572630Y-117036621D01*
X137265367Y-115982876D02*
X137505028Y-115996862D01*
X137746587Y-116014055D01*
X137989571Y-116034256D01*
X138233504Y-116057260D01*
X138477914Y-116082868D01*
X138722325Y-116110878D01*
X138966265Y-116141087D01*
X139209258Y-116173296D01*
X139450831Y-116207301D01*
X139690511Y-116242901D01*
X139927822Y-116279896D01*
X140162290Y-116318083D01*
X140393443Y-116357261D01*
X140620805Y-116397228D01*
X140843904Y-116437783D01*
X141062264Y-116478724D01*
X141275411Y-116519849D01*
X141482872Y-116560958D01*
X141684173Y-116601849D01*
X141878840Y-116642319D01*
X142066398Y-116682168D01*
X142246374Y-116721194D01*
X142418293Y-116759196D01*
X142581682Y-116795971D01*
X142736066Y-116831319D01*
X142880972Y-116865037D01*
X143015925Y-116896925D01*
X143140451Y-116926781D01*
X143254077Y-116954402D01*
X143356329Y-116979589D01*
X143524812Y-117021850D01*
X137169394Y-115984050D02*
X137265367Y-115982876D01*
X131002656Y-117011376D02*
X131143742Y-116974329D01*
X131326976Y-116927707D01*
X131433757Y-116901203D01*
X131550307Y-116872784D01*
X131676368Y-116842609D01*
X131811684Y-116810837D01*
X131956000Y-116777628D01*
X132109057Y-116743142D01*
X132270602Y-116707538D01*
X132440376Y-116670975D01*
X132618124Y-116633613D01*
X132803589Y-116595611D01*
X132996515Y-116557129D01*
X133196645Y-116518327D01*
X133403724Y-116479364D01*
X133617495Y-116440399D01*
X133837701Y-116401592D01*
X134064087Y-116363103D01*
X134296396Y-116325090D01*
X134534371Y-116287714D01*
X134777756Y-116251134D01*
X135026296Y-116215509D01*
X135279733Y-116181000D01*
X135537811Y-116147765D01*
X135800275Y-116115963D01*
X136066867Y-116085756D01*
X136337331Y-116057301D01*
X136611411Y-116030759D01*
X136888851Y-116006288D01*
X137169394Y-115984050D01*
X130959997Y-117024934D02*
X131002656Y-117011376D01*
X127902285Y-117526294D02*
X128006844Y-117525799D01*
X128110866Y-117524317D01*
X128214346Y-117521848D01*
X128317280Y-117518392D01*
X128419663Y-117513951D01*
X128521491Y-117508526D01*
X128622759Y-117502118D01*
X128723464Y-117494727D01*
X128823601Y-117486354D01*
X128923165Y-117477001D01*
X129022153Y-117466667D01*
X129120559Y-117455355D01*
X129218381Y-117443065D01*
X129315612Y-117429798D01*
X129508289Y-117400336D01*
X129698554Y-117366976D01*
X129886374Y-117329726D01*
X130071714Y-117288592D01*
X130254539Y-117243583D01*
X130434814Y-117194706D01*
X130612505Y-117141967D01*
X130787578Y-117085373D01*
X130959997Y-117024934D01*
X123689881Y-116848162D02*
X123791916Y-116880967D01*
X123905729Y-116915833D01*
X124053658Y-116959133D01*
X124233548Y-117009186D01*
X124334805Y-117036219D01*
X124443244Y-117064310D01*
X124558595Y-117093248D01*
X124680589Y-117122824D01*
X124808957Y-117152826D01*
X124943429Y-117183046D01*
X125083736Y-117213272D01*
X125229607Y-117243295D01*
X125380775Y-117272904D01*
X125536969Y-117301890D01*
X125697919Y-117330041D01*
X125863357Y-117357148D01*
X126033013Y-117383001D01*
X126206618Y-117407389D01*
X126383902Y-117430102D01*
X126564595Y-117450931D01*
X126748429Y-117469664D01*
X126935133Y-117486091D01*
X127124438Y-117500004D01*
X127316076Y-117511190D01*
X127509776Y-117519441D01*
X127705268Y-117524545D01*
X127902285Y-117526294D01*
X123598362Y-116816570D02*
X123689881Y-116848162D01*
X119399824Y-113823092D02*
X119474426Y-113907285D01*
X119579765Y-114022390D01*
X119714619Y-114164724D01*
X119792734Y-114244950D01*
X119877770Y-114330602D01*
X119969574Y-114421219D01*
X120067995Y-114516340D01*
X120172879Y-114615506D01*
X120284075Y-114718254D01*
X120401429Y-114824126D01*
X120524789Y-114932660D01*
X120654002Y-115043397D01*
X120788916Y-115155874D01*
X120929378Y-115269633D01*
X121075236Y-115384212D01*
X121226338Y-115499150D01*
X121382529Y-115613988D01*
X121543659Y-115728265D01*
X121709574Y-115841521D01*
X121880122Y-115953294D01*
X122055151Y-116063124D01*
X122234507Y-116170552D01*
X122418038Y-116275115D01*
X122605592Y-116376355D01*
X122797016Y-116473809D01*
X122992158Y-116567018D01*
X123190864Y-116655522D01*
X123392983Y-116738859D01*
X123598362Y-116816570D01*
X119312404Y-113719154D02*
X119377601Y-113797457D01*
X119399824Y-113823092D01*
X117314180Y-105035584D02*
X117287114Y-105155195D01*
X117257605Y-105288753D01*
X117226476Y-105435841D01*
X117194546Y-105596045D01*
X117162639Y-105768948D01*
X117131577Y-105954136D01*
X117102180Y-106151191D01*
X117075271Y-106359700D01*
X117051671Y-106579245D01*
X117032202Y-106809412D01*
X117017687Y-107049785D01*
X117008947Y-107299949D01*
X117006803Y-107559487D01*
X117012077Y-107827984D01*
X117025592Y-108105025D01*
X117048169Y-108390194D01*
X117080629Y-108683075D01*
X117123795Y-108983252D01*
X117178489Y-109290311D01*
X117245531Y-109603835D01*
X117325744Y-109923410D01*
X117419951Y-110248618D01*
X117528971Y-110579045D01*
X117653628Y-110914275D01*
X117794743Y-111253893D01*
X117953138Y-111597482D01*
X118129634Y-111944628D01*
X118325054Y-112294914D01*
X118540219Y-112647925D01*
X118775951Y-113003246D01*
X119033072Y-113360461D01*
X119312404Y-113719154D01*
X117342395Y-104909459D02*
X117321024Y-105005544D01*
X117314180Y-105035584D01*
X117399429Y-104672764D02*
X117374385Y-104768443D01*
X117351898Y-104864769D01*
X117342395Y-104909459D01*
X118673222Y-101428326D02*
X118623217Y-101533343D01*
X118573669Y-101638352D01*
X118524597Y-101743329D01*
X118476023Y-101848252D01*
X118427966Y-101953098D01*
X118380446Y-102057846D01*
X118333484Y-102162471D01*
X118287099Y-102266953D01*
X118241311Y-102371267D01*
X118196142Y-102475393D01*
X118151610Y-102579307D01*
X118107736Y-102682987D01*
X118064540Y-102786410D01*
X118022043Y-102889554D01*
X117980264Y-102992397D01*
X117939223Y-103094915D01*
X117898941Y-103197087D01*
X117859438Y-103298889D01*
X117820734Y-103400300D01*
X117782848Y-103501297D01*
X117745802Y-103601857D01*
X117709615Y-103701958D01*
X117674307Y-103801577D01*
X117639899Y-103900692D01*
X117606410Y-103999281D01*
X117573861Y-104097320D01*
X117542272Y-104194788D01*
X117511663Y-104291661D01*
X117482054Y-104387918D01*
X117453465Y-104483536D01*
X117425916Y-104578492D01*
X117399429Y-104672764D01*
X118256044Y-100477593D02*
X118363791Y-100518598D01*
X118459732Y-100575593D01*
X118543037Y-100646489D01*
X118612877Y-100729198D01*
X118668424Y-100821631D01*
X118708851Y-100921702D01*
X118733327Y-101027322D01*
X118741024Y-101136402D01*
X118731115Y-101246856D01*
X118702769Y-101356595D01*
X118673222Y-101428326D01*
X112446071Y-96832278D02*
X112605780Y-96998849D01*
X112767396Y-97162250D01*
X112930871Y-97322456D01*
X113096154Y-97479445D01*
X113263195Y-97633195D01*
X113431944Y-97783683D01*
X113602353Y-97930886D01*
X113774370Y-98074783D01*
X113947946Y-98215350D01*
X114123032Y-98352565D01*
X114299577Y-98486406D01*
X114477533Y-98616849D01*
X114656848Y-98743873D01*
X114837474Y-98867454D01*
X115019360Y-98987570D01*
X115202457Y-99104200D01*
X115386714Y-99217319D01*
X115572083Y-99326906D01*
X115758514Y-99432938D01*
X115945955Y-99535392D01*
X116134359Y-99634247D01*
X116323675Y-99729478D01*
X116513853Y-99821065D01*
X116704844Y-99908984D01*
X116896597Y-99993213D01*
X117089063Y-100073728D01*
X117282192Y-100150509D01*
X117475935Y-100223532D01*
X117670241Y-100292774D01*
X117865061Y-100358213D01*
X118060345Y-100419827D01*
X118256044Y-100477593D01*
X109015979Y-90169360D02*
X109054101Y-90390304D01*
X109097091Y-90611227D01*
X109144906Y-90832047D01*
X109197505Y-91052684D01*
X109254847Y-91273059D01*
X109316891Y-91493093D01*
X109383597Y-91712704D01*
X109454923Y-91931814D01*
X109530828Y-92150341D01*
X109611271Y-92368208D01*
X109696211Y-92585333D01*
X109785607Y-92801637D01*
X109879418Y-93017039D01*
X109977603Y-93231461D01*
X110080120Y-93444822D01*
X110186930Y-93657043D01*
X110297990Y-93868043D01*
X110413259Y-94077742D01*
X110532698Y-94286062D01*
X110656264Y-94492921D01*
X110783917Y-94698240D01*
X110915615Y-94901940D01*
X111051317Y-95103940D01*
X111190983Y-95304160D01*
X111334572Y-95502521D01*
X111482042Y-95698943D01*
X111633352Y-95893345D01*
X111788461Y-96085649D01*
X111947329Y-96275774D01*
X112109914Y-96463640D01*
X112276175Y-96649168D01*
X112446071Y-96832278D01*
X111202305Y-82957448D02*
X111032164Y-83123545D01*
X110868217Y-83294700D01*
X110710503Y-83470790D01*
X110559059Y-83651691D01*
X110413921Y-83837281D01*
X110275128Y-84027435D01*
X110142716Y-84222030D01*
X110016724Y-84420943D01*
X109897188Y-84624050D01*
X109784147Y-84831229D01*
X109677637Y-85042355D01*
X109577695Y-85257305D01*
X109484361Y-85475956D01*
X109397670Y-85698184D01*
X109317660Y-85923867D01*
X109244369Y-86152880D01*
X109177833Y-86385100D01*
X109118092Y-86620404D01*
X109065181Y-86858669D01*
X109019138Y-87099770D01*
X108980002Y-87343585D01*
X108947808Y-87589990D01*
X108922595Y-87838863D01*
X108904400Y-88090078D01*
X108893260Y-88343514D01*
X108889214Y-88599046D01*
X108892297Y-88856552D01*
X108902548Y-89115907D01*
X108920005Y-89376989D01*
X108944703Y-89639674D01*
X108976682Y-89903839D01*
X109015979Y-90169360D01*
X116454577Y-80957295D02*
X116263084Y-80959318D01*
X116072997Y-80965381D01*
X115884351Y-80975469D01*
X115697182Y-80989569D01*
X115511526Y-81007666D01*
X115327420Y-81029748D01*
X115144899Y-81055800D01*
X114963999Y-81085808D01*
X114784755Y-81119760D01*
X114607205Y-81157641D01*
X114431385Y-81199438D01*
X114257329Y-81245137D01*
X114085074Y-81294724D01*
X113914657Y-81348185D01*
X113746112Y-81405508D01*
X113579477Y-81466678D01*
X113414786Y-81531681D01*
X113252077Y-81600504D01*
X113091384Y-81673133D01*
X112932745Y-81749555D01*
X112776194Y-81829756D01*
X112621769Y-81913721D01*
X112469504Y-82001439D01*
X112319437Y-82092893D01*
X112171602Y-82188072D01*
X112026036Y-82286961D01*
X111882775Y-82389547D01*
X111741855Y-82495816D01*
X111603312Y-82605754D01*
X111467182Y-82719348D01*
X111333501Y-82836584D01*
X111202305Y-82957448D01*
X119362507Y-81407404D02*
X119181744Y-81353728D01*
X119000671Y-81303355D01*
X118819325Y-81256307D01*
X118637746Y-81212605D01*
X118455972Y-81172273D01*
X118274040Y-81135331D01*
X118091991Y-81101803D01*
X117909862Y-81071710D01*
X117727691Y-81045075D01*
X117545518Y-81021919D01*
X117363380Y-81002265D01*
X117181317Y-80986134D01*
X116999366Y-80973550D01*
X116817567Y-80964534D01*
X116635958Y-80959108D01*
X116454577Y-80957295D01*
X120244267Y-80610622D02*
X120261615Y-80753349D01*
X120249768Y-80889275D01*
X120211669Y-81015881D01*
X120150260Y-81130649D01*
X120068487Y-81231063D01*
X119969291Y-81314604D01*
X119855617Y-81378756D01*
X119730407Y-81421000D01*
X119596606Y-81438819D01*
X119457157Y-81429697D01*
X119362507Y-81407404D01*
X120173696Y-80283141D02*
X120195045Y-80385851D01*
X120217037Y-80488223D01*
X120239665Y-80590256D01*
X120244267Y-80610622D01*
X127265872Y-66236367D02*
X126769759Y-66353873D01*
X126287228Y-66500292D01*
X125818691Y-66674805D01*
X125364563Y-66876596D01*
X124925254Y-67104847D01*
X124501178Y-67358741D01*
X124092747Y-67637460D01*
X123700374Y-67940188D01*
X123324472Y-68266106D01*
X122965453Y-68614399D01*
X122623729Y-68984247D01*
X122299715Y-69374835D01*
X121993821Y-69785345D01*
X121706462Y-70214958D01*
X121438049Y-70662859D01*
X121188995Y-71128230D01*
X120959713Y-71610254D01*
X120750615Y-72108112D01*
X120562114Y-72620989D01*
X120394623Y-73148066D01*
X120248555Y-73688526D01*
X120124321Y-74241553D01*
X120022335Y-74806328D01*
X119943010Y-75382034D01*
X119886757Y-75967855D01*
X119853991Y-76562972D01*
X119845122Y-77166569D01*
X119860564Y-77777828D01*
X119900730Y-78395932D01*
X119966032Y-79020064D01*
X120056883Y-79649406D01*
X120173696Y-80283141D01*
X128874870Y-66073707D02*
X128773681Y-66074346D01*
X128672474Y-66076265D01*
X128571271Y-66079459D01*
X128470094Y-66083929D01*
X128368964Y-66089672D01*
X128267903Y-66096687D01*
X128166933Y-66104970D01*
X128066075Y-66114522D01*
X127965352Y-66125340D01*
X127864784Y-66137422D01*
X127764395Y-66150767D01*
X127664204Y-66165372D01*
X127564235Y-66181237D01*
X127464509Y-66198358D01*
X127365047Y-66216736D01*
X127265872Y-66236367D01*
X136706025Y-70451859D02*
X136515720Y-70201564D01*
X136320706Y-69957400D01*
X136121103Y-69719486D01*
X135917032Y-69487941D01*
X135708610Y-69262884D01*
X135495959Y-69044434D01*
X135279199Y-68832709D01*
X135058448Y-68627830D01*
X134833827Y-68429915D01*
X134605456Y-68239083D01*
X134373453Y-68055453D01*
X134137940Y-67879144D01*
X133899036Y-67710275D01*
X133656861Y-67548966D01*
X133411534Y-67395335D01*
X133163175Y-67249501D01*
X132911905Y-67111583D01*
X132657842Y-66981700D01*
X132401107Y-66859972D01*
X132141819Y-66746517D01*
X131880099Y-66641455D01*
X131616065Y-66544904D01*
X131349838Y-66456983D01*
X131081538Y-66377812D01*
X130811285Y-66307509D01*
X130539197Y-66246194D01*
X130265395Y-66193986D01*
X129990000Y-66151003D01*
X129713129Y-66117364D01*
X129434904Y-66093189D01*
X129155444Y-66078597D01*
X128874870Y-66073707D01*
X137793784Y-70451853D02*
X137711214Y-70544240D01*
X137616598Y-70617513D01*
X137512716Y-70671672D01*
X137402348Y-70706716D01*
X137288274Y-70722645D01*
X137173272Y-70719460D01*
X137060124Y-70697161D01*
X136951609Y-70655746D01*
X136850506Y-70595217D01*
X136759596Y-70515574D01*
X136706025Y-70451859D01*
X145624890Y-66073707D02*
X145344315Y-66078597D01*
X145064855Y-66093189D01*
X144786630Y-66117364D01*
X144509760Y-66151003D01*
X144234364Y-66193986D01*
X143960563Y-66246195D01*
X143688475Y-66307510D01*
X143418222Y-66377813D01*
X143149922Y-66456984D01*
X142883695Y-66544905D01*
X142619662Y-66641457D01*
X142357942Y-66746519D01*
X142098655Y-66859974D01*
X141841920Y-66981702D01*
X141587858Y-67111585D01*
X141336588Y-67249503D01*
X141088231Y-67395337D01*
X140842905Y-67548968D01*
X140600731Y-67710278D01*
X140361828Y-67879146D01*
X140126317Y-68055455D01*
X139894317Y-68239085D01*
X139665948Y-68429916D01*
X139441329Y-68627831D01*
X139220581Y-68832710D01*
X139003823Y-69044433D01*
X138791176Y-69262883D01*
X138582758Y-69487939D01*
X138378691Y-69719483D01*
X138179092Y-69957396D01*
X137984083Y-70201559D01*
X137793784Y-70451853D01*
X147233887Y-66236247D02*
X147134752Y-66216637D01*
X147035324Y-66198278D01*
X146935623Y-66181172D01*
X146835673Y-66165322D01*
X146735495Y-66150728D01*
X146635112Y-66137393D01*
X146534546Y-66125319D01*
X146433819Y-66114507D01*
X146332954Y-66104960D01*
X146231972Y-66096680D01*
X146130897Y-66089669D01*
X146029750Y-66083927D01*
X145928553Y-66079459D01*
X145827329Y-66076264D01*
X145726101Y-66074346D01*
X145624890Y-66073707D01*
X154326305Y-80283021D02*
X154443095Y-79649286D01*
X154533925Y-79019944D01*
X154599208Y-78395812D01*
X154639356Y-77777708D01*
X154654781Y-77166449D01*
X154645897Y-76562852D01*
X154613116Y-75967734D01*
X154556850Y-75381914D01*
X154477512Y-74806207D01*
X154375515Y-74241432D01*
X154251272Y-73688406D01*
X154105194Y-73147945D01*
X153937694Y-72620868D01*
X153749186Y-72107991D01*
X153540082Y-71610133D01*
X153310794Y-71128110D01*
X153061734Y-70662739D01*
X152793316Y-70214838D01*
X152505953Y-69785224D01*
X152200056Y-69374714D01*
X151876038Y-68984127D01*
X151534313Y-68614278D01*
X151175292Y-68265986D01*
X150799388Y-67940067D01*
X150407014Y-67637340D01*
X149998582Y-67358620D01*
X149574505Y-67104726D01*
X149135196Y-66876475D01*
X148681067Y-66674685D01*
X148212530Y-66500171D01*
X147729999Y-66353753D01*
X147233887Y-66236247D01*
X154255699Y-80610606D02*
X154278464Y-80508609D01*
X154300595Y-80406272D01*
X154322084Y-80303596D01*
X154326305Y-80283021D01*
X155137462Y-81407408D02*
X154995879Y-81435892D01*
X154857982Y-81435754D01*
X154726715Y-81409512D01*
X154605022Y-81359684D01*
X154495845Y-81288787D01*
X154402128Y-81199339D01*
X154326816Y-81093858D01*
X154272851Y-80974861D01*
X154243178Y-80844866D01*
X154240740Y-80706390D01*
X154255699Y-80610606D01*
X158045423Y-80957295D02*
X157864040Y-80959108D01*
X157682429Y-80964534D01*
X157500628Y-80973550D01*
X157318675Y-80986134D01*
X157136610Y-81002264D01*
X156954471Y-81021918D01*
X156772295Y-81045074D01*
X156590122Y-81071709D01*
X156407991Y-81101802D01*
X156225939Y-81135330D01*
X156044006Y-81172272D01*
X155862229Y-81212605D01*
X155680648Y-81256307D01*
X155499300Y-81303357D01*
X155318226Y-81353731D01*
X155137462Y-81407408D01*
X163297816Y-82957448D02*
X163166608Y-82836584D01*
X163032918Y-82719348D01*
X162896780Y-82605754D01*
X162758230Y-82495816D01*
X162617304Y-82389547D01*
X162474038Y-82286961D01*
X162328468Y-82188072D01*
X162180631Y-82092893D01*
X162030560Y-82001439D01*
X161878294Y-81913721D01*
X161723867Y-81829756D01*
X161567316Y-81749555D01*
X161408676Y-81673133D01*
X161247983Y-81600504D01*
X161085274Y-81531681D01*
X160920583Y-81466678D01*
X160753947Y-81405508D01*
X160585403Y-81348185D01*
X160414985Y-81294724D01*
X160242730Y-81245137D01*
X160068673Y-81199438D01*
X159892851Y-81157641D01*
X159715299Y-81119760D01*
X159536053Y-81085808D01*
X159355150Y-81055800D01*
X159172625Y-81029748D01*
X158988513Y-81007666D01*
X158802852Y-80989569D01*
X158615676Y-80975469D01*
X158427022Y-80965381D01*
X158236926Y-80959318D01*
X158045423Y-80957295D01*
D11*
%TO.C,D2*%
X136000000Y-113750000D03*
D12*
X136000000Y-103590000D03*
%TD*%
D13*
%TO.C,J7*%
X149450000Y-83450000D03*
X146910000Y-83450000D03*
%TD*%
%TO.C,J1*%
X122150000Y-109850000D03*
X127650000Y-109850000D03*
%TD*%
M02*
