%TF.GenerationSoftware,KiCad,Pcbnew,(6.0.2-0)*%
%TF.CreationDate,2022-04-10T13:17:11+03:00*%
%TF.ProjectId,power_convert,706f7765-725f-4636-9f6e-766572742e6b,rev?*%
%TF.SameCoordinates,Original*%
%TF.FileFunction,Plated,1,2,PTH,Drill*%
%TF.FilePolarity,Positive*%
%FSLAX46Y46*%
G04 Gerber Fmt 4.6, Leading zero omitted, Abs format (unit mm)*
G04 Created by KiCad (PCBNEW (6.0.2-0)) date 2022-04-10 13:17:11*
%MOMM*%
%LPD*%
G01*
G04 APERTURE LIST*
%TA.AperFunction,ComponentDrill*%
%ADD10C,1.100000*%
%TD*%
%TA.AperFunction,ComponentDrill*%
%ADD11C,1.400000*%
%TD*%
%TA.AperFunction,ComponentDrill*%
%ADD12C,2.000000*%
%TD*%
G04 APERTURE END LIST*
D10*
%TO.C,D1*%
X144050000Y-72190000D03*
X144050000Y-82350000D03*
D11*
%TO.C,J2*%
X130800000Y-84600000D03*
X130800000Y-88100000D03*
D12*
%TO.C,J1*%
X130050000Y-76400000D03*
X135550000Y-76400000D03*
M02*
