%TF.GenerationSoftware,KiCad,Pcbnew,(6.0.2-0)*%
%TF.CreationDate,2022-05-18T17:31:02+03:00*%
%TF.ProjectId,stepperMotor_412_reg_LM2940,73746570-7065-4724-9d6f-746f725f3431,rev?*%
%TF.SameCoordinates,Original*%
%TF.FileFunction,Plated,1,2,PTH,Drill*%
%TF.FilePolarity,Positive*%
%FSLAX46Y46*%
G04 Gerber Fmt 4.6, Leading zero omitted, Abs format (unit mm)*
G04 Created by KiCad (PCBNEW (6.0.2-0)) date 2022-05-18 17:31:02*
%MOMM*%
%LPD*%
G01*
G04 APERTURE LIST*
%TA.AperFunction,ComponentDrill*%
%ADD10C,1.400000*%
%TD*%
%TA.AperFunction,ComponentDrill*%
%ADD11C,1.500000*%
%TD*%
%TA.AperFunction,ComponentDrill*%
%ADD12C,2.500000*%
%TD*%
G04 APERTURE END LIST*
D10*
%TO.C,J7*%
X138900000Y-87025000D03*
X141440000Y-87025000D03*
X143980000Y-87025000D03*
X146520000Y-87025000D03*
%TO.C,J1*%
X170975000Y-86500000D03*
X174475000Y-86500000D03*
%TO.C,C3*%
X175700000Y-97232379D03*
X175700000Y-100232379D03*
D11*
%TO.C,J6*%
X138775000Y-92175000D03*
X138775000Y-94715000D03*
X138775000Y-97255000D03*
X138775000Y-99795000D03*
X138775000Y-102335000D03*
X138775000Y-104875000D03*
X138775000Y-107415000D03*
X138775000Y-109955000D03*
X151475000Y-92175000D03*
X151475000Y-94715000D03*
X151475000Y-97255000D03*
X151475000Y-99795000D03*
X151475000Y-102335000D03*
X151475000Y-104875000D03*
X151475000Y-107415000D03*
X151475000Y-109955000D03*
D12*
%TO.C,REF\u002A\u002A*%
X131800000Y-85775000D03*
X132175000Y-115800000D03*
X176200000Y-116150000D03*
M02*
