%TF.GenerationSoftware,KiCad,Pcbnew,(6.0.2-0)*%
%TF.CreationDate,2022-05-18T17:31:06+03:00*%
%TF.ProjectId,stepperMotor_412_reg_LM2940,73746570-7065-4724-9d6f-746f725f3431,rev?*%
%TF.SameCoordinates,Original*%
%TF.FileFunction,Profile,NP*%
%FSLAX46Y46*%
G04 Gerber Fmt 4.6, Leading zero omitted, Abs format (unit mm)*
G04 Created by KiCad (PCBNEW (6.0.2-0)) date 2022-05-18 17:31:06*
%MOMM*%
%LPD*%
G01*
G04 APERTURE LIST*
%TA.AperFunction,Profile*%
%ADD10C,0.100000*%
%TD*%
G04 APERTURE END LIST*
D10*
X131700610Y-82700610D02*
G75*
G03*
X128800610Y-85600610I-1J-2899999D01*
G01*
X179649390Y-85625610D02*
G75*
G03*
X176749390Y-82725610I-2899999J1D01*
G01*
X131700610Y-82700610D02*
X176749390Y-82725610D01*
X128800610Y-85600610D02*
X128800610Y-116274390D01*
X128800610Y-116274390D02*
G75*
G03*
X131700610Y-119174390I2899999J-1D01*
G01*
X176749390Y-119074390D02*
G75*
G03*
X179649390Y-116174390I1J2899999D01*
G01*
X131700610Y-119174390D02*
X176749390Y-119074390D01*
X179649390Y-116174390D02*
X179649390Y-85625610D01*
M02*
