(kicad_pcb (version 20211014) (generator pcbnew)

  (general
    (thickness 1.6)
  )

  (paper "A4")
  (layers
    (0 "F.Cu" signal)
    (31 "B.Cu" signal)
    (32 "B.Adhes" user "B.Adhesive")
    (33 "F.Adhes" user "F.Adhesive")
    (34 "B.Paste" user)
    (35 "F.Paste" user)
    (36 "B.SilkS" user "B.Silkscreen")
    (37 "F.SilkS" user "F.Silkscreen")
    (38 "B.Mask" user)
    (39 "F.Mask" user)
    (40 "Dwgs.User" user "User.Drawings")
    (41 "Cmts.User" user "User.Comments")
    (42 "Eco1.User" user "User.Eco1")
    (43 "Eco2.User" user "User.Eco2")
    (44 "Edge.Cuts" user)
    (45 "Margin" user)
    (46 "B.CrtYd" user "B.Courtyard")
    (47 "F.CrtYd" user "F.Courtyard")
    (48 "B.Fab" user)
    (49 "F.Fab" user)
    (50 "User.1" user)
    (51 "User.2" user)
    (52 "User.3" user)
    (53 "User.4" user)
    (54 "User.5" user)
    (55 "User.6" user)
    (56 "User.7" user)
    (57 "User.8" user)
    (58 "User.9" user)
  )

  (setup
    (stackup
      (layer "F.SilkS" (type "Top Silk Screen"))
      (layer "F.Paste" (type "Top Solder Paste"))
      (layer "F.Mask" (type "Top Solder Mask") (thickness 0.01))
      (layer "F.Cu" (type "copper") (thickness 0.035))
      (layer "dielectric 1" (type "core") (thickness 1.51) (material "FR4") (epsilon_r 4.5) (loss_tangent 0.02))
      (layer "B.Cu" (type "copper") (thickness 0.035))
      (layer "B.Mask" (type "Bottom Solder Mask") (thickness 0.01))
      (layer "B.Paste" (type "Bottom Solder Paste"))
      (layer "B.SilkS" (type "Bottom Silk Screen"))
      (copper_finish "None")
      (dielectric_constraints no)
    )
    (pad_to_mask_clearance 0)
    (pcbplotparams
      (layerselection 0x00010c0_ffffffff)
      (disableapertmacros false)
      (usegerberextensions false)
      (usegerberattributes true)
      (usegerberadvancedattributes true)
      (creategerberjobfile false)
      (svguseinch false)
      (svgprecision 6)
      (excludeedgelayer false)
      (plotframeref false)
      (viasonmask false)
      (mode 1)
      (useauxorigin false)
      (hpglpennumber 1)
      (hpglpenspeed 20)
      (hpglpendiameter 15.000000)
      (dxfpolygonmode true)
      (dxfimperialunits true)
      (dxfusepcbnewfont true)
      (psnegative false)
      (psa4output false)
      (plotreference false)
      (plotvalue false)
      (plotinvisibletext false)
      (sketchpadsonfab false)
      (subtractmaskfromsilk false)
      (outputformat 1)
      (mirror false)
      (drillshape 0)
      (scaleselection 1)
      (outputdirectory "gerber/")
    )
  )

  (net 0 "")
  (net 1 "GND")
  (net 2 "HIGH_v")
  (net 3 "+5V")
  (net 4 "+12V")
  (net 5 "Net-(D2-Pad1)")

  (footprint "fab:CUIDevices_PJ1-023-SMT-TR_PWRJack_0.7x2.35mm" (layer "F.Cu")
    (tedit 6243176B) (tstamp 07daef97-2d57-4449-abeb-1dda2ff7c5d5)
    (at 127.05 76.4)
    (descr "Power Barrel Connector Jack 2.00mm ID (0.079\"), 5.50mm OD (0.217\") Surface Mount")
    (tags "power barrel connector jack surface mount smd smt")
    (property "Sheetfile" "power_convert.kicad_sch")
    (property "Sheetname" "")
    (path "/f61a4f90-08dc-4b25-b215-14b407d68a03")
    (attr smd)
    (fp_text reference "J1" (at 6 1.5 180) (layer "F.SilkS")
      (effects (font (size 1 1) (thickness 0.15)))
      (tstamp cd40ecf7-bc94-4611-8e59-150658dc16d6)
    )
    (fp_text value "Conn_PWRJack_0.7x2.35mm_CUIDevices_PJ1-023-SMT-TR" (at 6.5 7 180) (layer "F.Fab")
      (effects (font (size 1 1) (thickness 0.15)))
      (tstamp a90862e3-9f6b-4675-936a-3fe87ae335b7)
    )
    (fp_text user "${REFERENCE}" (at 6 -1.5 180) (layer "F.Fab")
      (effects (font (size 1 1) (thickness 0.15)))
      (tstamp 28fcc385-bda1-4e7a-ba2e-c1874b5a9c53)
    )
    (fp_line (start 6 -2.8) (end 8 -2.8) (layer "F.SilkS") (width 0.12) (tstamp 37feef6b-2bae-4643-9225-2c3917f5848e))
    (fp_line (start 2 3.2) (end 2.5 3.2) (layer "F.SilkS") (width 0.12) (tstamp 3e4c0219-d6c1-481a-93d3-e575229563fa))
    (fp_line (start 2.84 -4.8) (end 1.5 -4.8) (layer "F.SilkS") (width 0.12) (tstamp 5ddc23a5-9a53-4a29-9252-6c2d93763d76))
    (fp_line (start 0 -2.8) (end 1.5 -2.8) (layer "F.SilkS") (width 0.12) (tstamp 6b7c39c4-b58d-4f33-a800-914e11bd967e))
    (fp_line (start 1.5 -4.8) (end 1.5 -3.4) (layer "F.SilkS") (width 0.12) (tstamp 7b090bea-b520-4d73-a60e-7c4f22b6d806))
    (fp_line (start 11 1.5) (end 11 2.8) (layer "F.SilkS") (width 0.12) (tstamp b1fe00e3-dd31-4e44-a04f-c376f318b231))
    (fp_line (start 2 3.2) (end 2 2.8) (layer "F.SilkS") (width 0.12) (tstamp ca951000-af8c-4a48-87c2-f5738f778fc5))
    (fp_line (start 0 2.8) (end 0 -2.8) (layer "F.SilkS") (width 0.12) (tstamp ded02a38-2f6a-457a-af9d-b8270ec98f5f))
    (fp_line (start 0 2.8) (end 2 2.8) (layer "F.SilkS") (width 0.12) (tstamp ee1cd02d-35bd-4dff-ad1a-9a61d7e08083))
    (fp_line (start -0.3 5.3) (end -0.3 -5.3) (layer "F.CrtYd") (width 0.05) (tstamp 2c7d0335-449a-4b3c-a4b2-d44dc6ec4441))
    (fp_line (start -0.3 -5.3) (end 13.5 -5.3) (layer "F.CrtYd") (width 0.05) (tstamp 32c31d22-fd76-4575-8d52-fc27a47bbb16))
    (fp_line (start -0.3 5.3) (end 13.5 5.3) (layer "F.CrtYd") (width 0.05) (tstamp 4f8e66ee-4754-4464-b05a-f6d4f7ca45b0))
    (fp_line (start 13.5 5.3) (end 13.5 -5.3) (layer "F.CrtYd") (width 0.05) (tstamp ac5e78a9-79e3-4092-8e4f-69b34ed13ffd))
    (fp_line (start 0 2.8) (end 0 -2.8) (layer "F.Fab") (width 0.1) (tstamp 11f0237d-e65a-4e67-9b01-6a731f32f23e))
    (fp_line (start 11 -2.8) (end 11 2.8) (layer "F.Fab") (width 0.12) (tstamp 3014195f-f219-483f-9d29-619926df1b76))
    (fp_line (start 11 2.8) (end 5.6 2.8) (layer "F.Fab") (width 0.12) (tstamp 4e49491b-cadb-4a6a-8193-87f43b92e3ee))
    (fp_line (start 2.1 -3.1) (end 6 -3.1) (layer "F.Fab") (width 0.12) (tstamp 5a15c281-9769-4dae-ab2c-89c192098880))
    (fp_line (start 6 -3.1) (end 6 -2.8) (layer "F.Fab") (width 0.12) (tstamp 5ba07144-49d7-4973-9b4f-31cfa7998262))
    (fp_line (start 2 2.8) (end 0 2.8) (layer "F.Fab") (width 0.12) (tstamp 6759790b-782c-4b4b-83e8-d21a97a8eb5e))
    (fp_line (start 6 -2.8) (end 11 -2.8) (layer "F.Fab") (width 0.12) (tstamp 7fbba219-c87a-4e95-a235-4416aa1d3313))
    (fp_line (start 5.6 2.8) (end 5.6 3.2) (layer "F.Fab") (width 0.12) (tstamp 9cd0644e-bf64-41cf-a1a1-1f4b57443eb3))
    (fp_line (start 2 3.2) (end 2 2.8) (layer "F.Fab") (width 0.12) (tstamp e60f47d4-d187-4e53-ab20-bf9f10016893))
    (fp_line (start 0 -2.8) (end 2.1 -2.8) (layer "F.Fab") (width 0.12) (tstamp f5af65d8-c2f8-4636-abac-66da451ce885))
    (fp_line (start 2.1 -2.8) (end 2.1 -3.1) (layer "F.Fab") (width 0.12) (tstamp fb0d1b36-e7f5-4e8e-a017-6a4cb7512bd3))
    (fp_line (start 5.6 3.2) (end 2 3.2) (layer "F.Fab") (width 0.12) (tstamp fe13d480-715d-41ba-878c-4e21a155165a))
    (pad "" thru_hole circle (at 8.5 0 90) (size 2.1 2.1) (drill 2) (layers *.Cu *.Mask) (tstamp 20db3541-eae3-4f8b-ba61-c69d0678d050))
    (pad "" thru_hole circle (at 3 0 90) (size 2.1 2.1) (drill 2) (layers *.Cu *.Mask) (tstamp 2dd2ffb5-5b4b-42fa-9f13-6022b75a79d9))
    (pad "1" smd rect (at 12 0) (size 2.5 2.5) (layers "F.Cu" "F.Paste" "F.Mask")
      (net 4 "+12V") (pintype "passive") (tstamp c8081cfb-e270-4de1-89ba-721cf9e5f25e))
    (pad "2" smd rect (at 4.5 3.55) (size 3.5 2) (layers "F.Cu" "F.Paste" "F.Mask")
      (net 1 "GND") (pintype "passive") (tstamp 9956d780-e5b2-43fb-a9c9-f31f1030f762))
    (pad "2" smd rect (at 9 3.65) (size 3.5 2.8) (layers "F.Cu" "F.Paste" "F.Mask")
      (net 1 "GND") (pintype "passive") (tstamp da89eae8-cf86-4f95-a602-7239180c0caa))
    (pad "3" smd rect (at 3.5 -3.55) (size 3.5 2) (layers "F.Cu" "F.Paste" "F.Mask")
      (net 1 "GND") (pintype "passive") (tstamp 3b3bba7a-7b42-4f53-95ae-4057c5d4dbcc))
    (pad "3" smd rect (at 10 -3.65) (size 3.5 2.8) (layers "F.Cu" "F.Paste" "F.Mask")
      (net 1 "GND") (pintype "passive") (tstamp 5cced5a0-b598-419e-8ab1-fd6383106db4))
    (model "${KISYS3DMOD}/Connector_BarrelJack.3dshapes/BarrelJack_CLIFF_FC681465S_SMT_Horizontal.wrl"
      (offset (xyz 0 0 0))
      (scale (xyz 1 1 1))
      (rotate (xyz 0 0 0))
    )
  )

  (footprint "fab:PinHeader_2x03_P2.54mm_Vertical_SMD" (layer "F.Cu")
    (tedit 608517EB) (tstamp 4ea50793-5e67-4196-82c4-2e9287a93f4a)
    (at 155.75 87.95 -90)
    (descr "surface-mounted straight pin header, 2x03, 2.54mm pitch, double rows")
    (tags "Surface mounted pin header SMD 2x03 2.54mm double row")
    (property "Sheetfile" "power_convert.kicad_sch")
    (property "Sheetname" "")
    (path "/9cec1282-c5b2-440f-9d19-8dbcfd4706d9")
    (attr smd)
    (fp_text reference "J4" (at 0 -4.87 90) (layer "F.SilkS")
      (effects (font (size 1 1) (thickness 0.15)))
      (tstamp 21a59c98-cd63-4afd-bf96-a486494f520e)
    )
    (fp_text value "Conn_PinHeader_2x03_P2.54mm_Vertical_SMD" (at 0 4.87 90) (layer "F.Fab")
      (effects (font (size 1 1) (thickness 0.15)))
      (tstamp e3d4b22f-12ed-45f3-a558-73ba5a9e786c)
    )
    (fp_text user "${REFERENCE}" (at 0 0) (layer "F.Fab")
      (effects (font (size 1 1) (thickness 0.15)))
      (tstamp 5e951365-d6e6-41d5-8048-2176e8f17d1c)
    )
    (fp_line (start -2.6 3.87) (end 2.6 3.87) (layer "F.SilkS") (width 0.12) (tstamp 36d959f6-3b3a-4b07-8a65-b8f6d21a3aef))
    (fp_line (start 2.6 0.76) (end 2.6 1.78) (layer "F.SilkS") (width 0.12) (tstamp 3c904470-f690-4722-aebc-f9227952f683))
    (fp_line (start 2.6 -3.87) (end 2.6 -3.3) (layer "F.SilkS") (width 0.12) (tstamp 57020dd5-f618-4116-a7a8-0ee9128beb55))
    (fp_line (start 2.6 -1.78) (end 2.6 -0.76) (layer "F.SilkS") (width 0.12) (tstamp 6555736a-d169-4806-aa2d-2d2429da4f85))
    (fp_line (start -2.6 -3.87) (end -2.6 -3.3) (layer "F.SilkS") (width 0.12) (tstamp 7407819b-2507-414e-9190-f8e4a0c236df))
    (fp_line (start -2.6 0.76) (end -2.6 1.78) (layer "F.SilkS") (width 0.12) (tstamp 8bf01b43-0773-4e55-93d8-6d431a4c5c54))
    (fp_line (start -2.6 -3.87) (end 2.6 -3.87) (layer "F.SilkS") (width 0.12) (tstamp a0214c60-9f67-4cb0-b843-1cfe88fc34dc))
    (fp_line (start -4.04 -3.3) (end -2.6 -3.3) (layer "F.SilkS") (width 0.12) (tstamp bba5a7bd-d6b3-417b-a37a-0887770872b6))
    (fp_line (start 2.6 3.3) (end 2.6 3.87) (layer "F.SilkS") (width 0.12) (tstamp d153905c-ec01-451b-bbe9-565425876164))
    (fp_line (start -2.6 3.3) (end -2.6 3.87) (layer "F.SilkS") (width 0.12) (tstamp dafa6780-ea2d-4e5e-a2f1-495d54d5554d))
    (fp_line (start -2.6 -1.78) (end -2.6 -0.76) (layer "F.SilkS") (width 0.12) (tstamp dd741d73-3224-470b-88ef-e9dfc434db51))
    (fp_line (start -5.9 -4.35) (end -5.9 4.35) (layer "F.CrtYd") (width 0.05) (tstamp 12286d6f-c9e6-474e-944d-ee001def9175))
    (fp_line (start 5.9 -4.35) (end -5.9 -4.35) (layer "F.CrtYd") (width 0.05) (tstamp 2c76061a-b820-4e33-8239-af1ba02edf45))
    (fp_line (start 5.9 4.35) (end 5.9 -4.35) (layer "F.CrtYd") (width 0.05) (tstamp c245e1bd-328b-4c6a-ab9a-31879964ca99))
    (fp_line (start -5.9 4.35) (end 5.9 4.35) (layer "F.CrtYd") (width 0.05) (tstamp d205e450-0e7b-48d4-b90e-67c8c305db00))
    (fp_line (start 3.6 -0.32) (end 3.6 0.32) (layer "F.Fab") (width 0.1) (tstamp 02262e3c-f7a1-4f3c-9f46-39eb05f8f1ee))
    (fp_line (start 2.54 2.22) (end 3.6 2.22) (layer "F.Fab") (width 0.1) (tstamp 11e38c80-4f9c-40d4-8332-655a163d6835))
    (fp_line (start -3.6 -0.32) (end -3.6 0.32) (layer "F.Fab") (width 0.1) (tstamp 13a44f30-8b61-464a-b120-eb640eaf3918))
    (fp_line (start -2.54 -2.86) (end -3.6 -2.86) (layer "F.Fab") (width 0.1) (tstamp 241eb003-04e1-4ab9-aa47-fd5d2952dba7))
    (fp_line (start 3.6 2.86) (end 2.54 2.86) (layer "F.Fab") (width 0.1) (tstamp 289e57a7-0c3c-417a-bf35-ef2a6930a7cc))
    (fp_line (start -2.54 3.81) (end -2.54 -2.86) (layer "F.Fab") (width 0.1) (tstamp 4c2d7c36-10d1-4e79-af6e-19e197a31d0f))
    (fp_line (start -3.6 2.22) (end -3.6 2.86) (layer "F.Fab") (width 0.1) (tstamp 560d0928-3e81-4d03-a7fe-c000136d5aa4))
    (fp_line (start -2.54 -2.86) (end -1.59 -3.81) (layer "F.Fab") (width 0.1) (tstamp 5ea30ee9-1ba3-42f5-a6f7-92af0983455c))
    (fp_line (start 2.54 -0.32) (end 3.6 -0.32) (layer "F.Fab") (width 0.1) (tstamp 65533a9f-cb8c-4f81-8de6-1bbb0df3d781))
    (fp_line (start 2.54 -3.81) (end 2.54 3.81) (layer "F.Fab") (width 0.1) (tstamp 7684fa09-2a7c-42d1-920b-5fcaf7a11faf))
    (fp_line (start -3.6 -2.86) (end -3.6 -2.22) (layer "F.Fab") (width 0.1) (tstamp 7a9b111b-3a38-4126-8ec7-bbfbf42e1549))
    (fp_line (start -1.59 -3.81) (end 2.54 -3.81) (layer "F.Fab") (width 0.1) (tstamp 7d428381-bfe6-4c29-98e4-d4a5bc3a9276))
    (fp_line (start 2.54 -2.86) (end 3.6 -2.86) (layer "F.Fab") (width 0.1) (tstamp 8a3c7289-08d7-4b9d-a825-621b0f9bb989))
    (fp_line (start -2.54 2.22) (end -3.6 2.22) (layer "F.Fab") (width 0.1) (tstamp 9216b903-d8b1-4bac-b81e-c59b5d449ba1))
    (fp_line (start 3.6 -2.22) (end 2.54 -2.22) (layer "F.Fab") (width 0.1) (tstamp 923d8629-7d4c-4974-8e57-af2c9f22d015))
    (fp_line (start -3.6 0.32) (end -2.54 0.32) (layer "F.Fab") (width 0.1) (tstamp 98df781a-6ce2-44aa-8467-439933b80e71))
    (fp_line (start 3.6 0.32) (end 2.54 0.32) (layer "F.Fab") (width 0.1) (tstamp 9b0c7541-2ee6-4b1b-9041-69720f8dfb7a))
    (fp_line (start -2.54 -0.32) (end -3.6 -0.32) (layer "F.Fab") (width 0.1) (tstamp a736275a-b765-410a-ad99-d0b7f0a8c49c))
    (fp_line (start -3.6 2.86) (end -2.54 2.86) (layer "F.Fab") (width 0.1) (tstamp b7344419-3ad6-4dc3-ae34-7d54f87022fc))
    (fp_line (start 3.6 -2.86) (end 3.6 -2.22) (layer "F.Fab") (width 0.1) (tstamp c71c4282-bd6a-4aca-8f35-fb4c609834fb))
    (fp_line (start 2.54 3.81) (end -2.54 3.81) (layer "F.Fab") (width 0.1) (tstamp c78a07bb-573d-4048-aaa8-5cd15179ee8b))
    (fp_line (start 3.6 2.22) (end 3.6 2.86) (layer "F.Fab") (width 0.1) (tstamp d7870493-e474-4de7-861e-b2136f69a8a4))
    (fp_line (start -3.6 -2.22) (end -2.54 -2.22) (layer "F.Fab") (width 0.1) (tstamp fee7027d-5a8e-4abe-8294-84cbb8ca8a5c))
    (pad "1" smd rect locked (at -2.525 -2.54 270) (size 3.15 1) (layers "F.Cu" "F.Paste" "F.Mask")
      (net 1 "GND") (pinfunction "Pin_1") (pintype "passive") (tstamp 130ec25f-3c8e-4cf5-9cc5-fd4980a8479b))
    (pad "2" smd rect locked (at 2.525 -2.54 270) (size 3.15 1) (layers "F.Cu" "F.Paste" "F.Mask")
      (net 3 "+5V") (pinfunction "Pin_2") (pintype "passive") (tstamp fc47ce10-b843-4b48-8020-9d7b8f8a0a24))
    (pad "3" smd rect locked (at -2.525 0 270) (size 3.15 1) (layers "F.Cu" "F.Paste" "F.Mask")
      (net 1 "GND") (pinfunction "Pin_3") (pintype "passive") (tstamp 71143fed-5eef-4eb8-833c-e76cf09b6122))
    (pad "4" smd rect locked (at 2.525 0 270) (size 3.15 1) (layers "F.Cu" "F.Paste" "F.Mask")
      (net 3 "+5V") (pinfunction "Pin_4") (pintype "passive") (tstamp 67bbcd76-869c-4357-bb4f-9275be329577))
    (pad "5" smd rect locked (at -2.525 2.54 270) (size 3.15 1) (layers "F.Cu" "F.Paste" "F.Mask")
      (net 1 "GND") (pinfunction "Pin_5") (pintype "passive") (tstamp a3b976e5-16e6-480e-9213-3c9a7117b585))
    (pad "6" smd rect locked (at 2.525 2.54 270) (size 3.15 1) (layers "F.Cu" "F.Paste" "F.Mask")
      (net 3 "+5V") (pinfunction "Pin_6") (pintype "passive") (tstamp 93b95b37-ab2d-443c-97aa-d349be7d4f98))
    (model "${KISYS3DMOD}/Connector_PinHeader_2.54mm.3dshapes/PinHeader_2x03_P2.54mm_Vertical_SMD.wrl"
      (offset (xyz 0 0 0))
      (scale (xyz 1 1 1))
      (rotate (xyz 0 0 0))
    )
  )

  (footprint "fab:C_1206" (layer "F.Cu")
    (tedit 6002C54C) (tstamp 808218d4-019d-4563-92ac-9c920df762ed)
    (at 135.3 86.35 -90)
    (descr "Capacitor SMD 1206, hand soldering")
    (tags "capacitor 1206")
    (property "Sheetfile" "power_convert.kicad_sch")
    (property "Sheetname" "")
    (path "/621276d1-051c-4225-bde8-c32b4ed05998")
    (attr smd)
    (fp_text reference "C1" (at 0 -1.85 90) (layer "F.SilkS")
      (effects (font (size 1 1) (thickness 0.15)))
      (tstamp b7f97814-e2ee-4b5b-adbc-e900405fc0ae)
    )
    (fp_text value "10uF" (at 0 1.9 90) (layer "F.Fab")
      (effects (font (size 1 1) (thickness 0.15)))
      (tstamp 948a6d53-7d29-4085-a897-d09238f476e9)
    )
    (fp_text user "${REFERENCE}" (at 0 0 90) (layer "F.Fab")
      (effects (font (size 0.7 0.7) (thickness 0.105)))
      (tstamp f37f0bd4-3aad-446b-a202-e2cbfce8fcdf)
    )
    (fp_line (start -1 -1.07) (end 1 -1.07) (layer "F.SilkS") (width 0.12) (tstamp 75598e6c-9618-48cf-947c-c5c0c5b3dd15))
    (fp_line (start 1 1.07) (end -1 1.07) (layer "F.SilkS") (width 0.12) (tstamp 8dbbe25b-675f-4f7e-a3d5-4eb53d8b602a))
    (fp_line (start -3.25 -1.11) (end 3.25 -1.11) (layer "F.CrtYd") (width 0.05) (tstamp 92e2d669-1a77-4ba9-b10f-1cc8d8c297e4))
    (fp_line (start -3.25 -1.11) (end -3.25 1.1) (layer "F.CrtYd") (width 0.05) (tstamp bde2b96a-5487-49c9-9c25-77f5a1489a1d))
    (fp_line (start 3.25 1.1) (end 3.25 -1.11) (layer "F.CrtYd") (width 0.05) (tstamp c5c858b3-843c-4236-b9e0-486080e15596))
    (fp_line (start 3.25 1.1) (end -3.25 1.1) (layer "F.CrtYd") (width 0.05) (tstamp e73ccdda-6824-4b82-9cd4-2704718e0354))
    (fp_line (start -1.6 -0.8) (end 1.6 -0.8) (layer "F.Fab") (width 0.1) (tstamp 055868aa-2a0f-4e91-be81-eaa0916656a9))
    (fp_line (start 1.6 -0.8) (end 1.6 0.8) (layer "F.Fab") (width 0.1) (tstamp 7bbc48b3-b6a0-4f80-bf95-345c65d42c60))
    (fp_line (start 1.6 0.8) (end -1.6 0.8) (layer "F.Fab") (width 0.1) (tstamp 8677fd6b-0e68-41c4-9739-9c0fb6f45551))
    (fp_line (start -1.6 0.8) (end -1.6 -0.8) (layer "F.Fab") (width 0.1) (tstamp a08f2b6d-b968-4824-b20c-1a3379f38e87))
    (pad "1" smd rect locked (at -2 0 270) (size 2 1.7) (layers "F.Cu" "F.Paste" "F.Mask")
      (net 2 "HIGH_v") (pintype "passive") (tstamp a907611b-1576-403e-b7a9-1d89d17870b7))
    (pad "2" smd rect locked (at 2 0 270) (size 2 1.7) (layers "F.Cu" "F.Paste" "F.Mask")
      (net 1 "GND") (pintype "passive") (tstamp bd2c0560-5b9e-4035-9eb3-fd990fe45d1b))
    (model "${FAB}/fab.3dshapes/C_1206.step"
      (offset (xyz 0 0 0))
      (scale (xyz 1 1 1))
      (rotate (xyz 0 0 0))
    )
  )

  (footprint "fab:SOT-223-3_TabPin2" (layer "F.Cu")
    (tedit 58CE4E7E) (tstamp 8c6f18ed-ff13-492f-9cb4-a82f14930fd1)
    (at 143.3 88.7)
    (descr "module CMS SOT223 4 pins")
    (tags "CMS SOT")
    (property "Sheetfile" "power_convert.kicad_sch")
    (property "Sheetname" "")
    (path "/ac56b332-b38a-4799-9b06-cbb8f2747fe9")
    (attr smd)
    (fp_text reference "U1" (at 0 -4.5) (layer "F.SilkS")
      (effects (font (size 1 1) (thickness 0.15)))
      (tstamp c9a32471-20ef-4861-90d8-366953d3664d)
    )
    (fp_text value "Regulator_Linear_NCP1117-5.0V-1A" (at 0 4.5) (layer "F.Fab")
      (effects (font (size 1 1) (thickness 0.15)))
      (tstamp 95abcbd4-1b55-4cce-97e4-2e9d66c488f4)
    )
    (fp_text user "${REFERENCE}" (at 0 0 90) (layer "F.Fab")
      (effects (font (size 0.8 0.8) (thickness 0.12)))
      (tstamp cb2527a4-e2e3-4fc1-b0c7-82fda4a12d21)
    )
    (fp_line (start -4.1 -3.41) (end 1.91 -3.41) (layer "F.SilkS") (width 0.12) (tstamp 178b67b0-d935-48c3-bbf9-033f38bb6a27))
    (fp_line (start 1.91 -3.41) (end 1.91 -2.15) (layer "F.SilkS") (width 0.12) (tstamp 1c645fd9-0a58-4175-8d99-1752c02288be))
    (fp_line (start -1.85 3.41) (end 1.91 3.41) (layer "F.SilkS") (width 0.12) (tstamp 2fe0e096-ffaf-404a-86ea-d0d85ca318c7))
    (fp_line (start 1.91 3.41) (end 1.91 2.15) (layer "F.SilkS") (width 0.12) (tstamp c4a0bbfe-9c7a-410a-a6d0-6cf974c83d56))
    (fp_line (start 4.4 3.6) (end 4.4 -3.6) (layer "F.CrtYd") (width 0.05) (tstamp 10c34c17-ba0a-4d96-88de-bf4820badaaf))
    (fp_line (start -4.4 -3.6) (end -4.4 3.6) (layer "F.CrtYd") (width 0.05) (tstamp 50034f75-eafe-414f-8351-d9e6bf58768f))
    (fp_line (start -4.4 3.6) (end 4.4 3.6) (layer "F.CrtYd") (width 0.05) (tstamp 66883fa1-21c7-4c2a-a39e-d8bb83ded879))
    (fp_line (start 4.4 -3.6) (end -4.4 -3.6) (layer "F.CrtYd") (width 0.05) (tstamp e7fcec9c-fdcd-416f-b4e8-b2224a218349))
    (fp_line (start 1.85 -3.35) (end 1.85 3.35) (layer "F.Fab") (width 0.1) (tstamp 01256407-4e3e-4fcd-ac9b-b634a80f4b82))
    (fp_line (start -1.85 3.35) (end 1.85 3.35) (layer "F.Fab") (width 0.1) (tstamp 27ff34f3-7d77-45b2-b0f4-0702252e83c4))
    (fp_line (start -0.85 -3.35) (end 1.85 -3.35) (layer "F.Fab") (width 0.1) (tstamp 5b616cf9-529d-42d0-a3ca-1713727cca5d))
    (fp_line (start -1.85 -2.35) (end -0.85 -3.35) (layer "F.Fab") (width 0.1) (tstamp 9f6b2e09-565a-446d-91e3-8588acb892ef))
    (fp_line (start -1.85 -2.35) (end -1.85 3.35) (layer "F.Fab") (width 0.1) (tstamp ee173561-d9a4-4c19-9b3f-cfda96c70a36))
    (pad "1" smd rect locked (at -3.15 -2.3) (size 2 1.5) (layers "F.Cu" "F.Paste" "F.Mask")
      (net 1 "GND") (pinfunction "GND") (pintype "power_in") (tstamp ddd8863b-6c39-4b06-98a6-c990cde98bd3))
    (pad "2" smd rect locked (at -3.15 0) (size 2 1.5) (layers "F.Cu" "F.Paste" "F.Mask")
      (net 3 "+5V") (pinfunction "VO") (pintype "power_out") (tstamp bba3cb8f-5e09-4da1-b8ab-7114159853dd))
    (pad "2" smd rect locked (at 3.15 0) (size 2 3.8) (layers "F.Cu" "F.Paste" "F.Mask")
      (net 3 "+5V") (pinfunction "VO") (pintype "power_out") (tstamp fcc2d17d-c855-4220-b5e2-f53a094fb98a))
    (pad "3" smd rect locked (at -3.15 2.3) (size 2 1.5) (layers "F.Cu" "F.Paste" "F.Mask")
      (net 2 "HIGH_v") (pinfunction "VI") (pintype "power_in") (tstamp 245c6306-8d4d-4310-a3d1-e8eb4c66b383))
    (model "${KISYS3DMOD}/TO_SOT_Packages_SMD.3dshapes/SOT-223.wrl"
      (offset (xyz 0 0 0))
      (scale (xyz 1 1 1))
      (rotate (xyz 0 0 0))
    )
  )

  (footprint "fab:R_1206" (layer "F.Cu")
    (tedit 60020482) (tstamp b10d137d-6dca-46ea-819b-700a5c986d0e)
    (at 132.35 94.6)
    (descr "Resistor SMD 1206, hand soldering")
    (tags "resistor 1206")
    (property "Sheetfile" "power_convert.kicad_sch")
    (property "Sheetname" "")
    (path "/e93ac748-bf8f-447a-bbc6-8cd0f3db4986")
    (attr smd)
    (fp_text reference "R1" (at 0 -1.85) (layer "F.SilkS")
      (effects (font (size 1 1) (thickness 0.15)))
      (tstamp 1659ebf3-842d-4674-baa7-76d52b1c2eaa)
    )
    (fp_text value "1K" (at 0 1.9) (layer "F.Fab")
      (effects (font (size 1 1) (thickness 0.15)))
      (tstamp 116f4a21-bd05-4b42-bce8-23aece1d9848)
    )
    (fp_text user "${REFERENCE}" (at 0 0) (layer "F.Fab")
      (effects (font (size 0.7 0.7) (thickness 0.105)))
      (tstamp 751bfa0d-c03c-4b3b-a71a-117c0190d4bd)
    )
    (fp_line (start 1 1.07) (end -1 1.07) (layer "F.SilkS") (width 0.12) (tstamp 1da0aa01-b458-419a-8afe-e007197ed223))
    (fp_line (start -1 -1.07) (end 1 -1.07) (layer "F.SilkS") (width 0.12) (tstamp 96dd826b-e821-423a-906b-e0dff138fb1a))
    (fp_line (start -3.25 -1.11) (end -3.25 1.1) (layer "F.CrtYd") (width 0.05) (tstamp 4f93a854-a690-4281-9d53-e94303567a31))
    (fp_line (start 3.25 1.1) (end -3.25 1.1) (layer "F.CrtYd") (width 0.05) (tstamp b1e1b9d5-a781-4259-9dde-6b9131feb153))
    (fp_line (start 3.25 1.1) (end 3.25 -1.11) (layer "F.CrtYd") (width 0.05) (tstamp d46bad28-ee4c-4306-8f4f-033b80486886))
    (fp_line (start -3.25 -1.11) (end 3.25 -1.11) (layer "F.CrtYd") (width 0.05) (tstamp ee7e4dd9-6b95-4c04-9b3a-2b0a9f356e73))
    (fp_line (start 1.6 0.8) (end -1.6 0.8) (layer "F.Fab") (width 0.1) (tstamp 4d460f32-30eb-4c61-826c-e8b0a2b7c219))
    (fp_line (start -1.6 -0.8) (end 1.6 -0.8) (layer "F.Fab") (width 0.1) (tstamp 55147219-4b1e-4e87-88ea-a324a34f5b1f))
    (fp_line (start 1.6 -0.8) (end 1.6 0.8) (layer "F.Fab") (width 0.1) (tstamp c5870753-8841-4fb7-8fe2-06213a4bf0e5))
    (fp_line (start -1.6 0.8) (end -1.6 -0.8) (layer "F.Fab") (width 0.1) (tstamp db7de9dc-a664-4cec-876b-a60d888876d0))
    (pad "1" smd rect locked (at -2 0) (size 2 1.7) (layers "F.Cu" "F.Paste" "F.Mask")
      (net 1 "GND") (pintype "passive") (tstamp d7ecc3fd-d7e9-4de8-a8ad-c26aee324cb5))
    (pad "2" smd rect locked (at 2 0) (size 2 1.7) (layers "F.Cu" "F.Paste" "F.Mask")
      (net 5 "Net-(D2-Pad1)") (pintype "passive") (tstamp e13ce0a8-90be-4142-88d2-72d8135ff013))
    (model "${FAB}/fab.3dshapes/R_1206.step"
      (offset (xyz 0 0 0))
      (scale (xyz 1 1 1))
      (rotate (xyz 0 0 0))
    )
  )

  (footprint "fab:LED_1206" (layer "F.Cu")
    (tedit 595FC724) (tstamp b4735e70-a9b9-43d8-b142-b23a4befafb5)
    (at 140.55 94.65)
    (descr "LED SMD 1206, hand soldering")
    (tags "LED 1206")
    (property "Sheetfile" "power_convert.kicad_sch")
    (property "Sheetname" "")
    (path "/532043c0-7b92-4671-9c04-5a267bef43fd")
    (attr smd)
    (fp_text reference "D2" (at 0 -1.85) (layer "F.SilkS")
      (effects (font (size 1 1) (thickness 0.15)))
      (tstamp f45cea4c-2f79-467a-9c88-62cffd992a7e)
    )
    (fp_text value "LED" (at 0 1.9) (layer "F.Fab")
      (effects (font (size 1 1) (thickness 0.15)))
      (tstamp 05f94162-a9dc-4654-9046-3e9ca9dd790c)
    )
    (fp_line (start -3.1 0.95) (end 1.6 0.95) (layer "F.SilkS") (width 0.12) (tstamp 61e8cb59-1610-4a8a-9b43-03aa66a93a86))
    (fp_line (start -3.1 -0.95) (end -3.1 0.95) (layer "F.SilkS") (width 0.12) (tstamp ee366b52-fbdc-41a3-959f-60d8d07fbf85))
    (fp_line (start -3.1 -0.95) (end 1.6 -0.95) (layer "F.SilkS") (width 0.12) (tstamp ff9819f6-bb20-4698-bf25-5222d9075241))
    (fp_line (start 3.25 1.1) (end -3.25 1.1) (layer "F.CrtYd") (width 0.05) (tstamp 02c4a1f4-e95e-4761-9f14-fb13e2e4c07a))
    (fp_line (start -3.25 -1.11) (end -3.25 1.1) (layer "F.CrtYd") (width 0.05) (tstamp 22b3d1da-1a1c-4132-a55e-679571adf0e1))
    (fp_line (start 3.25 1.1) (end 3.25 -1.11) (layer "F.CrtYd") (width 0.05) (tstamp 8f118b3e-c03b-481b-81f0-73020d855f8a))
    (fp_line (start -3.25 -1.11) (end 3.25 -1.11) (layer "F.CrtYd") (width 0.05) (tstamp fd306b4b-cf73-40aa-bfcb-a2c7f77791bf))
    (fp_line (start 0.2 0.4) (end -0.4 0) (layer "F.Fab") (width 0.1) (tstamp 1ca87b18-7a00-445e-9ecc-b0a1469c1dce))
    (fp_line (start 1.6 0.8) (end -1.6 0.8) (layer "F.Fab") (width 0.1) (tstamp 1da89c21-6ec2-46ae-886b-1c12ab88c9e4))
    (fp_line (start -1.6 0.8) (end -1.6 -0.8) (layer "F.Fab") (width 0.1) (tstamp 563f8c80-8d01-4e85-b236-6532a0f5659a))
    (fp_line (start -0.45 -0.4) (end -0.45 0.4) (layer "F.Fab") (width 0.1) (tstamp 73b0bbfe-d5cf-4e50-a788-da36cc92c0b2))
    (fp_line (start 0.2 -0.4) (end 0.2 0.4) (layer "F.Fab") (width 0.1) (tstamp 91008f69-add7-4072-9e03-5da7dacbfdb9))
    (fp_line (start -0.4 0) (end 0.2 -0.4) (layer "F.Fab") (width 0.1) (tstamp cf631bec-9583-41a1-905d-23b3d5385b9b))
    (fp_line (start 1.6 -0.8) (end 1.6 0.8) (layer "F.Fab") (width 0.1) (tstamp d5db6bf6-829d-4482-8d59-188e91f5701c))
    (fp_line (start -1.6 -0.8) (end 1.6 -0.8) (layer "F.Fab") (width 0.1) (tstamp f540ebe3-35f9-4979-95df-c615c302c1b2))
    (pad "1" smd rect locked (at -2 0) (size 2 1.7) (layers "F.Cu" "F.Paste" "F.Mask")
      (net 5 "Net-(D2-Pad1)") (pinfunction "K") (pintype "passive") (tstamp ad9c9967-e98f-4329-9b3a-b0b2131194ce))
    (pad "2" smd rect locked (at 2 0) (size 2 1.7) (layers "F.Cu" "F.Paste" "F.Mask")
      (net 3 "+5V") (pinfunction "A") (pintype "passive") (tstamp 26f496e6-31f3-489c-9409-a702670dad5c))
    (model "${KISYS3DMOD}/LEDs.3dshapes/LED_1206.wrl"
      (offset (xyz 0 0 0))
      (scale (xyz 1 1 1))
      (rotate (xyz 0 0 180))
    )
  )

  (footprint "Diode_THT:D_DO-41_SOD81_P10.16mm_Horizontal" (layer "F.Cu")
    (tedit 5AE50CD5) (tstamp d663c4fb-90f1-41d6-adbb-f7c620362a3f)
    (at 144.05 82.35 90)
    (descr "Diode, DO-41_SOD81 series, Axial, Horizontal, pin pitch=10.16mm, , length*diameter=5.2*2.7mm^2, , http://www.diodes.com/_files/packages/DO-41%20(Plastic).pdf")
    (tags "Diode DO-41_SOD81 series Axial Horizontal pin pitch 10.16mm  length 5.2mm diameter 2.7mm")
    (property "Sheetfile" "power_convert.kicad_sch")
    (property "Sheetname" "")
    (path "/79543095-7e24-4eaa-822a-36dd86a40708")
    (attr through_hole)
    (fp_text reference "D1" (at 5.08 -2.47 90) (layer "F.SilkS")
      (effects (font (size 1 1) (thickness 0.15)))
      (tstamp efdcd134-6dcc-4f4e-b509-165f811b097d)
    )
    (fp_text value "1N4007" (at 5.08 2.47 90) (layer "F.Fab")
      (effects (font (size 1 1) (thickness 0.15)))
      (tstamp 111f61ad-eb46-4b72-bb76-2c1a698ccacd)
    )
    (fp_text user "K" (at 0 -2.1 90) (layer "F.SilkS")
      (effects (font (size 1 1) (thickness 0.15)))
      (tstamp 61d724e7-a044-4d4e-8839-fb9b13ef34dd)
    )
    (fp_text user "K" (at 0 -2.1 90) (layer "F.Fab")
      (effects (font (size 1 1) (thickness 0.15)))
      (tstamp 69af7427-a013-45b3-bce0-93c7fed915b9)
    )
    (fp_text user "${REFERENCE}" (at 5.47 0 90) (layer "F.Fab")
      (effects (font (size 1 1) (thickness 0.15)))
      (tstamp a0841331-cad1-4a05-88ca-c732bacd6d99)
    )
    (fp_line (start 2.36 -1.47) (end 2.36 1.47) (layer "F.SilkS") (width 0.12) (tstamp 48542b44-efa3-41db-84d8-723664f780ce))
    (fp_line (start 8.82 0) (end 7.8 0) (layer "F.SilkS") (width 0.12) (tstamp 4f0776cb-554d-48fb-93ec-22bd2d9b7ecd))
    (fp_line (start 3.38 -1.47) (end 3.38 1.47) (layer "F.SilkS") (width 0.12) (tstamp 5e6d6789-e53d-49c8-8091-461bb40ae3d5))
    (fp_line (start 2.36 1.47) (end 7.8 1.47) (layer "F.SilkS") (width 0.12) (tstamp 61eb96b3-1ad7-406c-8256-74e20d0d6fef))
    (fp_line (start 3.26 -1.47) (end 3.26 1.47) (layer "F.SilkS") (width 0.12) (tstamp 6e91a721-c5e4-42bd-8b2b-23282068778d))
    (fp_line (start 1.34 0) (end 2.36 0) (layer "F.SilkS") (width 0.12) (tstamp 80752ae3-7675-40bd-83a0-7fa5e518cd7b))
    (fp_line (start 3.14 -1.47) (end 3.14 1.47) (layer "F.SilkS") (width 0.12) (tstamp bbe5b334-bc3a-4701-aa64-59ac70e5a130))
    (fp_line (start 7.8 1.47) (end 7.8 -1.47) (layer "F.SilkS") (width 0.12) (tstamp eef83a17-f4b5-4491-b568-f0a914cdacc2))
    (fp_line (start 7.8 -1.47) (end 2.36 -1.47) (layer "F.SilkS") (width 0.12) (tstamp fd1ba15a-8c83-440e-af19-b1ce08d9d51a))
    (fp_line (start -1.35 -1.6) (end -1.35 1.6) (layer "F.CrtYd") (width 0.05) (tstamp 28b9f83c-bda7-4f4f-88ea-728379a14901))
    (fp_line (start -1.35 1.6) (end 11.51 1.6) (layer "F.CrtYd") (width 0.05) (tstamp 4a75b40b-9511-4b77-bb8c-7b87fb17559b))
    (fp_line (start 11.51 -1.6) (end -1.35 -1.6) (layer "F.CrtYd") (width 0.05) (tstamp 5b7a3a5b-463b-4a7f-9bb3-dad249f83af6))
    (fp_line (start 11.51 1.6) (end 11.51 -1.6) (layer "F.CrtYd") (width 0.05) (tstamp fd832473-eaa9-4539-a6e2-b4b28b087e93))
    (fp_line (start 7.68 -1.35) (end 2.48 -1.35) (layer "F.Fab") (width 0.1) (tstamp 286ce411-63fd-4a35-9418-92340f3934e3))
    (fp_line (start 0 0) (end 2.48 0) (layer "F.Fab") (width 0.1) (tstamp 33445788-14e0-47c1-9410-2142524dd181))
    (fp_line (start 2.48 -1.35) (end 2.48 1.35) (layer "F.Fab") (width 0.1) (tstamp 3738417d-4ac3-4cb3-940b-56e9dc208c06))
    (fp_line (start 3.16 -1.35) (end 3.16 1.35) (layer "F.Fab") (width 0.1) (tstamp 4e55477b-d2bf-46a9-820f-84053801dee8))
    (fp_line (start 3.36 -1.35) (end 3.36 1.35) (layer "F.Fab") (width 0.1) (tstamp 5f50b1e0-2009-4e8d-a464-30d9069e7c3b))
    (fp_line (start 7.68 1.35) (end 7.68 -1.35) (layer "F.Fab") (width 0.1) (tstamp 9919085c-69bd-4867-b02b-66f90b9bdef4))
    (fp_line (start 2.48 1.35) (end 7.68 1.35) (layer "F.Fab") (width 0.1) (tstamp db91d4a7-17ab-4eba-8a2c-5d6f9640e647))
    (fp_line (start 3.26 -1.35) (end 3.26 1.35) (layer "F.Fab") (width 0.1) (tstamp ed0c3cc5-52e7-4717-82d3-32cd31c65f39))
    (fp_line (start 10.16 0) (end 7.68 0) (layer "F.Fab") (width 0.1) (tstamp ff638d2d-cf0d-4eef-a8a2-3390a46a1254))
    (pad "1" thru_hole rect (at 0 0 90) (size 2.2 2.2) (drill 1.1) (layers *.Cu *.Mask)
      (net 2 "HIGH_v") (pinfunction "K") (pintype "passive") (tstamp ca21b128-7b09-42f9-b9a9-3fddecb4f27d))
    (pad "2" thru_hole oval (at 10.16 0 90) (size 2.2 2.2) (drill 1.1) (layers *.Cu *.Mask)
      (net 4 "+12V") (pinfunction "A") (pintype "passive") (tstamp 6ba38624-84e0-4bae-968f-e05e203460c0))
    (model "${KICAD6_3DMODEL_DIR}/Diode_THT.3dshapes/D_DO-41_SOD81_P10.16mm_Horizontal.wrl"
      (offset (xyz 0 0 0))
      (scale (xyz 1 1 1))
      (rotate (xyz 0 0 0))
    )
  )

  (footprint "fab:C_1206" (layer "F.Cu")
    (tedit 6002C54C) (tstamp db9f7c3d-ebbd-4dea-a083-22319aafec15)
    (at 149.55 88.7 90)
    (descr "Capacitor SMD 1206, hand soldering")
    (tags "capacitor 1206")
    (property "Sheetfile" "power_convert.kicad_sch")
    (property "Sheetname" "")
    (path "/feea207b-0254-4013-9a4f-468f52038db4")
    (attr smd)
    (fp_text reference "C2" (at 0 -1.85 90) (layer "F.SilkS")
      (effects (font (size 1 1) (thickness 0.15)))
      (tstamp 6e3ac44e-f06c-4080-be0a-248a9aa29041)
    )
    (fp_text value "10uF" (at 0 1.9 90) (layer "F.Fab")
      (effects (font (size 1 1) (thickness 0.15)))
      (tstamp ad6a2259-83a6-40f8-b3ab-69ead1f56b2e)
    )
    (fp_text user "${REFERENCE}" (at 0 0 90) (layer "F.Fab")
      (effects (font (size 0.7 0.7) (thickness 0.105)))
      (tstamp 9dae7109-da24-497b-98a7-e2781702c24a)
    )
    (fp_line (start 1 1.07) (end -1 1.07) (layer "F.SilkS") (width 0.12) (tstamp 33d3247b-d3ae-42aa-a76c-2a2948ef35ad))
    (fp_line (start -1 -1.07) (end 1 -1.07) (layer "F.SilkS") (width 0.12) (tstamp a3e86e56-9deb-433f-ac4a-b3b6bb474e02))
    (fp_line (start 3.25 1.1) (end -3.25 1.1) (layer "F.CrtYd") (width 0.05) (tstamp 42eb3025-4ef3-44fe-a2b4-a8e4a711a715))
    (fp_line (start -3.25 -1.11) (end 3.25 -1.11) (layer "F.CrtYd") (width 0.05) (tstamp 590aa372-cca3-465f-b879-17c38e29f640))
    (fp_line (start 3.25 1.1) (end 3.25 -1.11) (layer "F.CrtYd") (width 0.05) (tstamp acb26e53-4c6a-48cb-9d25-2cb3e00e89dd))
    (fp_line (start -3.25 -1.11) (end -3.25 1.1) (layer "F.CrtYd") (width 0.05) (tstamp d7888e33-9136-4e55-a87b-20e556e50e4e))
    (fp_line (start 1.6 -0.8) (end 1.6 0.8) (layer "F.Fab") (width 0.1) (tstamp 05953825-2016-46f7-8798-b6ecc13177e6))
    (fp_line (start -1.6 0.8) (end -1.6 -0.8) (layer "F.Fab") (width 0.1) (tstamp 18871259-1bc4-4b1c-9a2e-4606643eb4eb))
    (fp_line (start -1.6 -0.8) (end 1.6 -0.8) (layer "F.Fab") (width 0.1) (tstamp ef19fb77-d126-41d3-a2b5-1ac0ad078594))
    (fp_line (start 1.6 0.8) (end -1.6 0.8) (layer "F.Fab") (width 0.1) (tstamp f5c52e35-dcca-47a1-9fe7-839ce0269d46))
    (pad "1" smd rect locked (at -2 0 90) (size 2 1.7) (layers "F.Cu" "F.Paste" "F.Mask")
      (net 3 "+5V") (pintype "passive") (tstamp 54881c87-6ea1-422c-ad8d-d6b080b27129))
    (pad "2" smd rect locked (at 2 0 90) (size 2 1.7) (layers "F.Cu" "F.Paste" "F.Mask")
      (net 1 "GND") (pintype "passive") (tstamp 217e2770-3a8e-4703-b121-d9713eb09d62))
    (model "${FAB}/fab.3dshapes/C_1206.step"
      (offset (xyz 0 0 0))
      (scale (xyz 1 1 1))
      (rotate (xyz 0 0 0))
    )
  )

  (footprint "fab:TerminalBlock_OnShore_1x02_P3.50mm_Horizontal" (layer "F.Cu")
    (tedit 62431989) (tstamp ec0d29a7-6594-4584-97bf-0fb09fe9d7ae)
    (at 130.8 84.6 -90)
    (descr "2 Position Wire to Board Terminal Block Horizontal with Board 0.138\" (3.50mm) Through Hole")
    (tags "THT Terminal Block pitch 3.5mm")
    (property "Sheetfile" "power_convert.kicad_sch")
    (property "Sheetname" "")
    (path "/4805e1ed-511e-46df-a120-4edfe5636605")
    (attr through_hole)
    (fp_text reference "J2" (at 1.75 -4.46 90) (layer "F.SilkS")
      (effects (font (size 1 1) (thickness 0.15)))
      (tstamp 596713a2-b6fa-4797-b241-4f1a53ea8432)
    )
    (fp_text value "Screw_Terminal_01x02_P3.5mm" (at 1.7 5.2 90) (layer "F.Fab")
      (effects (font (size 1 1) (thickness 0.15)))
      (tstamp 6c6ed7c3-8c8d-4173-9503-6204048326ab)
    )
    (fp_text user "${REFERENCE}" (at 1.75 2.9 90) (layer "F.Fab")
      (effects (font (size 1 1) (thickness 0.15)))
      (tstamp e8f74021-727c-4d3f-af5f-ee5163d5fca9)
    )
    (fp_line (start -1.8 -2.7) (end 5.3 -2.7) (layer "F.SilkS") (width 0.12) (tstamp 29d1a470-b3cb-4425-8a5b-8e7e9dcb344d))
    (fp_line (start -1.8 3.8) (end 5.3 3.8) (layer "F.SilkS") (width 0.12) (tstamp c9f010dd-cdcf-4682-af06-a2033a25d6d4))
    (fp_line (start -1.8 -2.7) (end -1.8 3.8) (layer "F.SilkS") (width 0.12) (tstamp e40720db-7e68-47d5-942a-e00613821b85))
    (fp_line (start 5.3 -2.7) (end 5.3 3.8) (layer "F.SilkS") (width 0.12) (tstamp fe4e4c99-9c10-411c-b06e-815978cc76ca))
    (fp_line (start -1.7 -2.6) (end -1.7 3.7) (layer "F.CrtYd") (width 0.05) (tstamp a5928b11-1faa-4a0a-be1a-2be82a167d20))
    (fp_line (start 5.2 3.7) (end 5.2 -2.6) (layer "F.CrtYd") (width 0.05) (tstamp a81ff9d1-3181-4c9d-a03d-3c37b414b6a1))
    (fp_line (start 5.2 -2.6) (end -1.7 -2.6) (layer "F.CrtYd") (width 0.05) (tstamp b5bc53cc-b7bf-4049-a8ed-46e9f6f977e8))
    (fp_line (start -1.7 3.7) (end 5.2 3.7) (layer "F.CrtYd") (width 0.05) (tstamp b5dd583b-8da1-4c26-8c76-05c8e8c8699e))
    (fp_line (start -1.7 2.6) (end -1.7 -2.6) (layer "F.Fab") (width 0.1) (tstamp 0f537703-bc76-481c-8b9c-66975cf4c41a))
    (fp_line (start -1.7 -2.6) (end 5.2 -2.6) (layer "F.Fab") (width 0.1) (tstamp 3a2d5abc-7745-482f-baf6-2a45370cc01d))
    (fp_line (start -0.6 3.7) (end -1.7 2.6) (layer "F.Fab") (width 0.1) (tstamp 3b000efd-e9f4-4727-bd60-4e692e80762c))
    (fp_line (start 5.2 -2.6) (end 5.2 3.7) (layer "F.Fab") (width 0.1) (tstamp 908695e9-3327-42b1-9877-dd2571bcabe4))
    (fp_line (start 5.2 3.7) (end -0.6 3.7) (layer "F.Fab") (width 0.1) (tstamp b19951f0-ce38-4c3b-8128-32f624739196))
    (pad "1" thru_hole rect (at 0 0 270) (size 3 3) (drill 1.4) (layers *.Cu *.Mask)
      (net 1 "GND") (pinfunction "Pin_1") (pintype "passive") (tstamp 556132fd-8d6a-4543-90c3-f595ad4d41ce))
    (pad "2" thru_hole circle (at 3.5 0 270) (size 3 3) (drill 1.4) (layers *.Cu *.Mask)
      (net 4 "+12V") (pinfunction "Pin_2") (pintype "passive") (tstamp fe6a1c08-7f75-4313-8f8b-3e524b95bd2e))
    (model "${KISYS3DMOD}/TerminalBlock_4Ucon.3dshapes/TerminalBlock_4Ucon_1x02_P3.50mm_Horizontal.wrl"
      (offset (xyz 0 0 0))
      (scale (xyz 1 1 1))
      (rotate (xyz 0 0 0))
    )
  )

  (footprint "fab:PinHeader_2x05_P2.54mm_Vertical_SMD" (layer "F.Cu")
    (tedit 6085181A) (tstamp ec3502b5-4a79-4d8d-971e-98230b4482fe)
    (at 153.35 75.85 -90)
    (descr "surface-mounted straight pin header, 2x05, 2.54mm pitch, double rows")
    (tags "Surface mounted pin header SMD 2x05 2.54mm double row")
    (property "Sheetfile" "power_convert.kicad_sch")
    (property "Sheetname" "")
    (path "/4158296e-efa8-4e11-8712-582b8dccca86")
    (attr smd)
    (fp_text reference "J3" (at 0 -7.41 90) (layer "F.SilkS")
      (effects (font (size 1 1) (thickness 0.15)))
      (tstamp 4ffafd46-d0ef-4b1b-bc8a-dc31e608d041)
    )
    (fp_text value "Conn_PinHeader_2x05_P2.54mm_Vertical_SMD" (at 0 7.41 90) (layer "F.Fab")
      (effects (font (size 1 1) (thickness 0.15)))
      (tstamp 6b1abe6a-73d9-442c-9e55-70d6d5f640b2)
    )
    (fp_text user "${REFERENCE}" (at 0 0) (layer "F.Fab")
      (effects (font (size 1 1) (thickness 0.15)))
      (tstamp 7ff166b2-9af5-424d-8792-778d855264e8)
    )
    (fp_line (start -2.6 -6.41) (end 2.6 -6.41) (layer "F.SilkS") (width 0.12) (tstamp 1d56ccfb-fc43-4457-b446-e7ccea3575f8))
    (fp_line (start -2.6 0.76) (end -2.6 1.78) (layer "F.SilkS") (width 0.12) (tstamp 2c74100f-6330-481e-a5c7-afd7ccadfd22))
    (fp_line (start -2.6 -1.78) (end -2.6 -0.76) (layer "F.SilkS") (width 0.12) (tstamp 37b05c55-03b1-425b-aa83-a3c12f735368))
    (fp_line (start -2.6 -4.32) (end -2.6 -3.3) (layer "F.SilkS") (width 0.12) (tstamp 4d9d4f4f-70b4-4c5f-9878-8e9947a256dc))
    (fp_line (start -2.6 5.84) (end -2.6 6.41) (layer "F.SilkS") (width 0.12) (tstamp 5c8b99c0-7352-4f1e-9008-1e87a6de829e))
    (fp_line (start 2.6 5.84) (end 2.6 6.41) (layer "F.SilkS") (width 0.12) (tstamp 609b24f3-42f4-44ea-991a-fa22e1940c24))
    (fp_line (start 2.6 -6.41) (end 2.6 -5.84) (layer "F.SilkS") (width 0.12) (tstamp 73b11a6c-7af5-48e3-97a8-ddad84805e9e))
    (fp_line (start -2.6 -6.41) (end -2.6 -5.84) (layer "F.SilkS") (width 0.12) (tstamp 9a520eba-89c5-4225-997a-50100bc7da73))
    (fp_line (start 2.6 -4.32) (end 2.6 -3.3) (layer "F.SilkS") (width 0.12) (tstamp 9cb6a648-5ffd-42b6-be5d-d6e98d69e512))
    (fp_line (start -2.6 3.3) (end -2.6 4.32) (layer "F.SilkS") (width 0.12) (tstamp b3d3a73b-60f9-4a4e-bc2e-ce3e170a5e9e))
    (fp_line (start 2.6 -1.78) (end 2.6 -0.76) (layer "F.SilkS") (width 0.12) (tstamp b9e29a57-a796-473f-99c1-f2da52b51c94))
    (fp_line (start -4.04 -5.84) (end -2.6 -5.84) (layer "F.SilkS") (width 0.12) (tstamp cf7bafbf-836f-4ead-8439-2053e8ccd522))
    (fp_line (start 2.6 3.3) (end 2.6 4.32) (layer "F.SilkS") (width 0.12) (tstamp dc1d37d2-8802-4c5f-9c51-269394c160ba))
    (fp_line (start 2.6 0.76) (end 2.6 1.78) (layer "F.SilkS") (width 0.12) (tstamp fc0ca520-b236-421d-b201-cdadb2818cff))
    (fp_line (start -2.6 6.41) (end 2.6 6.41) (layer "F.SilkS") (width 0.12) (tstamp fe735e9d-5bc1-45cd-b3d7-097a7dacc0dc))
    (fp_line (start 5.9 -6.85) (end -5.9 -6.85) (layer "F.CrtYd") (width 0.05) (tstamp 302f3679-6f50-4bd9-b95b-9af9479abca5))
    (fp_line (start -5.9 6.85) (end 5.9 6.85) (layer "F.CrtYd") (width 0.05) (tstamp 3d8691cc-ed6b-4b6b-a793-70c9146e4c00))
    (fp_line (start -5.9 -6.85) (end -5.9 6.85) (layer "F.CrtYd") (width 0.05) (tstamp d3d65511-f4bf-49be-8349-4000642589f4))
    (fp_line (start 5.9 6.85) (end 5.9 -6.85) (layer "F.CrtYd") (width 0.05) (tstamp f116dfa2-dfd7-48ce-8f6f-c0dcc68c11be))
    (fp_line (start -2.54 -2.86) (end -3.6 -2.86) (layer "F.Fab") (width 0.1) (tstamp 0701588e-b9bd-4e7e-a33f-c78f7c06e2ea))
    (fp_line (start -3.6 5.4) (end -2.54 5.4) (layer "F.Fab") (width 0.1) (tstamp 0a0cfd0b-6263-4570-8257-3dd221bfd68c))
    (fp_line (start 2.54 -2.86) (end 3.6 -2.86) (layer "F.Fab") (width 0.1) (tstamp 12e746fe-2bcd-49fd-93ca-bd7285202b5e))
    (fp_line (start -2.54 4.76) (end -3.6 4.76) (layer "F.Fab") (width 0.1) (tstamp 26890865-820e-4f14-b8f0-4f830b5d6ea8))
    (fp_line (start 3.6 2.86) (end 2.54 2.86) (layer "F.Fab") (width 0.1) (tstamp 2feeab13-c423-4052-9869-99a9a36c9cec))
    (fp_line (start 3.6 -5.4) (end 3.6 -4.76) (layer "F.Fab") (width 0.1) (tstamp 34d10a62-0aa5-4dbf-a64d-42abed51d2b4))
    (fp_line (start -3.6 0.32) (end -2.54 0.32) (layer "F.Fab") (width 0.1) (tstamp 37b5c086-f281-4b6c-8dbb-938070253b3a))
    (fp_line (start -3.6 -4.76) (end -2.54 -4.76) (layer "F.Fab") (width 0.1) (tstamp 42c00c02-4c9d-4af3-88c1-33c238a4d135))
    (fp_line (start -3.6 -2.22) (end -2.54 -2.22) (layer "F.Fab") (width 0.1) (tstamp 4b5f92c0-d9be-4900-83d7-5856aed36c70))
    (fp_line (start -2.54 2.22) (end -3.6 2.22) (layer "F.Fab") (width 0.1) (tstamp 55caf42d-39c2-479b-8a20-bfb95947564b))
    (fp_line (start 3.6 0.32) (end 2.54 0.32) (layer "F.Fab") (width 0.1) (tstamp 5fc71c4a-3d58-4bac-a774-460052fa32d8))
    (fp_line (start 3.6 2.22) (end 3.6 2.86) (layer "F.Fab") (width 0.1) (tstamp 611ac314-42cd-41a8-91b4-3f1060711534))
    (fp_line (start -1.59 -6.35) (end 2.54 -6.35) (layer "F.Fab") (width 0.1) (tstamp 68306266-c7c6-47bc-936a-01b9bbafba74))
    (fp_line (start 2.54 -5.4) (end 3.6 -5.4) (layer "F.Fab") (width 0.1) (tstamp 6bd16662-c5d9-43f2-9f3c-1429c77be3a6))
    (fp_line (start 2.54 -6.35) (end 2.54 6.35) (layer "F.Fab") (width 0.1) (tstamp 6c401b3e-52ea-412c-bc60-d9c821b02c59))
    (fp_line (start -3.6 -0.32) (end -3.6 0.32) (layer "F.Fab") (width 0.1) (tstamp 6cceadf3-ac57-46b8-9f9b-a3d43f6c7606))
    (fp_line (start -2.54 -5.4) (end -1.59 -6.35) (layer "F.Fab") (width 0.1) (tstamp 6dc36d6d-2cb5-4ce1-9f7e-38e97ebfb0a6))
    (fp_line (start -3.6 2.86) (end -2.54 2.86) (layer "F.Fab") (width 0.1) (tstamp 8aa2d38c-7341-4bc2-b5e0-c20b06a9b4d6))
    (fp_line (start -2.54 6.35) (end -2.54 -5.4) (layer "F.Fab") (width 0.1) (tstamp 940b1858-a0f6-48c9-a43f-84d2bacdb484))
    (fp_line (start -2.54 -5.4) (end -3.6 -5.4) (layer "F.Fab") (width 0.1) (tstamp 9f16c631-680d-4b40-af05-8ed3c5bd158a))
    (fp_line (start -3.6 4.76) (end -3.6 5.4) (layer "F.Fab") (width 0.1) (tstamp a51903f5-19a7-4245-85a5-358ae7662de7))
    (fp_line (start -3.6 2.22) (end -3.6 2.86) (layer "F.Fab") (width 0.1) (tstamp a7485d20-7194-4921-9c9f-60537e6c7849))
    (fp_line (start 3.6 5.4) (end 2.54 5.4) (layer "F.Fab") (width 0.1) (tstamp a9525b11-5e9e-4364-a435-f2922f88550d))
    (fp_line (start 3.6 -2.22) (end 2.54 -2.22) (layer "F.Fab") (width 0.1) (tstamp aa80864f-005d-4e10-b04e-22e350e868eb))
    (fp_line (start 3.6 4.76) (end 3.6 5.4) (layer "F.Fab") (width 0.1) (tstamp bf9b4886-93cd-4dbc-9266-f9880dca597d))
    (fp_line (start 2.54 -0.32) (end 3.6 -0.32) (layer "F.Fab") (width 0.1) (tstamp c4adc7c7-e606-4d1f-85da-2ebb5fd47ab0))
    (fp_line (start 2.54 4.76) (end 3.6 4.76) (layer "F.Fab") (width 0.1) (tstamp c4e7fcf9-7724-49e8-a3c6-4a7a22a55464))
    (fp_line (start 3.6 -0.32) (end 3.6 0.32) (layer "F.Fab") (width 0.1) (tstamp ce4fb980-a1f8-4d80-8515-d5c15b913c0c))
    (fp_line (start -3.6 -2.86) (end -3.6 -2.22) (layer "F.Fab") (width 0.1) (tstamp db5ab573-44db-4f3d-b910-a566e260dcbc))
    (fp_line (start 2.54 2.22) (end 3.6 2.22) (layer "F.Fab") (width 0.1) (tstamp de5e4280-45ef-411d-acde-a29a9b755ed3))
    (fp_line (start 2.54 6.35) (end -2.54 6.35) (layer "F.Fab") (width 0.1) (tstamp f4579eaf-62bf-4d50-8d29-7c28e5c17e49))
    (fp_line (start -2.54 -0.32) (end -3.6 -0.32) (layer "F.Fab") (width 0.1) (tstamp f5f67c04-6d81-4b86-bf1e-5cce220b4299))
    (fp_line (start -3.6 -5.4) (end -3.6 -4.76) (layer "F.Fab") (width 0.1) (tstamp f98686b4-0eba-4626-bc9f-a28fb9b9d057))
    (fp_line (start 3.6 -2.86) (end 3.6 -2.22) (layer "F.Fab") (width 0.1) (tstamp fa254c7a-894c-4b8d-aa89-a6039902bfb6))
    (fp_line (start 3.6 -4.76) (end 2.54 -4.76) (layer "F.Fab") (width 0.1) (tstamp fb58dd33-f8b4-4a56-ac7f-e5964c457cc3))
    (pad "1" smd rect locked (at -2.525 -5.08 270) (size 3.15 1) (layers "F.Cu" "F.Paste" "F.Mask")
      (net 1 "GND") (pinfunction "Pin_1") (pintype "passive") (tstamp c2f356ff-3ab0-48ae-a5f7-3802e8bb210d))
    (pad "2" smd rect locked (at 2.525 -5.08 270) (size 3.15 1) (layers "F.Cu" "F.Paste" "F.Mask")
      (net 2 "HIGH_v") (pinfunction "Pin_2") (pintype "passive") (tstamp be1b2c3e-a646-401a-b824-df7c9bf842dc))
    (pad "3" smd rect locked (at -2.525 -2.54 270) (size 3.15 1) (layers "F.Cu" "F.Paste" "F.Mask")
      (net 1 "GND") (pinfunction "Pin_3") (pintype "passive") (tstamp 542ad529-7ae4-4896-b851-01a74552f724))
    (pad "4" smd rect locked (at 2.525 -2.54 270) (size 3.15 1) (layers "F.Cu" "F.Paste" "F.Mask")
      (net 2 "HIGH_v") (pinfunction "Pin_4") (pintype "passive") (tstamp 392512fc-863c-4c45-9c30-3a8cb45ff51f))
    (pad "5" smd rect locked (at -2.525 0 270) (size 3.15 1) (layers "F.Cu" "F.Paste" "F.Mask")
      (net 1 "GND") (pinfunction "Pin_5") (pintype "passive") (tstamp 39f7e519-7e71-45b3-a49e-2d2460785e58))
    (pad "6" smd rect locked (at 2.525 0 270) (size 3.15 1) (layers "F.Cu" "F.Paste" "F.Mask")
      (net 2 "HIGH_v") (pinfunction "Pin_6") (pintype "passive") (tstamp 799de204-1e91-48c0-8a72-ee28f3bed05c))
    (pad "7" smd rect locked (at -2.525 2.54 270) (size 3.15 1) (layers "F.Cu" "F.Paste" "F.Mask")
      (net 1 "GND") (pinfunction "Pin_7") (pintype "passive") (tstamp e2f2c4ba-2a75-435e-949d-aa747280f532))
    (pad "8" smd rect locked (at 2.525 2.54 270) (size 3.15 1) (layers "F.Cu" "F.Paste" "F.Mask")
      (net 2 "HIGH_v") (pinfunction "Pin_8") (pintype "passive") (tstamp 4e63ba8c-907a-49d3-b5e9-f10f18cdb5d4))
    (pad "9" smd rect locked (at -2.525 5.08 270) (size 3.15 1) (layers "F.Cu" "F.Paste" "F.Mask")
      (net 1 "GND") (pinfunction "Pin_9") (pintype "passive") (tstamp 210d470a-b6aa-464e-a605-297e86427cb5))
    (pad "10" smd rect locked (at 2.525 5.08 270) (size 3.15 1) (layers "F.Cu" "F.Paste" "F.Mask")
      (net 2 "HIGH_v") (pinfunction "Pin_10") (pintype "passive") (tstamp 975665bd-f685-4909-ba6f-517770036e2a))
    (model "${KISYS3DMOD}/Connector_PinHeader_2.54mm.3dshapes/PinHeader_2x05_P2.54mm_Vertical_SMD.wrl"
      (offset (xyz 0 0 0))
      (scale (xyz 1 1 1))
      (rotate (xyz 0 0 0))
    )
  )

  (gr_arc (start 126.814214 70.814214) (mid 127.4 69.4) (end 128.814214 68.814214) (layer "Edge.Cuts") (width 0.1) (tstamp 2687f048-ed8b-4344-9f77-fa2102a315c7))
  (gr_arc (start 163.635786 94.985786) (mid 163.05 96.4) (end 161.635786 96.985786) (layer "Edge.Cuts") (width 0.1) (tstamp 291659de-26c3-4e38-968b-ddb8a41e508f))
  (gr_line (start 128.8 97) (end 161.635786 96.985786) (layer "Edge.Cuts") (width 0.1) (tstamp 5ab99254-ce39-43d9-8b9d-d74b0791a34c))
  (gr_line (start 128.814214 68.814214) (end 161.675 68.925) (layer "Edge.Cuts") (width 0.1) (tstamp 79f6c15f-c8f4-4246-a711-d68145032425))
  (gr_line (start 126.814214 70.814214) (end 126.8 95) (layer "Edge.Cuts") (width 0.1) (tstamp 894a2e1f-5f92-4093-ad78-839df04260b3))
  (gr_arc (start 128.8 97) (mid 127.385786 96.414214) (end 126.8 95) (layer "Edge.Cuts") (width 0.1) (tstamp a3184475-ada1-48f8-9737-063b56b5e0b5))
  (gr_arc (start 161.675 68.925) (mid 163.089214 69.510786) (end 163.675 70.925) (layer "Edge.Cuts") (width 0.1) (tstamp cfd54022-cb34-4528-8ddb-092443d3e9c2))
  (gr_line (start 163.675 70.925) (end 163.635786 94.985786) (layer "Edge.Cuts") (width 0.1) (tstamp d1ebc343-d7ae-4f03-93cf-560455ddb715))
  (gr_text "POWER" (at 150.05 95.35) (layer "F.Cu") (tstamp 47b8e140-6530-4c56-b9cf-cc4f76c9e57d)
    (effects (font (size 1.5 1.5) (thickness 0.3)))
  )
  (gr_text "G" (at 161.8 85.65 90) (layer "F.Cu") (tstamp 52b61584-7da4-4fd2-b272-949b82f02b23)
    (effects (font (size 1.3 1.3) (thickness 0.3)))
  )
  (gr_text "V+" (at 161.8 90.5 90) (layer "F.Cu") (tstamp 700a0bb5-0174-4e0b-bbc3-3b476fde2bde)
    (effects (font (size 1.3 1.3) (thickness 0.3)))
  )
  (gr_text "G" (at 161.95 73.45 90) (layer "F.Cu") (tstamp 9b96a19b-25c7-4276-adec-c98ea2f03b3f)
    (effects (font (size 1.3 1.3) (thickness 0.3)))
  )
  (gr_text "HV" (at 161.95 78.4 90) (layer "F.Cu") (tstamp f04228d5-53f5-4b47-8740-dd1c185fc71c)
    (effects (font (size 1.3 1.3) (thickness 0.3)))
  )

  (segment (start 130.85 80.65) (end 131.55 79.95) (width 0.5) (layer "F.Cu") (net 1) (tstamp 004fbf1e-c701-491c-bf7f-57180bb66807))
  (segment (start 141.75 84.8) (end 147.65 84.8) (width 0.5) (layer "F.Cu") (net 1) (tstamp 00933b90-a04f-4ff0-aa4c-74b15a4c9f92))
  (segment (start 130.8 84.6) (end 131.15 84.6) (width 0.5) (layer "F.Cu") (net 1) (tstamp 01076ed7-a853-46e8-b08c-3ee4571e60fd))
  (segment (start 131.749511 79.750489) (end 131.749511 74.049511) (width 0.5) (layer "F.Cu") (net 1) (tstamp 0ec60321-980a-43d3-ae55-fae3cdb970f3))
  (segment (start 151.885 86.75) (end 153.21 85.425) (width 0.5) (layer "F.Cu") (net 1) (tstamp 140ef685-3a69-4982-9a7e-85da96cf627d))
  (segment (start 155.75 85.425) (end 158.29 85.425) (width 0.5) (layer "F.Cu") (net 1) (tstamp 16e4b485-705d-4109-a88d-20d39335af40))
  (segment (start 140.15 86.4) (end 141.75 84.8) (width 0.5) (layer "F.Cu") (net 1) (tstamp 1ccd24e7-2fb8-47bc-b9ec-412111917553))
  (segment (start 136.05 80.05) (end 131.65 80.05) (width 0.5) (layer "F.Cu") (net 1) (tstamp 1e78a0f0-8ac8-44e1-a6b3-a798c3110973))
  (segment (start 134.9 88.35) (end 135.3 88.35) (width 0.5) (layer "F.Cu") (net 1) (tstamp 2514aa3f-f892-4603-9375-3faa1242c7d7))
  (segment (start 131.15 84.6) (end 134.9 88.35) (width 0.5) (layer "F.Cu") (net 1) (tstamp 2c046a7a-f207-4ff7-a6d2-bcb5d919f2f3))
  (segment (start 160 83.615) (end 160 75.55) (width 0.5) (layer "F.Cu") (net 1) (tstamp 2db8c577-8450-4367-aeaa-c34b6efc25e6))
  (segment (start 158.43 73.98) (end 158.43 73.325) (width 0.5) (layer "F.Cu") (net 1) (tstamp 4890b6cd-b37a-46d6-88bb-40c1ab91aab1))
  (segment (start 131.55 79.95) (end 131.749511 79.750489) (width 0.5) (layer "F.Cu") (net 1) (tstamp 4ef87372-aa30-4816-b827-b1d13b75d188))
  (segment (start 158.29 85.325) (end 160 83.615) (width 0.5) (layer "F.Cu") (net 1) (tstamp 539e9676-ff6e-4899-895f-59a79c2c7d4f))
  (segment (start 153.21 85.425) (end 155.75 85.425) (width 0.5) (layer "F.Cu") (net 1) (tstamp 5a3009e0-f0a9-466b-8e8a-52bf7e9eb6cb))
  (segment (start 150.81 73.325) (end 153.35 73.325) (width 0.5) (layer "F.Cu") (net 1) (tstamp 65d413fc-93bf-42d7-9eeb-5c01c79e298f))
  (segment (start 134.9 91.1) (end 135.3 90.7) (width 0.5) (layer "F.Cu") (net 1) (tstamp 6740dbbc-7b9c-4847-914d-a9c0a8161bc4))
  (segment (start 148.27 74.22) (end 148.27 73.325) (width 0.5) (layer "F.Cu") (net 1) (tstamp 70be9dd2-f2b2-468b-b592-8c23716df67a))
  (segment (start 131.749511 74.049511) (end 130.55 72.85) (width 0.5) (layer "F.Cu") (net 1) (tstamp 711f0562-f99f-4ba5-b0d8-59787f2944bf))
  (segment (start 130.8 84.6) (end 130.85 84.55) (width 0.5) (layer "F.Cu") (net 1) (tstamp 772c54df-b051-4be4-8902-3d5060fa8fe4))
  (segment (start 158.29 85.425) (end 158.29 85.325) (width 0.5) (layer "F.Cu") (net 1) (tstamp 7761eecf-ad35-40e0-926d-a5abd566a3c9))
  (segment (start 160 75.55) (end 158.43 73.98) (width 0.5) (layer "F.Cu") (net 1) (tstamp 7e52c059-f8d8-44a6-b783-193f7d0cea94))
  (segment (start 130.55 72.85) (end 136.95 72.85) (width 0.5) (layer "F.Cu") (net 1) (tstamp 82597167-5a56-4003-a836-ebce32048a44))
  (segment (start 149.6 86.75) (end 151.885 86.75) (width 0.5) (layer "F.Cu") (net 1) (tstamp 8aa9a5ba-e9a0-4f5a-91c2-a04b0b22bb6f))
  (segment (start 148.27 73.325) (end 150.81 73.325) (width 0.5) (layer "F.Cu") (net 1) (tstamp 8f16c33d-426e-40c3-ba23-b730d734840e))
  (segment (start 149.55 86.7) (end 149.6 86.75) (width 0.5) (layer "F.Cu") (net 1) (tstamp 90ddedf4-e8b8-4266-bf32-de4357aba15b))
  (segment (start 142.44 80.05) (end 148.27 74.22) (width 0.5) (layer "F.Cu") (net 1) (tstamp 911b7048-3262-4918-9fdd-eb9567edead0))
  (segment (start 130.85 84.55) (end 130.85 80.65) (width 0.5) (layer "F.Cu") (net 1) (tstamp 9cd7ebd8-e51d-47b0-b3e7-01872b6b8ac2))
  (segment (start 130.35 92.9) (end 132.15 91.1) (width 0.5) (layer "F.Cu") (net 1) (tstamp a3167111-a077-4a85-9100-39dc87d0cd29))
  (segment (start 147.65 84.8) (end 149.55 86.7) (width 0.5) (layer "F.Cu") (net 1) (tstamp aa4cc1c0-5349-42c0-8b61-e95f319e2bea))
  (segment (start 131.65 80.05) (end 131.55 79.95) (width 0.5) (layer "F.Cu") (net 1) (tstamp af1baa4f-c05c-4a94-a2a4-d8740da6a1c7))
  (segment (start 153.35 73.325) (end 155.89 73.325) (width 0.5) (layer "F.Cu") (net 1) (tstamp b490bbcd-8f03-47d0-9c4a-cbd5f2ebb9fc))
  (segment (start 135.3 90.7) (end 135.3 88.35) (width 0.5) (layer "F.Cu") (net 1) (tstamp d99ff092-2242-4600-8f8c-69555d7b3855))
  (segment (start 130.35 94.6) (end 130.35 92.9) (width 0.5) (layer "F.Cu") (net 1) (tstamp dac40d41-46f1-473e-b4a7-9bc157a3000d))
  (segment (start 136.95 72.85) (end 137.05 72.75) (width 0.5) (layer "F.Cu") (net 1) (tstamp efbd4127-ec77-41a1-979d-b43e0d85114d))
  (segment (start 155.89 73.325) (end 158.43 73.325) (width 0.5) (layer "F.Cu") (net 1) (tstamp f59b0747-dba1-49b1-8f4b-77c7a9d12dcc))
  (segment (start 132.15 91.1) (end 134.9 91.1) (width 0.5) (layer "F.Cu") (net 1) (tstamp f626c752-b930-43b4-b6dd-3e85b59cf6ed))
  (segment (start 136.05 80.05) (end 142.44 80.05) (width 0.5) (layer "F.Cu") (net 1) (tstamp fc033ea2-5d15-443e-8e62-c3fb342b443a))
  (segment (start 136.95 84.35) (end 138.95 82.35) (width 0.5) (layer "F.Cu") (net 2) (tstamp 01713534-6225-4983-b39e-ab26dd382f79))
  (segment (start 150.81 78.375) (end 153.35 78.375) (width 0.5) (layer "F.Cu") (net 2) (tstamp 0879be40-8f06-4344-9bb6-7c7b6e9a0e3b))
  (segment (start 153.35 78.375) (end 155.89 78.375) (width 0.5) (layer "F.Cu") (net 2) (tstamp 1717108d-dd06-49d0-a320-509f27eb3e6f))
  (segment (start 155.89 78.375) (end 158.43 78.375) (width 0.5) (layer "F.Cu") (net 2) (tstamp 2e13d205-55d5-4a61-913a-13a86b54a94d))
  (segment (start 136.999511 90.249511) (end 137.75 91) (width 0.5) (layer "F.Cu") (net 2) (tstamp 5657047e-205d-4b5d-9ffd-0335175bb977))
  (segment (start 135.3 84.35) (end 136.95 84.35) (width 0.5) (layer "F.Cu") (net 2) (tstamp 5896266c-2ac9-4354-943d-bbddea7b9c72))
  (segment (start 148.025 78.375) (end 148.27 78.375) (width 0.5) (layer "F.Cu") (net 2) (tstamp 7df6c2de-0599-4e00-b7cd-0c054a6bd2af))
  (segment (start 138.95 82.35) (end 144.05 82.35) (width 0.5) (layer "F.Cu") (net 2) (tstamp 8b59bfe7-32fe-46be-85cc-8d1e13c7e1b1))
  (segment (start 137.75 91) (end 140.15 91) (width 0.5) (layer "F.Cu") (net 2) (tstamp 965a015d-61c4-4405-83b0-1ee0988dae08))
  (segment (start 136.999511 86.049511) (end 136.999511 90.249511) (width 0.5) (layer "F.Cu") (net 2) (tstamp a2291181-3c32-427a-a0a8-e8eed4e190a1))
  (segment (start 144.05 82.35) (end 148.025 78.375) (width 0.5) (layer "F.Cu") (net 2) (tstamp d634cc2f-d131-4f53-a20e-d2d74ca6f2f6))
  (segment (start 135.3 84.35) (end 136.999511 86.049511) (width 0.5) (layer "F.Cu") (net 2) (tstamp f95c46a8-77e5-4056-8787-377ed6689bf5))
  (segment (start 148.27 78.375) (end 150.81 78.375) (width 0.5) (layer "F.Cu") (net 2) (tstamp ff8f1db6-5394-4eab-8425-b56c4c4a77fc))
  (segment (start 155.75 90.475) (end 158.29 90.475) (width 0.5) (layer "F.Cu") (net 3) (tstamp 0e4a5827-026e-4b65-80c2-4fd6c5a818c9))
  (segment (start 140.4 88.45) (end 141.8 88.45) (width 0.5) (layer "F.Cu") (net 3) (tstamp 2344e79d-9886-4369-80c0-b4c51dec6298))
  (segment (start 153.21 90.475) (end 155.75 90.475) (width 0.5) (layer "F.Cu") (net 3) (tstamp 309158e0-2193-44f1-88a6-91a1480fdaa2))
  (segment (start 149.6 90.75) (end 152.935 90.75) (width 0.5) (layer "F.Cu") (net 3) (tstamp 3b5a862c-bb1c-46c6-8824-7361d4732601))
  (segment (start 149.55 90.7) (end 149.6 90.75) (width 0.5) (layer "F.Cu") (net 3) (tstamp 57a5dc79-0bab-4785-a24d-df8290cb4f70))
  (segment (start 142.55 94.65) (end 142.85 94.35) (width 0.5) (layer "F.Cu") (net 3) (tstamp 6a832e18-2fb0-4a17-99d4-9811ed4f61e0))
  (segment (start 152.935 90.75) (end 153.21 90.475) (width 0.5) (layer "F.Cu") (net 3) (tstamp 6d235369-598c-4623-8d45-f89d68d5736f))
  (segment (start 142.85 94.35) (end 142.85 88.45) (width 0.5) (layer "F.Cu") (net 3) (tstamp bd8f41e5-13d5-4b6c-8955-d90758a8b774))
  (segment (start 141.8 88.45) (end 146.2 88.45) (width 0.5) (layer "F.Cu") (net 3) (tstamp c30b3cf7-4489-4ac3-8992-f12496f2b89f))
  (segment (start 142.85 88.45) (end 141.8 88.45) (width 0.5) (layer "F.Cu") (net 3) (tstamp e2ec0efb-7431-4141-8f5a-b684cc128661))
  (segment (start 147.55 88.7) (end 149.55 90.7) (width 0.5) (layer "F.Cu") (net 3) (tstamp e623c799-b657-4a13-ab30-6ca1422c8cc0))
  (segment (start 146.2 88.45) (end 146.45 88.7) (width 0.5) (layer "F.Cu") (net 3) (tstamp f10b8736-7dfa-4cd0-840f-6ba7224c6dcd))
  (segment (start 146.45 88.7) (end 147.55 88.7) (width 0.5) (layer "F.Cu") (net 3) (tstamp f9d9eb15-1f6b-4a7e-a983-e1465c03db6d))
  (segment (start 140.15 88.7) (end 140.4 88.45) (width 0.5) (layer "F.Cu") (net 3) (tstamp fba44073-696f-474a-8785-9cb725e923b4))
  (segment (start 127.6 88.1) (end 127.6 70.75) (width 0.5) (layer "F.Cu") (net 4) (tstamp 26112328-a9ce-4e79-982c-142a15adce0c))
  (segment (start 127.6 70.75) (end 127.7 70.65) (width 0.5) (layer "F.Cu") (net 4) (tstamp 36f47047-cc8e-4152-94d7-c526f49beeb4))
  (segment (start 142.51 70.65) (end 144.05 72.19) (width 0.5) (layer "F.Cu") (net 4) (tstamp 4e807c26-90fe-4b37-a467-fb790dea2494))
  (segment (start 139.84 76.4) (end 144.05 72.19) (width 0.5) (layer "F.Cu") (net 4) (tstamp 5794fe78-5dfe-4b66-bf4a-419daa3747c6))
  (segment (start 130.8 88.1) (end 127.6 88.1) (width 0.5) (layer "F.Cu") (net 4) (tstamp 5d752604-a415-473a-9d8a-d482c23fffc8))
  (segment (start 127.7 70.65) (end 142.51 70.65) (width 0.5) (layer "F.Cu") (net 4) (tstamp 93694b52-cc7c-42a2-bf82-005e1e7662fa))
  (segment (start 139.05 76.4) (end 139.84 76.4) (width 0.5) (layer "F.Cu") (net 4) (tstamp b3e0c633-ce9f-4d7b-9cdb-6c98401c633c))
  (segment (start 138.55 94.65) (end 138.3 94.9) (width 0.5) (layer "F.Cu") (net 5) (tstamp 1d53e18d-b2a8-4b85-a5fc-f86bc7f50b5e))
  (segment (start 134.65 94.9) (end 134.35 94.6) (width 0.5) (layer "F.Cu") (net 5) (tstamp 2716f0f8-61f6-4ea1-bdd3-d9d18df93c31))
  (segment (start 138.3 94.9) (end 134.65 94.9) (width 0.5) (layer "F.Cu") (net 5) (tstamp 8e55a23e-4cca-45dd-b736-03c1edd50d84))

)
