%TF.GenerationSoftware,KiCad,Pcbnew,(6.0.2-0)*%
%TF.CreationDate,2022-05-18T18:27:12+03:00*%
%TF.ProjectId,stepperMotor_412_reg_LM2940,73746570-7065-4724-9d6f-746f725f3431,rev?*%
%TF.SameCoordinates,Original*%
%TF.FileFunction,Copper,L2,Bot*%
%TF.FilePolarity,Positive*%
%FSLAX46Y46*%
G04 Gerber Fmt 4.6, Leading zero omitted, Abs format (unit mm)*
G04 Created by KiCad (PCBNEW (6.0.2-0)) date 2022-05-18 18:27:12*
%MOMM*%
%LPD*%
G01*
G04 APERTURE LIST*
%TA.AperFunction,Profile*%
%ADD10C,0.100000*%
%TD*%
%TA.AperFunction,ComponentPad*%
%ADD11C,2.700000*%
%TD*%
%TA.AperFunction,ComponentPad*%
%ADD12C,2.100000*%
%TD*%
%TA.AperFunction,ComponentPad*%
%ADD13R,2.100000X2.100000*%
%TD*%
%TA.AperFunction,ComponentPad*%
%ADD14R,3.000000X3.000000*%
%TD*%
%TA.AperFunction,ComponentPad*%
%ADD15C,3.000000*%
%TD*%
%TA.AperFunction,Conductor*%
%ADD16C,0.400000*%
%TD*%
G04 APERTURE END LIST*
D10*
X131700610Y-82700610D02*
G75*
G03*
X128800610Y-85600610I-1J-2899999D01*
G01*
X179649390Y-85625610D02*
G75*
G03*
X176749390Y-82725610I-2899999J1D01*
G01*
X131700610Y-82700610D02*
X176749390Y-82725610D01*
X128800610Y-85600610D02*
X128800610Y-116274390D01*
X128800610Y-116274390D02*
G75*
G03*
X131700610Y-119174390I2899999J-1D01*
G01*
X176749390Y-119074390D02*
G75*
G03*
X179649390Y-116174390I1J2899999D01*
G01*
X131700610Y-119174390D02*
X176749390Y-119074390D01*
X179649390Y-116174390D02*
X179649390Y-85625610D01*
D11*
%TO.P,REF\u002A\u002A,*%
%TO.N,*%
X131800000Y-85775000D03*
%TD*%
%TO.P,REF\u002A\u002A,*%
%TO.N,*%
X132175000Y-115800000D03*
%TD*%
D12*
%TO.P,C3,2*%
%TO.N,PWR_GND*%
X175700000Y-100232379D03*
D13*
%TO.P,C3,e*%
%TO.N,PWR_5V*%
X175700000Y-97232379D03*
%TD*%
D14*
%TO.P,J1,1,Pin_1*%
%TO.N,PWR_GND*%
X170975000Y-86500000D03*
D15*
%TO.P,J1,2,Pin_2*%
%TO.N,PWR_12V*%
X174475000Y-86500000D03*
%TD*%
D11*
%TO.P,REF\u002A\u002A,*%
%TO.N,*%
X176200000Y-116150000D03*
%TD*%
D13*
%TO.P,J6,1,DIR*%
%TO.N,DIR*%
X151475000Y-92175000D03*
D12*
%TO.P,J6,2,STEP*%
%TO.N,STEP*%
X151475000Y-94715000D03*
%TO.P,J6,3,NC*%
%TO.N,unconnected-(J6-Pad3)*%
X151475000Y-97255000D03*
%TO.P,J6,4,NC*%
%TO.N,unconnected-(J6-Pad4)*%
X151475000Y-99795000D03*
%TO.P,J6,5,CFG3*%
%TO.N,unconnected-(J6-Pad5)*%
X151475000Y-102335000D03*
%TO.P,J6,6,CFG2*%
%TO.N,unconnected-(J6-Pad6)*%
X151475000Y-104875000D03*
%TO.P,J6,7,CFG1*%
%TO.N,unconnected-(J6-Pad7)*%
X151475000Y-107415000D03*
%TO.P,J6,8,EN*%
%TO.N,EN*%
X151475000Y-109955000D03*
%TO.P,J6,9,VM*%
%TO.N,PWR_12V*%
X138775000Y-109955000D03*
%TO.P,J6,10,GND*%
%TO.N,PWR_GND*%
X138775000Y-107415000D03*
%TO.P,J6,11,M2B*%
%TO.N,M2B*%
X138775000Y-104875000D03*
%TO.P,J6,12,M2A*%
%TO.N,M2A*%
X138775000Y-102335000D03*
%TO.P,J6,13,M1A*%
%TO.N,M1A*%
X138775000Y-99795000D03*
%TO.P,J6,14,M1B*%
%TO.N,M1B*%
X138775000Y-97255000D03*
%TO.P,J6,15,VIO*%
%TO.N,PWR_5V*%
X138775000Y-94715000D03*
%TO.P,J6,16,GND*%
%TO.N,PWR_GND*%
X138775000Y-92175000D03*
%TD*%
%TO.P,J7,1,Pin_1*%
%TO.N,M1B*%
X138900000Y-87025000D03*
%TO.P,J7,2,Pin_2*%
%TO.N,M1A*%
X141440000Y-87025000D03*
%TO.P,J7,3,Pin_3*%
%TO.N,M2A*%
X143980000Y-87025000D03*
%TO.P,J7,4,Pin_4*%
%TO.N,M2B*%
X146520000Y-87025000D03*
%TD*%
D16*
%TO.N,PWR_12V*%
X138775000Y-109955000D02*
X138775000Y-112300000D01*
X138775000Y-112300000D02*
X140325000Y-113850000D01*
X175050000Y-93500000D02*
X175050000Y-87075000D01*
X140325000Y-113850000D02*
X154700000Y-113850000D01*
X154700000Y-113850000D02*
X175050000Y-93500000D01*
X175050000Y-87075000D02*
X174475000Y-86500000D01*
%TO.N,PWR_5V*%
X138775000Y-94715000D02*
X137785000Y-94715000D01*
X137785000Y-94715000D02*
X135500000Y-97000000D01*
X135500000Y-97000000D02*
X135500000Y-111675000D01*
X140150000Y-116325000D02*
X156607379Y-116325000D01*
X135500000Y-111675000D02*
X140150000Y-116325000D01*
X156607379Y-116325000D02*
X175700000Y-97232379D01*
%TO.N,M2B*%
X146625000Y-87130000D02*
X146625000Y-97025000D01*
X146625000Y-97025000D02*
X138775000Y-104875000D01*
X146520000Y-87025000D02*
X146625000Y-87130000D01*
%TO.N,M2A*%
X144175000Y-96935000D02*
X138775000Y-102335000D01*
X144175000Y-87220000D02*
X144175000Y-96935000D01*
X143980000Y-87025000D02*
X144175000Y-87220000D01*
%TO.N,M1A*%
X142050000Y-87635000D02*
X142050000Y-96520000D01*
X141440000Y-87025000D02*
X142050000Y-87635000D01*
X142050000Y-96520000D02*
X138775000Y-99795000D01*
%TO.N,M1B*%
X140450000Y-95580000D02*
X138775000Y-97255000D01*
X138900000Y-87025000D02*
X138900000Y-89200000D01*
X140450000Y-90750000D02*
X140450000Y-95580000D01*
X138900000Y-89200000D02*
X140450000Y-90750000D01*
%TD*%
M02*
