%TF.GenerationSoftware,KiCad,Pcbnew,(6.0.2-0)*%
%TF.CreationDate,2022-05-30T05:08:11+03:00*%
%TF.ProjectId,serial_D11C_usbA_2,73657269-616c-45f4-9431-31435f757362,rev?*%
%TF.SameCoordinates,Original*%
%TF.FileFunction,Profile,NP*%
%FSLAX46Y46*%
G04 Gerber Fmt 4.6, Leading zero omitted, Abs format (unit mm)*
G04 Created by KiCad (PCBNEW (6.0.2-0)) date 2022-05-30 05:08:11*
%MOMM*%
%LPD*%
G01*
G04 APERTURE LIST*
%TA.AperFunction,Profile*%
%ADD10C,0.100000*%
%TD*%
G04 APERTURE END LIST*
D10*
X113600000Y-86600000D02*
X153335786Y-86614214D01*
X153360786Y-108710786D02*
G75*
G03*
X155360786Y-106710786I1J1999999D01*
G01*
X155335786Y-88614214D02*
G75*
G03*
X153335786Y-86614214I-1999999J1D01*
G01*
X113600000Y-86600000D02*
G75*
G03*
X111600000Y-88600000I-1J-1999999D01*
G01*
X155360786Y-106710786D02*
X155335786Y-88614214D01*
X111600000Y-106700000D02*
G75*
G03*
X113600000Y-108700000I1999999J-1D01*
G01*
X113600000Y-108700000D02*
X153360786Y-108710786D01*
X111600000Y-88600000D02*
X111600000Y-106700000D01*
M02*
