%TF.GenerationSoftware,KiCad,Pcbnew,(6.0.2-0)*%
%TF.CreationDate,2022-03-23T04:42:16+02:00*%
%TF.ProjectId,ATtiny_led_matrix,41547469-6e79-45f6-9c65-645f6d617472,rev?*%
%TF.SameCoordinates,Original*%
%TF.FileFunction,Profile,NP*%
%FSLAX46Y46*%
G04 Gerber Fmt 4.6, Leading zero omitted, Abs format (unit mm)*
G04 Created by KiCad (PCBNEW (6.0.2-0)) date 2022-03-23 04:42:16*
%MOMM*%
%LPD*%
G01*
G04 APERTURE LIST*
%ADD10C,0.112500*%
%TA.AperFunction,Profile*%
%ADD11C,0.100000*%
%TD*%
G04 APERTURE END LIST*
D10*
X182946254Y-68601934D02*
X183848379Y-67873280D01*
X148602759Y-105263149D02*
X156500000Y-105263149D01*
X128487821Y-66815916D02*
X128518786Y-66931840D01*
X128556749Y-67045130D01*
X128601527Y-67155495D01*
X128652937Y-67262644D01*
X128710795Y-67366285D01*
X128774919Y-67466128D01*
X128845126Y-67561881D01*
X128921233Y-67653253D01*
X129003057Y-67739953D01*
X129090414Y-67821689D01*
X129151637Y-67873280D01*
X132340267Y-92942599D02*
X146974903Y-104690606D01*
X181450835Y-91382649D02*
X182413373Y-69656634D01*
X130053762Y-68601934D02*
X130140550Y-68677977D01*
X130220421Y-68760138D01*
X130293132Y-68847933D01*
X130358439Y-68940881D01*
X130416099Y-69038501D01*
X130465868Y-69140309D01*
X130507502Y-69245823D01*
X130540757Y-69354563D01*
X130565391Y-69466045D01*
X130581160Y-69579787D01*
X130586627Y-69656634D01*
X125390707Y-47981455D02*
X125268507Y-47980586D01*
X125150478Y-47994106D01*
X125037383Y-48021116D01*
X124929986Y-48060713D01*
X124829054Y-48112000D01*
X124691446Y-48208876D01*
X124572683Y-48326988D01*
X124475343Y-48463299D01*
X124402009Y-48614769D01*
X124367729Y-48722670D01*
X124346029Y-48835060D01*
X124337675Y-48951036D01*
X124343429Y-49069700D01*
X124364058Y-49190151D01*
X188635942Y-49190151D02*
X188656570Y-49069700D01*
X188662324Y-48951036D01*
X188653970Y-48835060D01*
X188632270Y-48722670D01*
X188597991Y-48614769D01*
X188524656Y-48463299D01*
X188427317Y-48326988D01*
X188308553Y-48208876D01*
X188170946Y-48112000D01*
X188070013Y-48060713D01*
X187962617Y-48021116D01*
X187849522Y-47994106D01*
X187731492Y-47980586D01*
X187609293Y-47981455D01*
X187609293Y-47981455D02*
X175796723Y-48777805D01*
X131549181Y-91382649D02*
X131557287Y-91496425D01*
X131571408Y-91609025D01*
X131591437Y-91720234D01*
X131617266Y-91829839D01*
X131666646Y-91990777D01*
X131728467Y-92146910D01*
X131802366Y-92297520D01*
X131887978Y-92441890D01*
X131984938Y-92579301D01*
X132092882Y-92709035D01*
X132170768Y-92790904D01*
X132253265Y-92868830D01*
X132340267Y-92942599D01*
X146974903Y-104690606D02*
X147107628Y-104790355D01*
X147245823Y-104881049D01*
X147389019Y-104962522D01*
X147536746Y-105034609D01*
X147688536Y-105097146D01*
X147843919Y-105149966D01*
X148002425Y-105192906D01*
X148163586Y-105225800D01*
X148326932Y-105248483D01*
X148491995Y-105260790D01*
X148602759Y-105263149D01*
X137203277Y-48777805D02*
X125390707Y-47981455D01*
X175796723Y-48777805D02*
X137203277Y-48777805D01*
X129151637Y-67873280D02*
X130053762Y-68601934D01*
X180659750Y-92942599D02*
X180746751Y-92868830D01*
X180829247Y-92790904D01*
X180907132Y-92709035D01*
X180980296Y-92623434D01*
X181080957Y-92488502D01*
X181170390Y-92346372D01*
X181248232Y-92197762D01*
X181314119Y-92043390D01*
X181367687Y-91883975D01*
X181408572Y-91720234D01*
X181428602Y-91609025D01*
X181442726Y-91496425D01*
X181450835Y-91382649D01*
X166025097Y-104690606D02*
X180659750Y-92942599D01*
X130586627Y-69656634D02*
X131549181Y-91382649D01*
X156500000Y-105263149D02*
X164397241Y-105263149D01*
D11*
X180000000Y-53400000D02*
G75*
G03*
X180000000Y-53400000I-1500000J0D01*
G01*
D10*
X183848379Y-67873280D02*
X183939323Y-67795013D01*
X184024855Y-67711590D01*
X184104792Y-67623300D01*
X184178950Y-67530435D01*
X184247148Y-67433287D01*
X184309202Y-67332145D01*
X184364929Y-67227303D01*
X184414146Y-67119049D01*
X184456672Y-67007677D01*
X184492322Y-66893477D01*
X184512179Y-66815916D01*
X182413373Y-69656634D02*
X182423099Y-69541652D01*
X182441853Y-69428609D01*
X182469391Y-69317988D01*
X182505468Y-69210270D01*
X182549843Y-69105937D01*
X182602270Y-69005472D01*
X182662506Y-68909356D01*
X182730309Y-68818072D01*
X182805434Y-68732101D01*
X182887638Y-68651926D01*
X182946254Y-68601934D01*
X184512179Y-66815916D02*
X188635942Y-49190151D01*
X124364058Y-49190151D02*
X128487821Y-66815916D01*
X164397241Y-105263149D02*
X164563187Y-105257851D01*
X164727730Y-105242067D01*
X164890400Y-105215962D01*
X165050728Y-105179701D01*
X165208245Y-105133449D01*
X165362482Y-105077372D01*
X165512970Y-105011633D01*
X165659239Y-104936399D01*
X165800820Y-104851834D01*
X165937244Y-104758103D01*
X166025097Y-104690606D01*
M02*
